testbench/parser.vcd
$date
	Sat Aug 31 12:37:16 2019
$end
$version
	ModelSim Version 10.3
$end
$timescale
	1ns
$end

$scope module testrunner $end

$scope module __ts $end

$scope module parser_ut $end

$scope module my_parser $end
$var wire 1 ! clk $end
$var wire 1 " rst $end
$var wire 1 # avl_st_rx_valid $end
$var wire 1 $ avl_st_rx_data [63] $end
$var wire 1 % avl_st_rx_data [62] $end
$var wire 1 & avl_st_rx_data [61] $end
$var wire 1 ' avl_st_rx_data [60] $end
$var wire 1 ( avl_st_rx_data [59] $end
$var wire 1 ) avl_st_rx_data [58] $end
$var wire 1 * avl_st_rx_data [57] $end
$var wire 1 + avl_st_rx_data [56] $end
$var wire 1 , avl_st_rx_data [55] $end
$var wire 1 - avl_st_rx_data [54] $end
$var wire 1 . avl_st_rx_data [53] $end
$var wire 1 / avl_st_rx_data [52] $end
$var wire 1 0 avl_st_rx_data [51] $end
$var wire 1 1 avl_st_rx_data [50] $end
$var wire 1 2 avl_st_rx_data [49] $end
$var wire 1 3 avl_st_rx_data [48] $end
$var wire 1 4 avl_st_rx_data [47] $end
$var wire 1 5 avl_st_rx_data [46] $end
$var wire 1 6 avl_st_rx_data [45] $end
$var wire 1 7 avl_st_rx_data [44] $end
$var wire 1 8 avl_st_rx_data [43] $end
$var wire 1 9 avl_st_rx_data [42] $end
$var wire 1 : avl_st_rx_data [41] $end
$var wire 1 ; avl_st_rx_data [40] $end
$var wire 1 < avl_st_rx_data [39] $end
$var wire 1 = avl_st_rx_data [38] $end
$var wire 1 > avl_st_rx_data [37] $end
$var wire 1 ? avl_st_rx_data [36] $end
$var wire 1 @ avl_st_rx_data [35] $end
$var wire 1 A avl_st_rx_data [34] $end
$var wire 1 B avl_st_rx_data [33] $end
$var wire 1 C avl_st_rx_data [32] $end
$var wire 1 D avl_st_rx_data [31] $end
$var wire 1 E avl_st_rx_data [30] $end
$var wire 1 F avl_st_rx_data [29] $end
$var wire 1 G avl_st_rx_data [28] $end
$var wire 1 H avl_st_rx_data [27] $end
$var wire 1 I avl_st_rx_data [26] $end
$var wire 1 J avl_st_rx_data [25] $end
$var wire 1 K avl_st_rx_data [24] $end
$var wire 1 L avl_st_rx_data [23] $end
$var wire 1 M avl_st_rx_data [22] $end
$var wire 1 N avl_st_rx_data [21] $end
$var wire 1 O avl_st_rx_data [20] $end
$var wire 1 P avl_st_rx_data [19] $end
$var wire 1 Q avl_st_rx_data [18] $end
$var wire 1 R avl_st_rx_data [17] $end
$var wire 1 S avl_st_rx_data [16] $end
$var wire 1 T avl_st_rx_data [15] $end
$var wire 1 U avl_st_rx_data [14] $end
$var wire 1 V avl_st_rx_data [13] $end
$var wire 1 W avl_st_rx_data [12] $end
$var wire 1 X avl_st_rx_data [11] $end
$var wire 1 Y avl_st_rx_data [10] $end
$var wire 1 Z avl_st_rx_data [9] $end
$var wire 1 [ avl_st_rx_data [8] $end
$var wire 1 \ avl_st_rx_data [7] $end
$var wire 1 ] avl_st_rx_data [6] $end
$var wire 1 ^ avl_st_rx_data [5] $end
$var wire 1 _ avl_st_rx_data [4] $end
$var wire 1 ` avl_st_rx_data [3] $end
$var wire 1 a avl_st_rx_data [2] $end
$var wire 1 b avl_st_rx_data [1] $end
$var wire 1 c avl_st_rx_data [0] $end
$var wire 1 d avl_st_rx_sop $end
$var wire 1 e avl_st_rx_eop $end
$var wire 1 f avl_st_rx_empty [2] $end
$var wire 1 g avl_st_rx_empty [1] $end
$var wire 1 h avl_st_rx_empty [0] $end
$var reg 1 i out1_valid $end
$var reg 32 j out1_tag [31:0] $end
$var reg 128 k out1_value [127:0] $end
$var reg 1 l out2_valid $end
$var reg 32 m out2_tag [31:0] $end
$var reg 128 n out2_value [127:0] $end
$var reg 9 o wr_cnt [8:0] $end
$var reg 9 p rd_cnt [8:0] $end
$var wire 8 q fifo_rdata [7:0] $end
$var reg 1 r space_flag $end
$var reg 7 s op_cnt [6:0] $end
$var reg 32 t flg_data [31:0] $end
$var reg 3 u state [2:0] $end
$upscope $end
$upscope $end
$upscope $end

$scope function build $end
$upscope $end

$scope task run $end
$upscope $end

$scope module __ts $end

$scope function build $end
$upscope $end

$scope task run $end
$upscope $end

$scope module parser_op_dual_ut $end

$scope task step $end
$upscope $end

$scope task nextSamplePoint $end
$upscope $end

$scope task reset $end
$upscope $end

$scope function build $end
$upscope $end

$scope task setup $end
$upscope $end

$scope task teardown $end
$upscope $end

$scope task run $end

$scope begin test_rst $end
$upscope $end

$scope begin test_random_400 $end
$upscope $end
$upscope $end

$scope module my_parser_op_dual $end
$var wire 1 v fifo1_full $end
$var wire 1 w fifo1_empty $end
$var wire 1 x fifo2_full $end
$var wire 1 y fifo2_empty $end

$scope function space_check $end
$upscope $end

$scope module i_f1 $end
$upscope $end

$scope module i_f2 $end
$upscope $end
$upscope $end
$upscope $end

$scope module parser_op_ut $end

$scope task step $end
$upscope $end

$scope task nextSamplePoint $end
$upscope $end

$scope task reset $end
$upscope $end

$scope function build $end
$upscope $end

$scope task setup $end
$upscope $end

$scope task teardown $end
$upscope $end

$scope task run $end

$scope begin test_rst $end
$upscope $end

$scope begin test_8_bit_tag $end
$upscope $end

$scope begin test_16_bit_tag $end
$upscope $end

$scope begin test_24_bit_tag $end
$upscope $end

$scope begin test_32_bit_tag $end
$upscope $end

$scope begin test_random_400 $end
$upscope $end
$upscope $end

$scope module my_parser_op $end
$var wire 1 z full $end
$var wire 1 { empty $end

$scope function space_check $end
$upscope $end
$upscope $end
$upscope $end

$scope module parser_ut $end

$scope task step $end
$upscope $end

$scope task nextSamplePoint $end
$upscope $end

$scope task reset $end
$upscope $end

$scope function build $end
$upscope $end

$scope task setup $end
$upscope $end

$scope task teardown $end
$upscope $end

$scope task run $end

$scope begin test_rst $end
$upscope $end

$scope begin test_8_bit_tag $end
$upscope $end

$scope begin test_16_bit_tag $end
$upscope $end

$scope begin test_24_bit_tag $end
$upscope $end

$scope begin test_32_bit_tag $end
$upscope $end

$scope begin test_random_200 $end
$upscope $end
$upscope $end

$scope module my_parser $end
$var wire 1 ! clk $end
$var wire 1 " rst $end
$var wire 1 # avl_st_rx_valid $end
$var wire 1 $ avl_st_rx_data [63] $end
$var wire 1 % avl_st_rx_data [62] $end
$var wire 1 & avl_st_rx_data [61] $end
$var wire 1 ' avl_st_rx_data [60] $end
$var wire 1 ( avl_st_rx_data [59] $end
$var wire 1 ) avl_st_rx_data [58] $end
$var wire 1 * avl_st_rx_data [57] $end
$var wire 1 + avl_st_rx_data [56] $end
$var wire 1 , avl_st_rx_data [55] $end
$var wire 1 - avl_st_rx_data [54] $end
$var wire 1 . avl_st_rx_data [53] $end
$var wire 1 / avl_st_rx_data [52] $end
$var wire 1 0 avl_st_rx_data [51] $end
$var wire 1 1 avl_st_rx_data [50] $end
$var wire 1 2 avl_st_rx_data [49] $end
$var wire 1 3 avl_st_rx_data [48] $end
$var wire 1 4 avl_st_rx_data [47] $end
$var wire 1 5 avl_st_rx_data [46] $end
$var wire 1 6 avl_st_rx_data [45] $end
$var wire 1 7 avl_st_rx_data [44] $end
$var wire 1 8 avl_st_rx_data [43] $end
$var wire 1 9 avl_st_rx_data [42] $end
$var wire 1 : avl_st_rx_data [41] $end
$var wire 1 ; avl_st_rx_data [40] $end
$var wire 1 < avl_st_rx_data [39] $end
$var wire 1 = avl_st_rx_data [38] $end
$var wire 1 > avl_st_rx_data [37] $end
$var wire 1 ? avl_st_rx_data [36] $end
$var wire 1 @ avl_st_rx_data [35] $end
$var wire 1 A avl_st_rx_data [34] $end
$var wire 1 B avl_st_rx_data [33] $end
$var wire 1 C avl_st_rx_data [32] $end
$var wire 1 D avl_st_rx_data [31] $end
$var wire 1 E avl_st_rx_data [30] $end
$var wire 1 F avl_st_rx_data [29] $end
$var wire 1 G avl_st_rx_data [28] $end
$var wire 1 H avl_st_rx_data [27] $end
$var wire 1 I avl_st_rx_data [26] $end
$var wire 1 J avl_st_rx_data [25] $end
$var wire 1 K avl_st_rx_data [24] $end
$var wire 1 L avl_st_rx_data [23] $end
$var wire 1 M avl_st_rx_data [22] $end
$var wire 1 N avl_st_rx_data [21] $end
$var wire 1 O avl_st_rx_data [20] $end
$var wire 1 P avl_st_rx_data [19] $end
$var wire 1 Q avl_st_rx_data [18] $end
$var wire 1 R avl_st_rx_data [17] $end
$var wire 1 S avl_st_rx_data [16] $end
$var wire 1 T avl_st_rx_data [15] $end
$var wire 1 U avl_st_rx_data [14] $end
$var wire 1 V avl_st_rx_data [13] $end
$var wire 1 W avl_st_rx_data [12] $end
$var wire 1 X avl_st_rx_data [11] $end
$var wire 1 Y avl_st_rx_data [10] $end
$var wire 1 Z avl_st_rx_data [9] $end
$var wire 1 [ avl_st_rx_data [8] $end
$var wire 1 \ avl_st_rx_data [7] $end
$var wire 1 ] avl_st_rx_data [6] $end
$var wire 1 ^ avl_st_rx_data [5] $end
$var wire 1 _ avl_st_rx_data [4] $end
$var wire 1 ` avl_st_rx_data [3] $end
$var wire 1 a avl_st_rx_data [2] $end
$var wire 1 b avl_st_rx_data [1] $end
$var wire 1 c avl_st_rx_data [0] $end
$var wire 1 d avl_st_rx_sop $end
$var wire 1 e avl_st_rx_eop $end
$var wire 1 f avl_st_rx_empty [2] $end
$var wire 1 g avl_st_rx_empty [1] $end
$var wire 1 h avl_st_rx_empty [0] $end
$upscope $end
$upscope $end
$upscope $end
$upscope $end

$scope begin svunit_pkg $end
$upscope $end

$scope begin std $end
$upscope $end
$enddefinitions $end
#0
$dumpvars
0i
bx j
bx k
xl
bx m
bx n
bx o
bx p
xr
bx s
b0 t
b1 u
bx q
xv
xw
xx
xy
xz
x{
1!
0"
0#
0c
0b
0a
0`
0_
0^
0]
0\
0[
0Z
0Y
0X
0W
0V
0U
0T
0S
0R
0Q
0P
0O
0N
0M
0L
0K
0J
0I
0H
0G
0F
0E
0D
0C
0B
0A
0@
0?
0>
0=
0<
0;
0:
09
08
07
06
05
04
03
02
01
00
0/
0.
0-
0,
0+
0*
0)
0(
0'
0&
0%
0$
0d
0e
0h
0g
0f
$end
#10
0x
0v
1w
1y
#60
0w
#100
1w
#140
0y
#170
1y
#210
0w
#230
1w
#270
0y
#300
1y
#340
0w
#370
1w
#410
0y
#440
1y
#480
0w
#510
1w
#550
0y
#570
1y
#610
0w
#640
1w
#680
0y
#700
1y
#740
0w
#770
1w
#810
0y
#840
1y
#880
0w
#910
1w
#950
0y
#980
1y
#1020
0w
#1060
1w
#1100
0y
#1130
1y
#1170
0w
#1200
1w
#1240
0y
#1260
1y
#1300
0w
#1330
1w
#1370
0y
#1410
1y
#1450
0w
#1470
1w
#1510
0y
#1540
1y
#1580
0w
#1610
1w
#1650
0y
#1680
1y
#1720
0w
#1750
1w
#1790
0y
#1810
1y
#1850
0w
#1890
1w
#1930
0y
#1960
1y
#2000
0w
#2030
1w
#2070
0y
#2100
1y
#2140
0w
#2170
1w
#2210
0y
#2240
1y
#2280
0w
#2310
1w
#2350
0y
#2380
1y
#2420
0w
#2440
1w
#2480
0y
#2520
1y
#2560
0w
#2590
1w
#2630
0y
#2660
1y
#2700
0w
#2730
1w
#2770
0y
#2810
1y
#2850
0w
#2880
1w
#2920
0y
#2950
1y
#2990
0w
#3030
1w
#3070
0y
#3100
1y
#3140
0w
#3180
1w
#3220
0y
#3260
1y
#3300
0w
#3340
1w
#3380
0y
#3410
1y
#3450
0w
#3480
1w
#3520
0y
#3560
1y
#3600
0w
#3630
1w
#3670
0y
#3690
1y
#3730
0w
#3760
1w
#3800
0y
#3830
1y
#3870
0w
#3890
1w
#3930
0y
#3960
1y
#4000
0w
#4020
1w
#4060
0y
#4090
1y
#4130
0w
#4150
1w
#4190
0y
#4220
1y
#4260
0w
#4280
1w
#4320
0y
#4360
1y
#4400
0w
#4430
1w
#4470
0y
#4510
1y
#4550
0w
#4580
1w
#4620
0y
#4650
1y
#4690
0w
#4710
1w
#4750
0y
#4780
1y
#4820
0w
#4840
1w
#4880
0y
#4920
1y
#4960
0w
#4990
1w
#5030
0y
#5050
1y
#5090
0w
#5120
1w
#5160
0y
#5190
1y
#5230
0w
#5260
1w
#5300
0y
#5330
1y
#5370
0w
#5390
1w
#5430
0y
#5470
1y
#5510
0w
#5540
1w
#5580
0y
#5610
1y
#5650
0w
#5670
1w
#5710
0y
#5740
1y
#5780
0w
#5820
1w
#5860
0y
#5890
1y
#5930
0w
#5960
1w
#6000
0y
#6030
1y
#6070
0w
#6100
1w
#6140
0y
#6170
1y
#6210
0w
#6240
1w
#6280
0y
#6310
1y
#6350
0w
#6390
1w
#6430
0y
#6460
1y
#6500
0w
#6530
1w
#6570
0y
#6600
1y
#6640
0w
#6660
1w
#6700
0y
#6720
1y
#6760
0w
#6790
1w
#6830
0y
#6850
1y
#6890
0w
#6930
1w
#6970
0y
#6990
1y
#7030
0w
#7060
1w
#7100
0y
#7140
1y
#7180
0w
#7220
1w
#7260
0y
#7280
1y
#7320
0w
#7350
1w
#7390
0y
#7430
1y
#7470
0w
#7490
1w
#7530
0y
#7560
1y
#7600
0w
#7620
1w
#7660
0y
#7690
1y
#7730
0w
#7770
1w
#7810
0y
#7840
1y
#7880
0w
#7900
1w
#7940
0y
#7980
1y
#8020
0w
#8050
1w
#8090
0y
#8110
1y
#8150
0w
#8190
1w
#8230
0y
#8250
1y
#8290
0w
#8320
1w
#8360
0y
#8400
1y
#8440
0w
#8460
1w
#8500
0y
#8520
1y
#8560
0w
#8580
1w
#8620
0y
#8660
1y
#8700
0w
#8740
1w
#8780
0y
#8810
1y
#8850
0w
#8880
1w
#8920
0y
#8960
1y
#9000
0w
#9020
1w
#9060
0y
#9080
1y
#9120
0w
#9140
1w
#9180
0y
#9210
1y
#9250
0w
#9280
1w
#9320
0y
#9340
1y
#9380
0w
#9410
1w
#9450
0y
#9480
1y
#9520
0w
#9560
1w
#9600
0y
#9630
1y
#9670
0w
#9710
1w
#9750
0y
#9780
1y
#9820
0w
#9860
1w
#9900
0y
#9940
1y
#9980
0w
#10010
1w
#10050
0y
#10080
1y
#10120
0w
#10150
1w
#10190
0y
#10220
1y
#10260
0w
#10280
1w
#10320
0y
#10350
1y
#10390
0w
#10410
1w
#10450
0y
#10480
1y
#10520
0w
#10540
1w
#10580
0y
#10600
1y
#10640
0w
#10680
1w
#10720
0y
#10750
1y
#10790
0w
#10820
1w
#10860
0y
#10890
1y
#10930
0w
#10960
1w
#11000
0y
#11020
1y
#11060
0w
#11090
1w
#11130
0y
#11170
1y
#11210
0w
#11230
1w
#11270
0y
#11290
1y
#11330
0w
#11350
1w
#11390
0y
#11430
1y
#11470
0w
#11500
1w
#11540
0y
#11580
1y
#11620
0w
#11650
1w
#11690
0y
#11710
1y
#11750
0w
#11790
1w
#11830
0y
#11860
1y
#11900
0w
#11940
1w
#11980
0y
#12010
1y
#12050
0w
#12070
1w
#12110
0y
#12130
1y
#12170
0w
#12200
1w
#12240
0y
#12280
1y
#12320
0w
#12350
1w
#12390
0y
#12420
1y
#12460
0w
#12490
1w
#12530
0y
#12560
1y
#12600
0w
#12630
1w
#12670
0y
#12700
1y
#12740
0w
#12770
1w
#12810
0y
#12840
1y
#12880
0w
#12920
1w
#12960
0y
#12980
1y
#13020
0w
#13050
1w
#13090
0y
#13120
1y
#13160
0w
#13200
1w
#13240
0y
#13260
1y
#13300
0w
#13330
1w
#13370
0y
#13400
1y
#13440
0w
#13470
1w
#13510
0y
#13530
1y
#13570
0w
#13590
1w
#13630
0y
#13660
1y
#13700
0w
#13740
1w
#13780
0y
#13810
1y
#13850
0w
#13890
1w
#13930
0y
#13970
1y
#14000
0z
1{
#14050
0{
#14080
1{
#14110
0{
#14130
1{
#14160
0{
#14200
1{
#14230
0{
#14270
1{
#14300
0{
#14330
1{
#14370
0{
#14390
1{
#14430
0{
#14460
1{
#14500
0{
#14540
1{
#14580
0{
#14620
1{
#14660
0{
#14700
1{
#14740
0{
#14770
1{
#14810
0{
#14840
1{
#14880
0{
#14910
1{
#14950
0{
#14980
1{
#15020
0{
#15050
1{
#15090
0{
#15130
1{
#15170
0{
#15190
1{
#15230
0{
#15250
1{
#15290
0{
#15310
1{
#15350
0{
#15370
1{
#15410
0{
#15430
1{
#15470
0{
#15510
1{
#15550
0{
#15580
1{
#15620
0{
#15650
1{
#15690
0{
#15720
1{
#15760
0{
#15800
1{
#15840
0{
#15880
1{
#15920
0{
#15960
1{
#16000
0{
#16030
1{
#16070
0{
#16100
1{
#16140
0{
#16160
1{
#16200
0{
#16230
1{
#16270
0{
#16310
1{
#16350
0{
#16380
1{
#16420
0{
#16450
1{
#16490
0{
#16520
1{
#16560
0{
#16590
1{
#16630
0{
#16670
1{
#16710
0{
#16750
1{
#16790
0{
#16820
1{
#16860
0{
#16890
1{
#16930
0{
#16960
1{
#17000
0{
#17040
1{
#17080
0{
#17110
1{
#17150
0{
#17180
1{
#17220
0{
#17240
1{
#17280
0{
#17310
1{
#17350
0{
#17390
1{
#17430
0{
#17460
1{
#17500
0{
#17530
1{
#17570
0{
#17590
1{
#17630
0{
#17670
1{
#17710
0{
#17740
1{
#17780
0{
#17800
1{
#17840
0{
#17870
1{
#17910
0{
#17930
1{
#17970
0{
#18000
1{
#18040
0{
#18070
1{
#18110
0{
#18130
1{
#18170
0{
#18190
1{
#18230
0{
#18260
1{
#18300
0{
#18330
1{
#18370
0{
#18410
1{
#18450
0{
#18480
1{
#18520
0{
#18540
1{
#18580
0{
#18610
1{
#18650
0{
#18670
1{
#18710
0{
#18740
1{
#18780
0{
#18810
1{
#18850
0{
#18880
1{
#18920
0{
#18940
1{
#18980
0{
#19000
1{
#19040
0{
#19080
1{
#19120
0{
#19140
1{
#19180
0{
#19200
1{
#19240
0{
#19270
1{
#19310
0{
#19340
1{
#19380
0{
#19420
1{
#19460
0{
#19490
1{
#19530
0{
#19550
1{
#19590
0{
#19620
1{
#19660
0{
#19700
1{
#19740
0{
#19770
1{
#19810
0{
#19840
1{
#19880
0{
#19910
1{
#19950
0{
#19980
1{
#20020
0{
#20050
1{
#20090
0{
#20120
1{
#20160
0{
#20190
1{
#20230
0{
#20260
1{
#20300
0{
#20330
1{
#20370
0{
#20400
1{
#20440
0{
#20460
1{
#20500
0{
#20520
1{
#20560
0{
#20580
1{
#20620
0{
#20650
1{
#20690
0{
#20720
1{
#20760
0{
#20790
1{
#20830
0{
#20850
1{
#20890
0{
#20930
1{
#20970
0{
#20990
1{
#21030
0{
#21070
1{
#21110
0{
#21150
1{
#21190
0{
#21220
1{
#21245
0!
#21250
1"
1!
b0 o
b0 p
b0 s
0r
#21255
0!
#21260
1!
#21265
0!
#21270
0"
1!
b1 s
#21275
0!
#21280
1!
b10 s
#21285
0!
#21290
1!
b11 s
#21291
1#
1d
1b
1_
1]
1\
1[
1Y
1X
1W
1V
1S
1P
1N
1L
1K
1F
1D
1B
1@
1?
1=
1:
17
16
15
14
13
1/
1.
1,
1'
1&
1$
#21295
0!
#21300
1!
b1000 o
b100 s
b11010010 q
#21301
0d
1e
1g
1f
1c
1a
0_
0]
0[
0Y
0X
0W
0S
0P
0N
0L
0K
0F
0D
0B
0@
0?
0=
0:
07
06
05
04
03
0/
0.
0,
0'
0&
0$
#21305
0!
#21310
1!
b101 s
b10 u
b0 s
b0 k
b10000 o
#21311
0#
0e
#21315
0!
#21320
1!
b1 p
b1 s
b11010010 t
b111101 q
#21325
0!
#21330
1!
b10 p
b0 t
b10 s
b11010010 j
b100 u
b10101001 q
#21335
0!
#21340
1!
b11 p
b11 s
b10101001 k
b10100001 q
#21345
0!
#21350
1!
b100 p
b100 s
b1010100110100001 k
b1011010 q
#21355
0!
#21360
1!
b101 p
b101 s
b101010011010000101011010 k
b11110010 q
#21365
0!
#21370
1!
b110 p
b110 s
b10101001101000010101101011110010 k
b10110001 q
#21375
0!
#21380
1!
b111 p
b111 s
b1010100110100001010110101111001010110001 k
b10110000 q
#21385
0!
#21390
1!
b1000 p
b1000 s
b101010011010000101011010111100101011000110110000 k
b10000111 q
#21395
0!
#21400
1!
b1001 p
b1001 s
b10101001101000010101101011110010101100011011000010000111 k
b100000 q
#21405
0!
#21410
1!
b1010 p
b1010 s
1r
b0 q
#21415
0!
#21420
1!
b1011 p
b1011 s
#21425
0!
#21430
1!
b1100 p
b1100 s
#21435
0!
#21440
1!
b1101 p
b1101 s
#21445
0!
#21450
1!
b1110 p
b1110 s
#21455
0!
#21460
1!
b1111 p
b1111 s
#21465
0!
#21470
1!
b10000 p
b10000 s
1i
b1 u
bx q
#21475
0!
#21480
1!
0i
b10001 s
#21485
0!
#21490
1!
b10010 s
#21491
1#
1d
0c
0b
1`
1_
1^
1]
1Y
1X
1W
0V
1T
1S
1Q
1P
1O
1N
1K
1A
1@
1?
1=
1<
1:
18
14
12
10
1.
1,
1(
1&
1%
1$
#21495
0!
#21500
1!
b11000 o
b10011 s
b11111100 q
#21501
0d
1e
1h
0g
1c
0a
0_
0^
0]
0\
0Y
0X
0S
0Q
0P
0O
0K
0A
0@
0?
0=
0<
0:
08
04
02
00
0.
0,
0(
0&
0%
0$
#21505
0!
#21510
1!
0r
b10100 s
b10 u
b0 s
b0 k
b100000 o
#21511
0#
0e
#21515
0!
#21520
1!
b10001 p
b1 s
b11111100 t
b10011100 q
#21525
0!
#21530
1!
b10010 p
b0 t
b10 s
b1111110010011100 t
b111101 q
#21535
0!
#21540
1!
b10011 p
b0 t
b11 s
b1111110010011100 j
b100 u
b1 q
#21545
0!
#21550
1!
b10100 p
b100 s
b1 k
b11011100 q
#21555
0!
#21560
1!
b10101 p
b101 s
b111011100 k
b10001010 q
#21565
0!
#21570
1!
b10110 p
b110 s
b11101110010001010 k
b10101010 q
#21575
0!
#21580
1!
b10111 p
b111 s
b1110111001000101010101010 k
b11101000 q
#21585
0!
#21590
1!
b11000 p
b1000 s
b111011100100010101010101011101000 k
b1001 q
#21595
0!
#21600
1!
b11001 p
b1001 s
b11101110010001010101010101110100000001001 k
b10010000 q
#21605
0!
#21610
1!
b11010 p
b1010 s
b1110111001000101010101010111010000000100110010000 k
b100000 q
#21615
0!
#21620
1!
b11011 p
b1011 s
1r
b0 q
#21625
0!
#21630
1!
b11100 p
b1100 s
#21635
0!
#21640
1!
b11101 p
b1101 s
#21645
0!
#21650
1!
b11110 p
b1110 s
#21655
0!
#21660
1!
b11111 p
b1111 s
#21665
0!
#21670
1!
b100000 p
b10000 s
1i
b1 u
bx q
#21675
0!
#21680
1!
0i
b10001 s
#21685
0!
#21690
1!
b10010 s
#21691
1#
1d
1b
1a
1^
1\
1Y
1X
0T
1Q
1P
0N
1L
1K
1I
1H
1G
1F
1C
1B
1A
1@
1?
1<
19
18
17
16
15
14
13
11
1-
1,
1*
1)
1%
#21695
0!
#21700
1!
b101000 o
b10011 s
b10101111 q
#21701
0d
1e
1g
0f
0c
0b
0a
0`
1_
0\
1Z
0Y
0X
1V
1U
1R
0Q
1O
1N
0K
0I
0H
0G
1E
0C
0B
0A
0@
0?
1>
0<
09
08
07
06
05
04
03
01
0-
0,
0*
0)
0%
#21705
0!
#21710
1!
0r
b10100 s
b10 u
b0 s
b0 k
b110000 o
#21711
0#
0e
#21715
0!
#21720
1!
b100001 p
b1 s
b10101111 t
b11100 q
#21725
0!
#21730
1!
b100010 p
b0 t
b10 s
b1010111100011100 t
b10001100 q
#21735
0!
#21740
1!
b100011 p
b0 t
b11 s
b101011110001110010001100 t
b111101 q
#21745
0!
#21750
1!
b100100 p
b0 t
b100 s
b101011110001110010001100 j
b100 u
b10011111 q
#21755
0!
#21760
1!
b100101 p
b101 s
b10011111 k
b11111100 q
#21765
0!
#21770
1!
b100110 p
b110 s
b1001111111111100 k
b11000101 q
#21775
0!
#21780
1!
b100111 p
b111 s
b100111111111110011000101 k
b1000110 q
#21785
0!
#21790
1!
b101000 p
b1000 s
b10011111111111001100010101000110 k
b110000 q
#21795
0!
#21800
1!
b101001 p
b1001 s
b1001111111111100110001010100011000110000 k
b1110010 q
#21805
0!
#21810
1!
b101010 p
b1010 s
b100111111111110011000101010001100011000001110010 k
b10111010 q
#21815
0!
#21820
1!
b101011 p
b1011 s
b10011111111111001100010101000110001100000111001010111010 k
b1100000 q
#21825
0!
#21830
1!
b101100 p
b1100 s
b1001111111111100110001010100011000110000011100101011101001100000 k
b100000 q
#21835
0!
#21840
1!
b101101 p
b1101 s
1r
b0 q
#21845
0!
#21850
1!
b101110 p
b1110 s
#21855
0!
#21860
1!
b101111 p
b1111 s
#21865
0!
#21870
1!
b110000 p
b10000 s
1i
b1 u
bx q
#21875
0!
#21880
1!
0i
b10001 s
#21885
0!
#21890
1!
b10010 s
#21891
1#
1d
1e
0g
1b
1a
1`
1]
1[
0Z
1Y
0V
0U
1S
0R
1Q
0P
1M
0L
1J
1I
1G
1C
1A
1@
1?
1:
18
14
1.
#21895
0!
#21900
1!
b111000 o
b10011 s
b1111110 q
#21901
0#
0d
0e
#21905
0!
#21910
1!
0r
b10100 s
b10 u
b0 s
b0 k
#21915
0!
#21920
1!
b110001 p
b1 s
b1111110 t
b10101 q
#21925
0!
#21930
1!
b110010 p
b0 t
b10 s
b111111000010101 t
b1110101 q
#21935
0!
#21940
1!
b110011 p
b0 t
b11 s
b11111100001010101110101 t
b1110110 q
#21945
0!
#21950
1!
b110100 p
b0 t
b100 s
b1111110000101010111010101110110 t
b111101 q
#21955
0!
#21960
1!
b110101 p
b0 t
b101 s
b1111110000101010111010101110110 j
b100 u
b10001010 q
#21965
0!
#21970
1!
b110110 p
b110 s
b10001010 k
b100000 q
#21975
0!
#21980
1!
b110111 p
b111 s
1r
b0 q
#21985
0!
#21990
1!
b111000 p
b1000 s
1i
b1 u
bx q
#21995
0!
#22000
1!
0i
b1001 s
#22005
0!
#22010
1!
b1010 s
#22011
1#
1d
0a
0^
1\
0[
1Z
0Y
1X
0W
1U
1T
0S
1R
1L
1K
0J
1H
0E
0C
0>
1<
19
08
17
15
13
1/
0.
1,
1+
1*
1(
1'
1&
#22015
0!
#22020
1!
b1000000 o
b1011 s
b11011010 q
#22021
0d
0b
0`
0_
0\
1[
0Z
0T
0R
1P
0N
0M
0K
0I
0F
1E
1D
0?
1>
1=
0<
1;
09
07
05
03
12
1-
1)
1$
#22025
0!
#22030
1!
0r
b1100 s
b10 u
b0 s
b0 k
b1001000 o
#22031
1e
1g
1f
1^
0]
0[
0X
0U
0Q
0P
0O
0L
0H
0G
0E
0D
0A
0@
0>
0=
0;
0:
04
02
0/
0-
0,
0+
0*
0)
0(
0'
0&
0$
#22035
0!
#22040
1!
b1010000 o
b111001 p
b1 s
b11011010 t
b11001010 q
#22041
0#
0e
#22045
0!
#22050
1!
b0 t
b10 s
b1101101011001010 t
b111010 p
b11110110 q
#22055
0!
#22060
1!
b111011 p
b0 t
b11 s
b110110101100101011110110 t
b111101 q
#22065
0!
#22070
1!
b111100 p
b0 t
b100 s
b110110101100101011110110 j
b100 u
b10011100 q
#22075
0!
#22080
1!
b111101 p
b101 s
b10011100 k
b11010110 q
#22085
0!
#22090
1!
b111110 p
b110 s
b1001110011010110 k
b10010001 q
#22095
0!
#22100
1!
b111111 p
b111 s
b100111001101011010010001 k
b111011 q
#22105
0!
#22110
1!
b1000000 p
b1000 s
b10011100110101101001000100111011 k
b1000000 q
#22115
0!
#22120
1!
b1000001 p
b1001 s
b1001110011010110100100010011101101000000 k
b1001001 q
#22125
0!
#22130
1!
b1000010 p
b1010 s
b100111001101011010010001001110110100000001001001 k
b10011100 q
#22135
0!
#22140
1!
b1000011 p
b1011 s
b10011100110101101001000100111011010000000100100110011100 k
b11011000 q
#22145
0!
#22150
1!
b1000100 p
b1100 s
b1001110011010110100100010011101101000000010010011001110011011000 k
b1101100 q
#22155
0!
#22160
1!
b1000101 p
b1101 s
b100111001101011010010001001110110100000001001001100111001101100001101100 k
b10000011 q
#22165
0!
#22170
1!
b1000110 p
b1110 s
b10011100110101101001000100111011010000000100100110011100110110000110110010000011 k
b11010010 q
#22175
0!
#22180
1!
b1000111 p
b1111 s
b1001110011010110100100010011101101000000010010011001110011011000011011001000001111010010 k
b10111111 q
#22185
0!
#22190
1!
b1001000 p
b10000 s
b100111001101011010010001001110110100000001001001100111001101100001101100100000111101001010111111 k
b100000 q
#22195
0!
#22200
1!
b1001001 p
b10001 s
1r
b0 q
#22205
0!
#22210
1!
b1001010 p
b10010 s
#22215
0!
#22220
1!
b1001011 p
b10011 s
#22225
0!
#22230
1!
b1001100 p
b10100 s
#22235
0!
#22240
1!
b1001101 p
b10101 s
#22245
0!
#22250
1!
b1001110 p
b10110 s
#22255
0!
#22260
1!
b1001111 p
b10111 s
#22265
0!
#22270
1!
b1010000 p
b11000 s
1i
b1 u
bx q
#22275
0!
#22280
1!
0i
b11001 s
#22285
0!
#22290
1!
b11010 s
#22291
1#
1d
1a
1`
1_
1[
1Z
1Y
1X
1W
1V
1T
1S
1Q
1P
1O
1N
1K
1J
1I
1H
1E
1C
1A
1@
1>
1<
18
17
14
12
1/
1.
1-
1)
1(
1&
1%
#22295
0!
#22300
1!
b1011000 o
b11011 s
b111100 q
#22301
0d
1e
0h
0`
0_
0^
1\
0[
0Z
0Y
0X
0W
0T
0S
0Q
0P
0O
0N
0K
0J
0I
0H
0E
0C
0A
0@
0>
0<
08
07
04
02
0/
0.
0-
0)
0(
0&
0%
#22305
0!
#22310
1!
0r
b11100 s
b10 u
b0 s
b0 k
b1100000 o
#22311
0#
0e
#22315
0!
#22320
1!
b1010001 p
b1 s
b111100 t
b10111111 q
#22325
0!
#22330
1!
b1010010 p
b0 t
b10 s
b11110010111111 t
b111101 q
#22335
0!
#22340
1!
b1010011 p
b0 t
b11 s
b11110010111111 j
b100 u
b1001111 q
#22345
0!
