testbench/parser.vcd
$date
	Mon Sep  2 10:06:28 2019
$end
$version
	ModelSim Version 10.3
$end
$timescale
	1ns
$end

$scope module testrunner $end

$scope module __ts $end

$scope module parser_op_ut $end

$scope module my_parser_op $end
$var wire 1 ! clk $end
$var wire 1 " rst $end
$var wire 1 # avl_st_rx_valid $end
$var wire 1 $ avl_st_rx_data [63] $end
$var wire 1 % avl_st_rx_data [62] $end
$var wire 1 & avl_st_rx_data [61] $end
$var wire 1 ' avl_st_rx_data [60] $end
$var wire 1 ( avl_st_rx_data [59] $end
$var wire 1 ) avl_st_rx_data [58] $end
$var wire 1 * avl_st_rx_data [57] $end
$var wire 1 + avl_st_rx_data [56] $end
$var wire 1 , avl_st_rx_data [55] $end
$var wire 1 - avl_st_rx_data [54] $end
$var wire 1 . avl_st_rx_data [53] $end
$var wire 1 / avl_st_rx_data [52] $end
$var wire 1 0 avl_st_rx_data [51] $end
$var wire 1 1 avl_st_rx_data [50] $end
$var wire 1 2 avl_st_rx_data [49] $end
$var wire 1 3 avl_st_rx_data [48] $end
$var wire 1 4 avl_st_rx_data [47] $end
$var wire 1 5 avl_st_rx_data [46] $end
$var wire 1 6 avl_st_rx_data [45] $end
$var wire 1 7 avl_st_rx_data [44] $end
$var wire 1 8 avl_st_rx_data [43] $end
$var wire 1 9 avl_st_rx_data [42] $end
$var wire 1 : avl_st_rx_data [41] $end
$var wire 1 ; avl_st_rx_data [40] $end
$var wire 1 < avl_st_rx_data [39] $end
$var wire 1 = avl_st_rx_data [38] $end
$var wire 1 > avl_st_rx_data [37] $end
$var wire 1 ? avl_st_rx_data [36] $end
$var wire 1 @ avl_st_rx_data [35] $end
$var wire 1 A avl_st_rx_data [34] $end
$var wire 1 B avl_st_rx_data [33] $end
$var wire 1 C avl_st_rx_data [32] $end
$var wire 1 D avl_st_rx_data [31] $end
$var wire 1 E avl_st_rx_data [30] $end
$var wire 1 F avl_st_rx_data [29] $end
$var wire 1 G avl_st_rx_data [28] $end
$var wire 1 H avl_st_rx_data [27] $end
$var wire 1 I avl_st_rx_data [26] $end
$var wire 1 J avl_st_rx_data [25] $end
$var wire 1 K avl_st_rx_data [24] $end
$var wire 1 L avl_st_rx_data [23] $end
$var wire 1 M avl_st_rx_data [22] $end
$var wire 1 N avl_st_rx_data [21] $end
$var wire 1 O avl_st_rx_data [20] $end
$var wire 1 P avl_st_rx_data [19] $end
$var wire 1 Q avl_st_rx_data [18] $end
$var wire 1 R avl_st_rx_data [17] $end
$var wire 1 S avl_st_rx_data [16] $end
$var wire 1 T avl_st_rx_data [15] $end
$var wire 1 U avl_st_rx_data [14] $end
$var wire 1 V avl_st_rx_data [13] $end
$var wire 1 W avl_st_rx_data [12] $end
$var wire 1 X avl_st_rx_data [11] $end
$var wire 1 Y avl_st_rx_data [10] $end
$var wire 1 Z avl_st_rx_data [9] $end
$var wire 1 [ avl_st_rx_data [8] $end
$var wire 1 \ avl_st_rx_data [7] $end
$var wire 1 ] avl_st_rx_data [6] $end
$var wire 1 ^ avl_st_rx_data [5] $end
$var wire 1 _ avl_st_rx_data [4] $end
$var wire 1 ` avl_st_rx_data [3] $end
$var wire 1 a avl_st_rx_data [2] $end
$var wire 1 b avl_st_rx_data [1] $end
$var wire 1 c avl_st_rx_data [0] $end
$var wire 1 d avl_st_rx_sop $end
$var wire 1 e avl_st_rx_eop $end
$var wire 1 f avl_st_rx_empty [2] $end
$var wire 1 g avl_st_rx_empty [1] $end
$var wire 1 h avl_st_rx_empty [0] $end
$var reg 1 i out1_valid $end
$var reg 32 j out1_tag [31:0] $end
$var reg 128 k out1_value [127:0] $end
$var reg 1 l out2_valid $end
$var reg 32 m out2_tag [31:0] $end
$var reg 128 n out2_value [127:0] $end
$var wire 10 o fifo_cnt [9:0] $end
$var reg 10 p wr_cnt [9:0] $end
$var reg 10 q rd_cnt [9:0] $end
$var wire 64 r fifo_wdata [63:0] $end
$var wire 1 s full $end
$var wire 1 t empty $end
$var wire 4 u pos [3:0] $end
$var wire 1 v mem_zero $end
$var reg 64 w buf_wdata [63:0] $end
$var wire 64 x buf_rdata [63:0] $end
$var wire 9 y buf_count [8:0] $end
$var wire 1 z buf_wr $end
$var reg 1 { buf_rd $end
$var reg 6 | op_cnt [5:0] $end
$var reg 192 } tmp_data [191:0] $end
$var reg 4 ~ state [3:0] $end

$scope function sm_check $end
$upscope $end

$scope module i_buf $end
$upscope $end
$upscope $end
$upscope $end
$upscope $end

$scope function build $end
$upscope $end

$scope task run $end
$upscope $end

$scope module __ts $end

$scope function build $end
$upscope $end

$scope task run $end
$upscope $end

$scope module parser_op_ut $end

$scope task step $end
$upscope $end

$scope task nextSamplePoint $end
$upscope $end

$scope task reset $end
$upscope $end

$scope function build $end
$upscope $end

$scope task setup $end
$upscope $end

$scope task teardown $end
$upscope $end

$scope task run $end

$scope begin test_rst $end
$upscope $end

$scope begin test_2_continus_case_empty_0 $end
$upscope $end

$scope begin test_2_continus_case_empty_1 $end
$upscope $end

$scope begin test_2_continus_case_empty_3 $end
$upscope $end

$scope begin test_2_continus_case_igonore_1st_for_5B_tag $end
$upscope $end

$scope begin test_2_continus_case_igonore_2nd_for_5B_tag $end
$upscope $end

$scope begin test_2_continus_case_1st_ignore_17B_value $end
$upscope $end

$scope begin test_2_continus_case_2nd_ignore_17B_value $end
$upscope $end
$upscope $end

$scope module my_parser_op $end
$var wire 1 ! clk $end
$var wire 1 " rst $end
$var wire 1 # avl_st_rx_valid $end
$var wire 1 $ avl_st_rx_data [63] $end
$var wire 1 % avl_st_rx_data [62] $end
$var wire 1 & avl_st_rx_data [61] $end
$var wire 1 ' avl_st_rx_data [60] $end
$var wire 1 ( avl_st_rx_data [59] $end
$var wire 1 ) avl_st_rx_data [58] $end
$var wire 1 * avl_st_rx_data [57] $end
$var wire 1 + avl_st_rx_data [56] $end
$var wire 1 , avl_st_rx_data [55] $end
$var wire 1 - avl_st_rx_data [54] $end
$var wire 1 . avl_st_rx_data [53] $end
$var wire 1 / avl_st_rx_data [52] $end
$var wire 1 0 avl_st_rx_data [51] $end
$var wire 1 1 avl_st_rx_data [50] $end
$var wire 1 2 avl_st_rx_data [49] $end
$var wire 1 3 avl_st_rx_data [48] $end
$var wire 1 4 avl_st_rx_data [47] $end
$var wire 1 5 avl_st_rx_data [46] $end
$var wire 1 6 avl_st_rx_data [45] $end
$var wire 1 7 avl_st_rx_data [44] $end
$var wire 1 8 avl_st_rx_data [43] $end
$var wire 1 9 avl_st_rx_data [42] $end
$var wire 1 : avl_st_rx_data [41] $end
$var wire 1 ; avl_st_rx_data [40] $end
$var wire 1 < avl_st_rx_data [39] $end
$var wire 1 = avl_st_rx_data [38] $end
$var wire 1 > avl_st_rx_data [37] $end
$var wire 1 ? avl_st_rx_data [36] $end
$var wire 1 @ avl_st_rx_data [35] $end
$var wire 1 A avl_st_rx_data [34] $end
$var wire 1 B avl_st_rx_data [33] $end
$var wire 1 C avl_st_rx_data [32] $end
$var wire 1 D avl_st_rx_data [31] $end
$var wire 1 E avl_st_rx_data [30] $end
$var wire 1 F avl_st_rx_data [29] $end
$var wire 1 G avl_st_rx_data [28] $end
$var wire 1 H avl_st_rx_data [27] $end
$var wire 1 I avl_st_rx_data [26] $end
$var wire 1 J avl_st_rx_data [25] $end
$var wire 1 K avl_st_rx_data [24] $end
$var wire 1 L avl_st_rx_data [23] $end
$var wire 1 M avl_st_rx_data [22] $end
$var wire 1 N avl_st_rx_data [21] $end
$var wire 1 O avl_st_rx_data [20] $end
$var wire 1 P avl_st_rx_data [19] $end
$var wire 1 Q avl_st_rx_data [18] $end
$var wire 1 R avl_st_rx_data [17] $end
$var wire 1 S avl_st_rx_data [16] $end
$var wire 1 T avl_st_rx_data [15] $end
$var wire 1 U avl_st_rx_data [14] $end
$var wire 1 V avl_st_rx_data [13] $end
$var wire 1 W avl_st_rx_data [12] $end
$var wire 1 X avl_st_rx_data [11] $end
$var wire 1 Y avl_st_rx_data [10] $end
$var wire 1 Z avl_st_rx_data [9] $end
$var wire 1 [ avl_st_rx_data [8] $end
$var wire 1 \ avl_st_rx_data [7] $end
$var wire 1 ] avl_st_rx_data [6] $end
$var wire 1 ^ avl_st_rx_data [5] $end
$var wire 1 _ avl_st_rx_data [4] $end
$var wire 1 ` avl_st_rx_data [3] $end
$var wire 1 a avl_st_rx_data [2] $end
$var wire 1 b avl_st_rx_data [1] $end
$var wire 1 c avl_st_rx_data [0] $end
$var wire 1 d avl_st_rx_sop $end
$var wire 1 e avl_st_rx_eop $end
$var wire 1 f avl_st_rx_empty [2] $end
$var wire 1 g avl_st_rx_empty [1] $end
$var wire 1 h avl_st_rx_empty [0] $end
$var wire 1 s full $end
$var wire 1 t empty $end
$var wire 1 v mem_zero $end
$var wire 1 z buf_wr $end

$scope function sm_check $end
$upscope $end

$scope module i_buf $end
$upscope $end
$upscope $end
$upscope $end
$upscope $end
$upscope $end

$scope begin svunit_pkg $end
$upscope $end

$scope begin std $end
$upscope $end
$enddefinitions $end
#0
$dumpvars
0i
b0 j
b0 k
xl
bx m
bx n
bx p
bx q
bx w
0{
bx |
bx }
b1 ~
bx o
b0 r
b1000 u
bx x
bx y
1!
0"
0#
0c
0b
0a
0`
0_
0^
0]
0\
0[
0Z
0Y
0X
0W
0V
0U
0T
0S
0R
0Q
0P
0O
0N
0M
0L
0K
0J
0I
0H
0G
0F
0E
0D
0C
0B
0A
0@
0?
0>
0=
0<
0;
0:
09
08
07
06
05
04
03
02
01
00
0/
0.
0-
0,
0+
0*
0)
0(
0'
0&
0%
0$
0d
0e
0h
0g
0f
xs
xt
0v
xz
$end
#5
0!
#10
1"
1!
b0 p
b0 q
b0 |
b0 }
0s
b0 o
1t
0z
b0 y
#15
0!
#20
1!
#25
0!
#30
0"
1!
b1 |
#35
0!
#40
1!
b10 |
#45
0!
#50
1!
b11 |
#51
1#
1d
1`
1_
1^
1]
1Z
1Y
1W
1U
1Q
1O
1N
1J
1G
1C
1A
1@
1?
1>
1;
1:
19
18
16
15
14
13
11
10
1-
1,
1+
1*
1(
1&
1$
b1010101111001101111011110011110100010010001101000101011001111000 r
#55
0!
#60
1!
b1000 p
b100 |
b1000 o
0t
1z
bx01111000 w
bx0101011001111000 w
bx001101000101011001111000 w
bx00010010001101000101011001111000 w
bx0011110100010010001101000101011001111000 w
bx111011110011110100010010001101000101011001111000 w
bx11001101111011110011110100010010001101000101011001111000 w
b1010101111001101111011110011110100010010001101000101011001111000 w
#61
0d
1c
0_
0^
0]
1\
1[
0W
1V
1S
0O
0N
1M
1K
0G
1F
0A
0@
0>
b1010101111001101111011110001000100100011010001010110011110001001 r
#65
0!
#70
1!
b101 |
b10000 p
b1000 q
b1010101111001101111011110011110100010010001101000101011001111000 x
b1 y
b1010101111001101111011110011110100010010001101000101011010001001 w
b1010101111001101111011110011110100010010001101000110011110001001 w
b1010101111001101111011110011110100010010010001010110011110001001 w
b1010101111001101111011110011110100100011010001010110011110001001 w
b1010101111001101111011110001000100100011010001010110011110001001 w
#71
0:
09
08
06
05
04
03
00
1/
1.
0-
0,
0+
0(
1'
0&
0$
b1001000110100000000010001000100100011010001010110011110001001 r
#75
0!
#80
1!
b11000 p
b10000 q
b110 |
b10 ~
1{
b10 y
b110 u
b1010101111001101000000010001000100100011010001010110011110001001 w
b10001000100100011010001010110011110001001 w
#81
1a
1_
1^
0\
1X
1T
1P
1L
1H
1D
1@
0?
1<
1:
19
16
15
13
0/
0.
1-
1+
0'
1&
b10001101000101011001111000100110101011110011011110111100111101 r
#85
0!
#90
1!
0{
b111 |
1{
b0 |
b1010101111001101111011110011110100010010001101000101011001111000 }
b100 ~
b100000 p
b10110 q
b101010111100110111101111 k
b10010001101000101011001111000 j
b1010 o
b1010101111001101111011110001000100100011010001010110011110001001 x
b1000 u
b10001000100100011010001010110011100110100 w
b10001000100100011010001010001001000110100 w
b10001000100100011001111010001001000110100 w
b10001000111101111001111010001001000110100 w
b11100110111101111001111010001001000110100 w
b101010111100110111101111001111010001001000110100 w
b10001001101010111100110111101111001111010001001000110100 w
b110011110001001101010111100110111101111001111010001001000110100 w
#91
1e
0a
0`
0^
0*
0&
b101000101011001111000100110101011110011011110111100010001 r
#95
0!
#100
1!
b101000 p
b11110 q
0{
b1 |
1{
b10101011110011011110111100010001001000110100010101100111100010011010101111001101111011110011110100010010001101000101011001111000 }
b1010101111001101111011110001000100100011010001010110011110001001101010111100110111101111 k
b10001000100100011010001010110011110001001 x
b110011110001001101010111100110111101111001111010001001001000101 w
b110011110001001101010111100110111101111001111010010001101000101 w
b110011110001001101010111100110111101111000100010010001101000101 w
#101
0#
0e
#105
0!
#110
1!
b100110 q
0{
b10 |
1{
b1000100010010001101000101011001111000100110101011110011011110111100010001001000110100010101100111100010011010101111001101111011110011110100010010001101000101011001111000 }
1i
b1000 ~
b1 ~
0{
b10001001000110100010101100111100010011010101111001101111011110001000100100011010001010110011110001001101010111100110111101111 k
b10 o
b110011110001001101010111100110111101111001111010001001000110100 x
b10 u
b110011110001001101010111100110111101111000100010000000101000101 w
b101000101 w
#115
0!
#120
1!
b101000 q
0i
b11 |
b10 ~
1{
b0 }
b0 k
b0 o
1t
0z
b11 y
b1000 u
b1xxxxxxxx w
b0xxxxxxxxxxxxxxxx w
b0xxxxxxxxxxxxxxxxxxxxxxxx w
b0xxxxxxxxxxxxxxxxxxxxxxxxxxxxxxxx w
b0xxxxxxxxxxxxxxxxxxxxxxxxxxxxxxxxxxxxxxxx w
b0xxxxxxxxxxxxxxxxxxxxxxxxxxxxxxxxxxxxxxxxxxxxxxxx w
b0xxxxxxxxxxxxxxxxxxxxxxxxxxxxxxxxxxxxxxxxxxxxxxxxxxxxxxxx w
bx w
#125
0!
#130
1!
0{
b100 |
1{
b0 |
b110011110001001101010111100110111101111001111010001001000110100 }
b100 ~
b110011110001001101010111100110111101111 k
b1001000110100 j
b110011110001001101010111100110111101111000100010010001101000101 x
b10 y
#135
0!
#140
1!
0{
b1 |
1{
b1100111100010011010101111001101111011110001000100100011010001010110011110001001101010111100110111101111001111010001001000110100 }
b1100111100010011010101111001101111011110001000100100011010001010110011110001001101010111100110111101111 k
b101000101 x
b1 y
#145
0!
#150
1!
0{
b10 |
1{
b10100010101100111100010011010101111001101111011110001000100100011010001010110011110001001101010111100110111101111001111010001001000110100 }
1i
b1000 ~
b1 ~
0{
b10100010101100111100010011010101111001101111011110001000100100011010001010110011110001001101010111100110111101111 k
bx x
b0 y
#155
0!
#160
1h
1!
0i
b11 |
#165
0!
#170
1!
b100 |
#171
1#
1d
0c
1`
1^
1]
0[
0X
1W
0V
0T
0S
0P
1O
1N
0M
0L
0K
0H
1G
0F
0D
1A
1?
1>
0<
18
14
10
1,
1*
1(
1&
1$
b1010101111001101111011110011110100010010001101000101011001111000 r
#175
0!
#180
1!
b110000 p
b101 |
b1000 o
0t
1z
bx01111000 w
bx0101011001111000 w
bx001101000101011001111000 w
bx00010010001101000101011001111000 w
bx0011110100010010001101000101011001111000 w
bx111011110011110100010010001101000101011001111000 w
bx11001101111011110011110100010010001101000101011001111000 w
b1010101111001101111011110011110100010010001101000101011001111000 w
#181
0d
1c
0_
0^
0]
1\
1[
0W
1V
1S
0O
0N
1M
1K
0G
1F
0A
0@
0>
b1010101111001101111011110001000100100011010001010110011110001001 r
#185
0!
#190
1!
b110 |
b111000 p
b110000 q
b1010101111001101111011110011110100010010001101000101011001111000 x
b1 y
b1010101111001101111011110011110100010010001101000101011010001001 w
b1010101111001101111011110011110100010010001101000110011110001001 w
b1010101111001101111011110011110100010010010001010110011110001001 w
b1010101111001101111011110011110100100011010001010110011110001001 w
b1010101111001101111011110001000100100011010001010110011110001001 w
#191
0?
0;
0:
08
17
05
04
03
12
01
00
1/
0-
0,
0*
1)
1'
0$
b11110100010010001101000000000100100011010001010110011110001001 r
#195
0!
#200
1!
b1000000 p
b111000 q
b111 |
b10 ~
1{
b0 }
b0 k
b10 y
b101 u
b1010101111001101111011110000000100100011010001010110011110001001 w
b100100011010001010110011110001001 w
#201
1b
1a
1^
1]
0Z
1X
0V
1T
1R
0Q
1P
1N
0M
1L
0J
1H
0F
1D
1B
1A
1>
1=
1;
07
06
15
13
0/
1.
0)
0(
0&
b1000100100011010001010110011110001001101010111100110111101111 r
#205
0!
#210
1!
0{
b1000 |
1{
b0 |
b1010101111001101111011110011110100010010001101000101011001111000 }
b100 ~
b1001000 p
b111101 q
b101010111100110111101111 k
b10010001101000101011001111000 j
b1011 o
b1010101111001101111011110001000100100011010001010110011110001001 x
b1000 u
b100100011010001010110011100110100 w
b100100011010001010001001000110100 w
b100100011001111010001001000110100 w
b111101111001111010001001000110100 w
b1100110111101111001111010001001000110100 w
b101010111100110111101111001111010001001000110100 w
b10001001101010111100110111101111001111010001001000110100 w
b110011110001001101010111100110111101111001111010001001000110100 w
#211
1e
b100011010001010110011110001001101010111100110111101111 r
02
0.
0+
0'
b1010001010110011110001001101010111100110111101111 r
#215
0!
#220
1!
b1010000 p
b1000101 q
0{
b1 |
1{
b10101011110011011110111100010001001000110100010101100111100010011010101111001101111011110011110100010010001101000101011001111000 }
b1010101111001101111011110001000100100011010001010110011110001001101010111100110111101111 k
b100100011010001010110011110001001 x
b110011110001001101010111100110111101111001111010001001001000101 w
b110011110001001101010111100110111101111001111010010001101000101 w
b110011110001001101010111100110111101111000100010010001101000101 w
#221
0#
0e
#225
0!
#230
1!
b1001101 q
0{
b10 |
1{
b10010001101000101011001111000100110101011110011011110111100010001001000110100010101100111100010011010101111001101111011110011110100010010001101000101011001111000 }
1i
b1000 ~
b1 ~
0{
b1001000110100010101100111100010011010101111001101111011110001000100100011010001010110011110001001101010111100110111101111 k
b11 o
b110011110001001101010111100110111101111001111010001001000110100 x
b10 u
b110011110001001101010111100110111101111000100010000000101000101 w
b101000101 w
#235
0!
#240
1!
b1001111 q
0i
b11 |
b10 ~
1{
b0 }
b0 k
1v
b1 o
0z
b11 y
b1000 u
b100000000 w
b0xxxxxxxx00000000 w
b0xxxxxxxxxxxxxxxx00000000 w
b0xxxxxxxxxxxxxxxxxxxxxxxx00000000 w
b0xxxxxxxxxxxxxxxxxxxxxxxxxxxxxxxx00000000 w
b0xxxxxxxxxxxxxxxxxxxxxxxxxxxxxxxxxxxxxxxx00000000 w
b0xxxxxxxxxxxxxxxxxxxxxxxxxxxxxxxxxxxxxxxxxxxxxxxx00000000 w
bx00000000 w
#245
0!
#250
1!
0{
b100 |
1{
b0 |
b110011110001001101010111100110111101111001111010001001000110100 }
b100 ~
b1010000 q
b110011110001001101010111100110111101111 k
b1001000110100 j
0v
b0 o
b110011110001001101010111100110111101111000100010010001101000101 x
1t
b10 y
bx w
#255
0!
#260
1!
0{
b1 |
1{
b1100111100010011010101111001101111011110001000100100011010001010110011110001001101010111100110111101111001111010001001000110100 }
b1100111100010011010101111001101111011110001000100100011010001010110011110001001101010111100110111101111 k
b101000101 x
b1 y
#265
0!
#270
1!
0{
b10 |
1{
b10100010101100111100010011010101111001101111011110001000100100011010001010110011110001001101010111100110111101111001111010001001000110100 }
1i
b1000 ~
b1 ~
0{
b10100010101100111100010011010101111001101111011110001000100100011010001010110011110001001101010111100110111101111 k
bx x
b0 y
#275
0!
#280
1g
1!
0i
b11 |
#285
0!
#290
1!
b100 |
#291
1#
1d
0c
0b
0a
1_
0\
0[
1Z
0X
1W
0T
0S
0R
1Q
0P
1O
0L
0K
1J
0H
1G
0D
0B
1@
1?
0=
1:
18
16
14
11
10
1-
1,
1+
1*
1(
1&
1$
b1010101111001101111011110011110100010010001101000101011001111000 r
#295
0!
#300
1!
b1011000 p
b101 |
b1000 o
0t
1z
bx01111000 w
bx0101011001111000 w
bx001101000101011001111000 w
bx00010010001101000101011001111000 w
bx0011110100010010001101000101011001111000 w
bx111011110011110100010010001101000101011001111000 w
bx11001101111011110011110100010010001101000101011001111000 w
b1010101111001101111011110011110100010010001101000101011001111000 w
#301
0d
1c
0_
0^
0]
1\
1[
0W
1V
1S
0O
0N
1M
1K
0G
1F
0A
0@
0>
b1010101111001101111011110001000100100011010001010110011110001001 r
#305
0!
#310
1!
b110 |
b1100000 p
b1011000 q
b1010101111001101111011110011110100010010001101000101011001111000 x
b1 y
b1010101111001101111011110011110100010010001101000101011010001001 w
b1010101111001101111011110011110100010010001101000110011110001001 w
b1010101111001101111011110011110100010010010001010110011110001001 w
b1010101111001101111011110011110100100011010001010110011110001001 w
b1010101111001101111011110001000100100011010001010110011110001001 w
#311
0?
0;
0:
08
17
05
04
03
12
01
00
1/
0-
0,
0*
1)
1'
0$
b11110100010010001101000000000100100011010001010110011110001001 r
#315
0!
#320
1!
b1101000 p
b1100000 q
b111 |
b10 ~
1{
b0 }
b0 k
b10 y
b101 u
b1010101111001101111011110000000100100011010001010110011110001001 w
b100100011010001010110011110001001 w
#321
1b
1a
1^
1]
0Z
1X
0V
1T
1R
0Q
1P
1N
0M
1L
0J
1H
0F
1D
1B
1A
1>
1=
1;
07
06
15
13
0/
1.
0)
0(
0&
b1000100100011010001010110011110001001101010111100110111101111 r
#325
0!
#330
1!
0{
b1000 |
1{
b0 |
b1010101111001101111011110011110100010010001101000101011001111000 }
b100 ~
b1110000 p
b1100101 q
b101010111100110111101111 k
b10010001101000101011001111000 j
b1011 o
b1010101111001101111011110001000100100011010001010110011110001001 x
b1000 u
b100100011010001010110011100110100 w
b100100011010001010001001000110100 w
b100100011001111010001001000110100 w
b111101111001111010001001000110100 w
b1100110111101111001111010001001000110100 w
b101010111100110111101111001111010001001000110100 w
b10001001101010111100110111101111001111010001001000110100 w
b110011110001001101010111100110111101111001111010001001000110100 w
#331
1e
b110011110001001101010111100110111101111 r
0B
0A
0>
0=
0;
09
05
03
02
0.
0+
0'
b110001001101010111100110111101111 r
#335
0!
#340
1!
b1111000 p
b1101101 q
0{
b1 |
1{
b10101011110011011110111100010001001000110100010101100111100010011010101111001101111011110011110100010010001101000101011001111000 }
b1010101111001101111011110001000100100011010001010110011110001001101010111100110111101111 k
b100100011010001010110011110001001 x
b110011110001001101010111100110111101111001111010001001001000101 w
b110011110001001101010111100110111101111001111010010001101000101 w
b110011110001001101010111100110111101111000100010010001101000101 w
b110001001101010111100110111101111000100010010001101000101 w
#341
0#
0e
#345
0!
#350
1!
b1110101 q
0{
b10 |
1{
b10010001101000101011001111000100110101011110011011110111100010001001000110100010101100111100010011010101111001101111011110011110100010010001101000101011001111000 }
1i
b1000 ~
b1 ~
0{
b1001000110100010101100111100010011010101111001101111011110001000100100011010001010110011110001001101010111100110111101111 k
1v
b11 o
b110011110001001101010111100110111101111001111010001001000110100 x
0z
b110001001101010111100110111101111000100010010001100000000 w
b110001001101010111100110111101111000100010000000000000000 w
b110001001101010111100110111101111000000000000000000000000 w
b1100010011010101111001101xxxxxxxx000000000000000000000000 w
b11000100110101011xxxxxxxxxxxxxxxx000000000000000000000000 w
b110001001xxxxxxxxxxxxxxxxxxxxxxxx000000000000000000000000 w
b1xxxxxxxxxxxxxxxxxxxxxxxxxxxxxxxx000000000000000000000000 w
bx000000000000000000000000 w
#355
0!
#360
1!
b1110110 q
0i
b11 |
b10 o
bx0000000000000000 w
#365
0!
#370
1!
b100 |
b1110111 q
b1 o
bx00000000 w
#375
0!
#380
1!
b1111000 q
b101 |
0v
b0 o
1t
bx w
#385
0!
#390
1!
b110 |
b10 ~
1{
b0 }
b0 k
#395
0!
#400
1!
0{
b111 |
1{
b0 |
b110011110001001101010111100110111101111001111010001001000110100 }
b100 ~
b110011110001001101010111100110111101111 k
b1001000110100 j
b110001001101010111100110111101111000100010010001101000101 x
b1 y
#405
0!
#410
1!
0{
b1 |
1{
b1100010011010101111001101111011110001000100100011010001010110011110001001101010111100110111101111001111010001001000110100 }
b1 ~
1i
0{
b1100010011010101111001101111011110001000100100011010001010110011110001001101010111100110111101111 k
bx x
b0 y
#415
0!
#420
0g
1!
0i
b10 |
#425
0!
#430
1!
b11 |
#431
1#
1d
0c
0b
0a
1_
0\
0[
1Z
0X
1W
0T
0S
0R
1Q
0P
1O
0L
0K
1J
0H
1G
0D
1B
1A
1@
1>
1=
1<
1;
19
18
17
16
13
11
10
1-
1,
1+
1*
1(
1&
1$
b1010101111001101001111011110111100010010001101000101011001111000 r
#435
0!
#440
1!
b10000000 p
b100 |
b1000 o
0t
1z
bx01111000 w
bx0101011001111000 w
bx001101000101011001111000 w
bx00010010001101000101011001111000 w
bx1110111100010010001101000101011001111000 w
bx001111011110111100010010001101000101011001111000 w
bx11001101001111011110111100010010001101000101011001111000 w
b1010101111001101001111011110111100010010001101000101011001111000 w
#441
0d
1c
0_
0^
0]
1\
1[
0W
1V
1S
0O
0N
1M
1K
0G
1F
0B
0A
0@
0=
0<
1:
07
15
14
b1010101111001101111011110010000100100011010001010110011110001001 r
#445
0!
#450
1!
b101 |
b10001000 p
b10000000 q
b1010101111001101001111011110111100010010001101000101011001111000 x
b1 y
b1010101111001101001111011110111100010010001101000101011010001001 w
b1010101111001101001111011110111100010010001101000110011110001001 w
b1010101111001101001111011110111100010010010001010110011110001001 w
b1010101111001101001111011110111100100011010001010110011110001001 w
b1010101111001101001111010010000100100011010001010110011110001001 w
b1010101111001101111011110010000100100011010001010110011110001001 w
#451
0>
0;
0:
08
17
05
04
03
12
01
00
1/
0-
0,
0*
1)
1'
0$
b11110100010010001101000000000100100011010001010110011110001001 r
#455
0!
#460
1!
b10010000 p
b10001000 q
b110 |
b10 ~
1{
b0 }
b0 k
b10 y
b101 u
b1010101111001101111011110000000100100011010001010110011110001001 w
b100100011010001010110011110001001 w
#461
1b
1a
1^
1]
0Z
1X
0V
1T
1R
0Q
1P
1N
0M
1L
0J
1H
0F
1D
1B
1A
1>
1=
1;
07
06
15
13
0/
1.
0)
0(
0'
b10000100100011010001010110011110001001101010111100110111101111 r
#465
0!
#470
1!
0{
b111 |
1{
b0 |
b1010101111001101001111011110111100010010001101000101011001111000 }
b1000 ~
b10011000 p
b10001101 q
b0 j
b1011 o
b1010101111001101111011110010000100100011010001010110011110001001 x
b1000 u
b100100011010001010110011100110100 w
b100100011010001010001001000110100 w
b100100011001111010001001000110100 w
b111101111001111010001001000110100 w
b1100110111101111001111010001001000110100 w
b101010111100110111101111001111010001001000110100 w
b10001001101010111100110111101111001111010001001000110100 w
b110011110001001101010111100110111101111001111010001001000110100 w
#471
1e
b100011010001010110011110001001101010111100110111101111 r
02
0.
0+
0&
b1010001010110011110001001101010111100110111101111 r
#475
0!
#480
1!
b10100000 p
b10010101 q
0{
b1 |
1{
b100100011010001010110011110001001 x
b110011110001001101010111100110111101111001111010001001001000101 w
b110011110001001101010111100110111101111001111010010001101000101 w
b110011110001001101010111100110111101111001000010010001101000101 w
#481
0#
0e
#485
0!
#490
1!
b10011101 q
0{
b10 |
1{
b1 ~
0{
b11 o
b110011110001001101010111100110111101111001111010001001000110100 x
b10 u
b110011110001001101010111100110111101111001000010000000101000101 w
b101000101 w
#495
0!
#500
1!
b10011111 q
b11 |
b10 ~
1{
b0 }
1v
b1 o
0z
b11 y
b1000 u
b100000000 w
b0xxxxxxxx00000000 w
b0xxxxxxxxxxxxxxxx00000000 w
b0xxxxxxxxxxxxxxxxxxxxxxxx00000000 w
b0xxxxxxxxxxxxxxxxxxxxxxxxxxxxxxxx00000000 w
b0xxxxxxxxxxxxxxxxxxxxxxxxxxxxxxxxxxxxxxxx00000000 w
b0xxxxxxxxxxxxxxxxxxxxxxxxxxxxxxxxxxxxxxxxxxxxxxxx00000000 w
bx00000000 w
#505
0!
#510
1!
0{
b100 |
1{
b0 |
b110011110001001101010111100110111101111001111010001001000110100 }
b100 ~
b10100000 q
b110011110001001101010111100110111101111 k
b1001000110100 j
0v
b0 o
b110011110001001101010111100110111101111001000010010001101000101 x
1t
b10 y
bx w
#515
0!
#520
1!
0{
b1 |
1{
b1100111100010011010101111001101111011110010000100100011010001010110011110001001101010111100110111101111001111010001001000110100 }
b1100111100010011010101111001101111011110010000100100011010001010110011110001001101010111100110111101111 k
b101000101 x
b1 y
#525
0!
#530
1!
0{
b10 |
1{
b10100010101100111100010011010101111001101111011110010000100100011010001010110011110001001101010111100110111101111001111010001001000110100 }
1i
b1000 ~
b1 ~
0{
b10100010101100111100010011010101111001101111011110010000100100011010001010110011110001001101010111100110111101111 k
bx x
b0 y
#535
0!
#540
1!
0i
b11 |
#545
0!
#550
1!
b100 |
#551
1#
1d
0c
0b
0`
1_
0]
0\
0[
1Z
0Y
0X
1W
0U
0T
0R
1Q
1O
0L
1J
1I
1F
1E
0B
1@
0>
1<
1:
09
18
16
05
14
10
1,
1+
1*
1)
1&
1%
b110011110001001101010111100110111101111001111010001001000110100 r
#555
0!
#560
1!
b10101000 p
b101 |
b1000 o
0t
1z
bx00110100 w
bx0001001000110100 w
bx001111010001001000110100 w
bx11101111001111010001001000110100 w
bx1100110111101111001111010001001000110100 w
bx101010111100110111101111001111010001001000110100 w
bx10001001101010111100110111101111001111010001001000110100 w
b110011110001001101010111100110111101111001111010001001000110100 w
#561
0d
1c
0_
0^
1]
1[
0W
1V
0Q
0P
0N
b110011110001001101010111100110111101111000100010010001101000101 r
#565
0!
#570
1!
b110 |
b10110000 p
b10101000 q
b110011110001001101010111100110111101111001111010001001000110100 x
b1 y
b110011110001001101010111100110111101111001111010001001001000101 w
b110011110001001101010111100110111101111001111010010001101000101 w
b110011110001001101010111100110111101111000100010010001101000101 w
#571
0O
0K
0J
0I
1G
0D
0C
1B
0@
1?
0<
0;
0:
19
08
17
04
03
12
00
1/
0,
1(
1$
b1110111100010010001101000101011001111000000000010010001101000101 r
#575
0!
