testbench/parser.vcd
$date
	Sat Aug 31 10:42:27 2019
$end
$version
	ModelSim Version 10.3
$end
$timescale
	1ns
$end

$scope module testrunner $end

$scope module __ts $end

$scope module parser_op_dual_ut $end

$scope module my_parser_op_dual $end
$var wire 1 ! clk $end
$var wire 1 " rst $end
$var wire 1 # avl_st_rx_valid $end
$var wire 1 $ avl_st_rx_data [63] $end
$var wire 1 % avl_st_rx_data [62] $end
$var wire 1 & avl_st_rx_data [61] $end
$var wire 1 ' avl_st_rx_data [60] $end
$var wire 1 ( avl_st_rx_data [59] $end
$var wire 1 ) avl_st_rx_data [58] $end
$var wire 1 * avl_st_rx_data [57] $end
$var wire 1 + avl_st_rx_data [56] $end
$var wire 1 , avl_st_rx_data [55] $end
$var wire 1 - avl_st_rx_data [54] $end
$var wire 1 . avl_st_rx_data [53] $end
$var wire 1 / avl_st_rx_data [52] $end
$var wire 1 0 avl_st_rx_data [51] $end
$var wire 1 1 avl_st_rx_data [50] $end
$var wire 1 2 avl_st_rx_data [49] $end
$var wire 1 3 avl_st_rx_data [48] $end
$var wire 1 4 avl_st_rx_data [47] $end
$var wire 1 5 avl_st_rx_data [46] $end
$var wire 1 6 avl_st_rx_data [45] $end
$var wire 1 7 avl_st_rx_data [44] $end
$var wire 1 8 avl_st_rx_data [43] $end
$var wire 1 9 avl_st_rx_data [42] $end
$var wire 1 : avl_st_rx_data [41] $end
$var wire 1 ; avl_st_rx_data [40] $end
$var wire 1 < avl_st_rx_data [39] $end
$var wire 1 = avl_st_rx_data [38] $end
$var wire 1 > avl_st_rx_data [37] $end
$var wire 1 ? avl_st_rx_data [36] $end
$var wire 1 @ avl_st_rx_data [35] $end
$var wire 1 A avl_st_rx_data [34] $end
$var wire 1 B avl_st_rx_data [33] $end
$var wire 1 C avl_st_rx_data [32] $end
$var wire 1 D avl_st_rx_data [31] $end
$var wire 1 E avl_st_rx_data [30] $end
$var wire 1 F avl_st_rx_data [29] $end
$var wire 1 G avl_st_rx_data [28] $end
$var wire 1 H avl_st_rx_data [27] $end
$var wire 1 I avl_st_rx_data [26] $end
$var wire 1 J avl_st_rx_data [25] $end
$var wire 1 K avl_st_rx_data [24] $end
$var wire 1 L avl_st_rx_data [23] $end
$var wire 1 M avl_st_rx_data [22] $end
$var wire 1 N avl_st_rx_data [21] $end
$var wire 1 O avl_st_rx_data [20] $end
$var wire 1 P avl_st_rx_data [19] $end
$var wire 1 Q avl_st_rx_data [18] $end
$var wire 1 R avl_st_rx_data [17] $end
$var wire 1 S avl_st_rx_data [16] $end
$var wire 1 T avl_st_rx_data [15] $end
$var wire 1 U avl_st_rx_data [14] $end
$var wire 1 V avl_st_rx_data [13] $end
$var wire 1 W avl_st_rx_data [12] $end
$var wire 1 X avl_st_rx_data [11] $end
$var wire 1 Y avl_st_rx_data [10] $end
$var wire 1 Z avl_st_rx_data [9] $end
$var wire 1 [ avl_st_rx_data [8] $end
$var wire 1 \ avl_st_rx_data [7] $end
$var wire 1 ] avl_st_rx_data [6] $end
$var wire 1 ^ avl_st_rx_data [5] $end
$var wire 1 _ avl_st_rx_data [4] $end
$var wire 1 ` avl_st_rx_data [3] $end
$var wire 1 a avl_st_rx_data [2] $end
$var wire 1 b avl_st_rx_data [1] $end
$var wire 1 c avl_st_rx_data [0] $end
$var wire 1 d avl_st_rx_sop $end
$var wire 1 e avl_st_rx_eop $end
$var wire 1 f avl_st_rx_empty [2] $end
$var wire 1 g avl_st_rx_empty [1] $end
$var wire 1 h avl_st_rx_empty [0] $end
$var reg 1 i out1_valid $end
$var reg 32 j out1_tag [31:0] $end
$var reg 128 k out1_value [127:0] $end
$var reg 1 l out2_valid $end
$var reg 32 m out2_tag [31:0] $end
$var reg 128 n out2_value [127:0] $end
$var wire 64 o fifo1_rdata [63:0] $end
$var wire 1 p fifo1_wr $end
$var wire 1 q fifo1_full $end
$var wire 1 r fifo1_empty $end
$var wire 1 s fifo2_full $end
$var wire 1 t fifo2_empty $end
$var reg 6 u op1_cnt [5:0] $end
$var reg 192 v tmp1_data [191:0] $end
$var reg 4 w state1 [3:0] $end
$var wire 1 x flag $end

$scope function space_check $end
$upscope $end

$scope module i_f1 $end
$upscope $end

$scope module i_f2 $end
$upscope $end
$upscope $end
$upscope $end
$upscope $end

$scope function build $end
$upscope $end

$scope task run $end
$upscope $end

$scope module __ts $end

$scope function build $end
$upscope $end

$scope task run $end
$upscope $end

$scope module parser_op_dual_ut $end

$scope task step $end
$upscope $end

$scope task nextSamplePoint $end
$upscope $end

$scope task reset $end
$upscope $end

$scope function build $end
$upscope $end

$scope task setup $end
$upscope $end

$scope task teardown $end
$upscope $end

$scope task run $end

$scope begin test_rst $end
$upscope $end

$scope begin test_random_400 $end
$upscope $end
$upscope $end

$scope module my_parser_op_dual $end
$var wire 1 ! clk $end
$var wire 1 " rst $end
$var wire 1 # avl_st_rx_valid $end
$var wire 1 $ avl_st_rx_data [63] $end
$var wire 1 % avl_st_rx_data [62] $end
$var wire 1 & avl_st_rx_data [61] $end
$var wire 1 ' avl_st_rx_data [60] $end
$var wire 1 ( avl_st_rx_data [59] $end
$var wire 1 ) avl_st_rx_data [58] $end
$var wire 1 * avl_st_rx_data [57] $end
$var wire 1 + avl_st_rx_data [56] $end
$var wire 1 , avl_st_rx_data [55] $end
$var wire 1 - avl_st_rx_data [54] $end
$var wire 1 . avl_st_rx_data [53] $end
$var wire 1 / avl_st_rx_data [52] $end
$var wire 1 0 avl_st_rx_data [51] $end
$var wire 1 1 avl_st_rx_data [50] $end
$var wire 1 2 avl_st_rx_data [49] $end
$var wire 1 3 avl_st_rx_data [48] $end
$var wire 1 4 avl_st_rx_data [47] $end
$var wire 1 5 avl_st_rx_data [46] $end
$var wire 1 6 avl_st_rx_data [45] $end
$var wire 1 7 avl_st_rx_data [44] $end
$var wire 1 8 avl_st_rx_data [43] $end
$var wire 1 9 avl_st_rx_data [42] $end
$var wire 1 : avl_st_rx_data [41] $end
$var wire 1 ; avl_st_rx_data [40] $end
$var wire 1 < avl_st_rx_data [39] $end
$var wire 1 = avl_st_rx_data [38] $end
$var wire 1 > avl_st_rx_data [37] $end
$var wire 1 ? avl_st_rx_data [36] $end
$var wire 1 @ avl_st_rx_data [35] $end
$var wire 1 A avl_st_rx_data [34] $end
$var wire 1 B avl_st_rx_data [33] $end
$var wire 1 C avl_st_rx_data [32] $end
$var wire 1 D avl_st_rx_data [31] $end
$var wire 1 E avl_st_rx_data [30] $end
$var wire 1 F avl_st_rx_data [29] $end
$var wire 1 G avl_st_rx_data [28] $end
$var wire 1 H avl_st_rx_data [27] $end
$var wire 1 I avl_st_rx_data [26] $end
$var wire 1 J avl_st_rx_data [25] $end
$var wire 1 K avl_st_rx_data [24] $end
$var wire 1 L avl_st_rx_data [23] $end
$var wire 1 M avl_st_rx_data [22] $end
$var wire 1 N avl_st_rx_data [21] $end
$var wire 1 O avl_st_rx_data [20] $end
$var wire 1 P avl_st_rx_data [19] $end
$var wire 1 Q avl_st_rx_data [18] $end
$var wire 1 R avl_st_rx_data [17] $end
$var wire 1 S avl_st_rx_data [16] $end
$var wire 1 T avl_st_rx_data [15] $end
$var wire 1 U avl_st_rx_data [14] $end
$var wire 1 V avl_st_rx_data [13] $end
$var wire 1 W avl_st_rx_data [12] $end
$var wire 1 X avl_st_rx_data [11] $end
$var wire 1 Y avl_st_rx_data [10] $end
$var wire 1 Z avl_st_rx_data [9] $end
$var wire 1 [ avl_st_rx_data [8] $end
$var wire 1 \ avl_st_rx_data [7] $end
$var wire 1 ] avl_st_rx_data [6] $end
$var wire 1 ^ avl_st_rx_data [5] $end
$var wire 1 _ avl_st_rx_data [4] $end
$var wire 1 ` avl_st_rx_data [3] $end
$var wire 1 a avl_st_rx_data [2] $end
$var wire 1 b avl_st_rx_data [1] $end
$var wire 1 c avl_st_rx_data [0] $end
$var wire 1 d avl_st_rx_sop $end
$var wire 1 e avl_st_rx_eop $end
$var wire 1 f avl_st_rx_empty [2] $end
$var wire 1 g avl_st_rx_empty [1] $end
$var wire 1 h avl_st_rx_empty [0] $end
$var wire 1 p fifo1_wr $end
$var wire 1 q fifo1_full $end
$var wire 1 r fifo1_empty $end
$var wire 1 s fifo2_full $end
$var wire 1 t fifo2_empty $end
$var wire 1 x flag $end

$scope function space_check $end
$upscope $end

$scope module i_f1 $end
$upscope $end

$scope module i_f2 $end
$upscope $end
$upscope $end
$upscope $end

$scope module parser_op_ut $end

$scope task step $end
$upscope $end

$scope task nextSamplePoint $end
$upscope $end

$scope task reset $end
$upscope $end

$scope function build $end
$upscope $end

$scope task setup $end
$upscope $end

$scope task teardown $end
$upscope $end

$scope task run $end

$scope begin test_rst $end
$upscope $end

$scope begin test_8_bit_tag $end
$upscope $end

$scope begin test_16_bit_tag $end
$upscope $end

$scope begin test_24_bit_tag $end
$upscope $end

$scope begin test_32_bit_tag $end
$upscope $end

$scope begin test_random_400 $end
$upscope $end
$upscope $end

$scope module my_parser_op $end
$var wire 1 y full $end
$var wire 1 z empty $end

$scope function space_check $end
$upscope $end
$upscope $end
$upscope $end

$scope module parser_ut $end

$scope task step $end
$upscope $end

$scope task nextSamplePoint $end
$upscope $end

$scope task reset $end
$upscope $end

$scope function build $end
$upscope $end

$scope task setup $end
$upscope $end

$scope task teardown $end
$upscope $end

$scope task run $end

$scope begin test_rst $end
$upscope $end

$scope begin test_8_bit_tag $end
$upscope $end

$scope begin test_16_bit_tag $end
$upscope $end

$scope begin test_24_bit_tag $end
$upscope $end

$scope begin test_32_bit_tag $end
$upscope $end

$scope begin test_random_200 $end
$upscope $end
$upscope $end

$scope module my_parser $end
$var reg 9 { wr_cnt [8:0] $end
$var reg 9 | rd_cnt [8:0] $end
$upscope $end
$upscope $end
$upscope $end
$upscope $end

$scope begin svunit_pkg $end
$upscope $end

$scope begin std $end
$upscope $end
$enddefinitions $end
#0
$dumpvars
0i
b0 j
b0 k
0l
b0 m
b0 n
bx u
bx v
b1 w
bx {
bx |
bx o
1!
0"
0#
0c
0b
0a
0`
0_
0^
0]
0\
0[
0Z
0Y
0X
0W
0V
0U
0T
0S
0R
0Q
0P
0O
0N
0M
0L
0K
0J
0I
0H
0G
0F
0E
0D
0C
0B
0A
0@
0?
0>
0=
0<
0;
0:
09
08
07
06
05
04
03
02
01
00
0/
0.
0-
0,
0+
0*
0)
0(
0'
0&
0%
0$
0d
0e
0h
0g
0f
0p
xq
xr
xs
xt
0x
xy
xz
$end
#5
0!
#10
1"
1!
b0 u
b0 v
0q
0s
1t
1r
#15
0!
#20
1!
#25
0!
#30
0"
1!
b1 u
#35
0!
#40
1!
b10 u
#45
0!
#50
1!
b11 u
#51
1#
1d
1p
1c
1a
1`
1\
1[
1Y
1V
1U
1R
1O
1K
1I
1H
1G
1F
1C
1;
19
18
12
11
1/
1.
1-
1+
1)
1(
1&
1%
1$
#55
0!
#60
1!
b100 u
0r
b1110110101110110000011010000000100111101000100100110010110001101 o
#61
0d
0c
0Y
1X
1W
1T
1Q
0O
1M
1L
0H
0G
0F
1E
1D
0C
1B
1@
1>
1<
08
16
15
14
13
0+
1*
0)
0(
1'
0&
0%
0$
#65
0!
#70
1!
b101 u
b10 w
#71
1e
1g
1f
1c
1b
0[
0X
0W
0U
0T
0R
0Q
0M
0L
0K
0I
0E
0D
0B
0@
0>
0<
0;
09
06
05
04
03
02
01
0/
0.
0-
0*
0'
#75
0!
#80
1!
b110 u
b1110110101110110000011010000000100111101000100100110010110001101 v
b100 w
b0 u
0p
b11101101011101100000110100000001 k
b100100110010110001101 j
b1001001110111111001011010101011000101110001101111100110001100 o
#81
0#
0e
#85
0!
#90
1!
b1 u
b10010011101111110010110101010110001011100011011111001100011001110110101110110000011010000000100111101000100100110010110001101 v
b100100111011111100101101010101100010111000110111110011000110011101101011101100000110100000001 k
b10000010001111 o
1x
#95
0!
#100
1!
b10 u
b1000001000111100010010011101111110010110101010110001011100011011111001100011001110110101110110000011010000000100111101000100100110010110001101 v
b1 w
1i
b10000010001111000100100111011111100101101010101100010111000110111110011000110011101101011101100000110100000001 k
bx o
1r
0x
#105
0!
#110
1!
0i
b11 u
#115
0!
#120
1!
b100 u
#125
0!
#130
1!
b101 u
#131
1#
1d
0b
1_
1^
1[
1Y
1X
1W
1S
1Q
1P
1N
1K
1I
1F
1E
1C
1B
1>
1=
1:
18
1,
1*
1(
1&
1$
#135
0!
#140
1!
b110 u
0t
#141
0d
1e
1h
0g
0f
0^
0[
1Z
0X
0V
1T
1R
0Q
0P
1O
0N
1H
0F
0E
1?
0>
1;
16
15
1.
0,
0*
0(
0&
0$
#145
0!
#150
1!
b111 u
1p
#151
0#
0e
0p
#155
0!
#160
1!
b1000 u
b101010101000000000001010011000110110010100101101 n
b10111101 m
#165
0!
#170
1!
b1001 u
1l
b100000011010110101001100001101000100111001011010011101101010101000000000001010011000110110010100101101 n
1t
#175
0!
#180
1!
b1010 u
0l
#185
0!
#190
1!
b1011 u
#195
0!
#200
1!
b1100 u
#201
1#
1d
1e
1p
0h
1g
0c
1b
0a
0_
0\
1[
0Z
1X
1V
0T
0S
1P
0O
1M
1L
0K
1G
1F
0C
1>
1<
0;
0:
08
05
0.
#205
0!
#210
1!
b1101 u
0p
0r
b1000001111001000111100110010100011110100001010 o
1x
#211
0#
0d
0e
#215
0!
#220
1!
b1110 u
b10 w
b0 v
b0 k
#225
0!
#230
1!
b1111 u
b1000001111001000111100110010100011110100001010 v
b100 w
b1 w
1i
b0 u
b100000111100100011110011001010 k
b1010 j
bx o
1r
0x
#235
0!
#240
1!
0i
b1 u
#245
0!
#250
1!
b10 u
#255
0!
#260
1!
b11 u
#261
1#
1d
1c
0b
1\
1Z
0Y
0W
1U
1T
1S
0R
1Q
1O
1N
0M
0L
1J
0H
1D
1A
0?
0>
1:
19
18
14
11
10
1/
1.
1,
1*
1(
1&
#265
0!
#270
1!
b100 u
0t
#271
0d
1e
0g
1f
1b
0\
0Z
0X
1W
0T
0P
0O
0N
1L
0J
0I
0G
0D
0B
0A
0=
0<
0:
09
08
06
04
01
00
0/
0.
0,
0*
0(
0&
#275
0!
#280
1!
b101 u
1p
b0 n
#281
0#
0e
0p
#285
0!
#290
1!
b110 u
b10101010111100101011101100011010110110 n
b1110101110001001 m
#295
0!
#300
1!
b111 u
1l
b1000001000010101110001000010110010101010111100101011101100011010110110 n
1t
#305
0!
#310
1!
b1000 u
0l
#315
0!
#320
1!
b1001 u
#325
0!
#330
1!
b1010 u
#331
1#
1d
1p
0b
0`
1_
1^
1]
1\
1X
0V
1T
0S
1R
0Q
1N
1M
0L
1I
1H
0F
1E
1C
1A
1@
1?
1>
1;
1:
19
18
17
14
13
12
11
10
1,
1(
1'
1&
1%
1$
#335
0!
#340
1!
b1011 u
0r
b1111100010001111100111110011110101001100011000101101100111110001 o
#341
0d
1e
1h
1b
1a
0]
1Z
1Y
0U
0R
0M
0I
0H
0E
0C
0A
0@
0?
0>
0;
0:
09
08
07
04
03
02
01
00
0,
0(
0'
0&
0%
0$
#345
0!
#350
1!
b1100 u
b10 w
b0 v
0p
b0 k
#351
0#
0e
#355
0!
#360
1!
b1101 u
b1111100010001111100111110011110101001100011000101101100111110001 v
b100 w
b0 u
b111110001000111110011111 k
b1001100011000101101100111110001 j
b1000001001111110110111 o
1x
#365
0!
#370
1!
b1 u
b10000010011111101101111111100010001111100111110011110101001100011000101101100111110001 v
b1 w
1i
b1000001001111110110111111110001000111110011111 k
bx o
1r
0x
#375
0!
#380
1!
0i
b10 u
#385
0!
#390
1!
b11 u
#395
0!
#400
1!
b100 u
#401
1#
1d
0c
0b
1`
0_
0^
0\
0[
0Y
0X
0W
1U
1S
1Q
1P
1O
1H
1E
1D
1C
1B
1A
1?
1>
1=
1:
17
12
11
10
1/
1.
1-
1+
1)
1(
1&
1%
#405
0!
#410
1!
b101 u
0t
#411
0d
1e
0h
1g
1c
0a
1_
1^
0Z
1V
0U
0T
0S
0Q
0P
0O
0N
0H
0E
0D
0C
0B
0A
0?
0>
0=
0:
07
02
01
00
0/
0.
0-
0+
0)
0(
0&
0%
#415
0!
#420
1!
b110 u
1p
b0 n
#421
0#
0e
0p
#425
0!
#430
1!
b111 u
b110110101111110000100100111011111001000 n
b1100001000001100 m
#435
0!
#440
1!
b1000 u
1l
b100000001110010110110101111110000100100111011111001000 n
1t
#445
0!
#450
1!
b1001 u
0l
#455
0!
#460
1!
b1010 u
#465
0!
#470
1!
b1011 u
#471
1#
1d
1p
0c
1]
1[
1Z
1X
1W
0V
1U
1S
1P
1M
1K
1J
1I
1H
1G
1F
1C
1A
1@
1?
1>
1:
18
16
10
1/
1-
1*
1)
1$
#475
0!
#480
1!
b1100 u
0r
b1000011001011000001010100011110100111111010010010101101101111000 o
#481
0d
1e
1h
0g
1b
1a
0_
0^
0]
1\
0[
0Z
1Y
0U
1T
0S
0P
1N
0M
0K
0J
0I
0H
0G
0F
0C
0A
0@
0?
0>
0:
08
06
00
0/
0-
0*
0)
0$
#485
0!
#490
1!
b1101 u
b10 w
b0 v
0p
b0 k
#491
0#
0e
#495
0!
#500
1!
b1110 u
b1000011001011000001010100011110100111111010010010101101101111000 v
b100 w
b0 u
b100001100101100000101010 k
b111111010010010101101101111000 j
b1000001001110010001110 o
1x
#505
0!
#510
1!
b1 u
b10000010011100100011101000011001011000001010100011110100111111010010010101101101111000 v
b1 w
1i
b1000001001110010001110100001100101100000101010 k
bx o
1r
0x
#515
0!
#520
1!
0i
b10 u
#525
0!
#530
1!
b11 u
#535
0!
#540
1!
b100 u
#541
1#
1d
1e
0h
1g
0f
1c
0a
0`
1^
1[
1V
0T
1S
1R
1Q
1P
1K
1J
1G
1F
1D
1C
1B
1A
1@
1?
1=
16
#545
0!
#550
1!
b101 u
1p
0t
#551
0#
0d
0e
0p
#555
0!
#560
1!
b110 u
b0 n
#565
0!
#570
1!
b111 u
1l
b100000010111111011001100101111 n
b10100011 m
1t
#575
0!
#580
1!
b1000 u
0l
#585
0!
#590
1!
b1001 u
#595
0!
#600
1!
b1010 u
#601
1#
1d
1p
1`
0^
1]
0S
0P
1M
1L
0K
1H
0F
1E
0D
0B
0A
0?
1>
0=
1;
19
18
15
14
12
10
1/
1-
1,
1+
1)
1&
1%
#605
0!
#610
1!
b1011 u
0r
b110010111011010111011010010100101011010111001100011110111001011 o
#611
0d
1e
1f
0b
1a
0`
1_
1^
0]
0[
0Y
0X
0W
0R
0Q
0N
0M
0L
0J
0H
0G
0E
0C
0@
0>
0;
09
08
06
05
04
02
00
0/
0-
0,
0+
0)
0&
0%
#615
0!
#620
1!
b1100 u
b10 w
b0 v
0p
b0 k
#621
0#
0e
#625
0!
#630
1!
b1101 u
b110010111011010111011010010100101011010111001100011110111001011 v
b100 w
b0 u
b11001011101101011101101001010010101101011100110 k
b11001011 j
b10000010110101 o
1x
#635
0!
#640
1!
b1 u
b100000101101010110010111011010111011010010100101011010111001100011110111001011 v
b1 w
1i
b10000010110101011001011101101011101101001010010101101011100110 k
bx o
1r
0x
#645
0!
#650
1!
0i
b10 u
#655
0!
#660
1!
b11 u
#665
0!
#670
1!
b100 u
#671
1#
1d
1e
0g
0f
0c
0a
0^
1]
1Z
1X
1S
1Q
1P
1O
1N
1K
1J
1H
1F
1D
1B
1A
1@
19
18
17
15
14
12
10
1/
1,
1&
#675
0!
#680
1!
b101 u
1p
0t
#681
0#
0d
0e
0p
#685
0!
#690
1!
b110 u
b0 n
#695
0!
#700
1!
b111 u
1l
b10000010011010110111000000111010101011 n
b10101011010000 m
1t
#705
0!
#710
1!
b1000 u
0l
#715
0!
#720
1!
b1001 u
#725
0!
#730
1!
b1010 u
#731
1#
1d
1p
1`
1^
0]
0\
1[
0Z
1Y
1W
0Q
1M
0K
0J
1G
0B
0@
1?
1<
1;
1:
09
08
05
02
11
00
0/
0,
1+
1(
1'
0&
1%
#735
0!
#740
1!
b1011 u
0r
b101100100000100100100111001010010111000011110010011110100111000 o
#741
0d
1e
1h
1g
1f
0`
0_
0[
0Y
0X
0W
0V
0S
0P
0O
0N
0M
0H
0G
0F
0D
0A
0?
0<
0;
0:
07
04
01
0+
0(
0'
0%
#745
0!
#750
1!
b1100 u
b10 w
b0 v
0p
b0 k
#751
0#
0e
#755
0!
#760
1!
b1101 u
b101100100000100100100111001010010111000011110010011110100111000 v
b100 w
b0 u
b10110010000010010010011100101001011100001111001 k
b111000 j
b100000 o
1x
#765
0!
#770
1!
b1 u
b1000000101100100000100100100111001010010111000011110010011110100111000 v
b1 w
1i
b100000010110010000010010010011100101001011100001111001 k
bx o
1r
0x
#775
0!
#780
1!
0i
b10 u
#785
0!
#790
1!
b11 u
#795
0!
#800
1!
b100 u
#801
1#
1d
1c
1a
1`
1]
1[
1Y
1X
1W
1V
1R
1Q
1O
1N
1M
1J
1H
1E
1D
1B
1A
1?
1>
1<
1;
19
17
14
12
11
1-
1)
#805
0!
#810
1!
b101 u
0t
#811
0d
1e
0h
0g
1b
0`
1_
1\
0Y
0W
1U
0R
0M
1L
0J
0H
1F
0E
0D
0B
0A
0?
0>
0<
0;
09
07
04
02
01
0-
0)
#815
0!
#820
1!
b110 u
1p
b0 n
#821
0#
0e
0p
#825
0!
#830
1!
b111 u
b1000100011010010101101101101100101001110110 n
b1101101 m
#835
0!
#840
1!
b1000 u
1l
b100000101101000110100111110111000001000100011010010101101101101100101001110110 n
1t
#845
0!
#850
1!
b1001 u
0l
#855
0!
#860
1!
b1010 u
#865
0!
#870
1!
b1011 u
#871
1#
1d
1p
0b
1`
0_
0]
0\
1Y
1W
0U
1S
1R
0O
0N
1M
1J
1I
1H
1@
19
18
17
13
11
10
1/
1.
1-
1,
1+
1(
1&
#875
0!
#880
1!
b1100 u
0r
b10100111111101000111000000100000101110110001110011110100101101 o
#881
0d
1e
1h
0c
1_
0^
0[
1Z
0X
0W
0V
1T
0S
0R
0Q
1N
0M
0L
0J
0I
0H
0F
0@
09
08
07
03
01
00
0/
0.
0-
0,
0+
0(
0&
#885
0!
#890
1!
b1101 u
b10 w
b0 v
0p
b0 k
#891
0#
0e
#895
0!
#900
1!
b1110 u
b10100111111101000111000000100000101110110001110011110100101101 v
b100 w
b0 u
b1010011111110100011100000010000010111011000111 k
b101101 j
b1000001000011000011100 o
1x
#905
0!
#910
1!
b1 u
b10000010000110000111000010100111111101000111000000100000101110110001110011110100101101 v
b1 w
1i
b1000001000011000011100001010011111110100011100000010000010111011000111 k
bx o
1r
0x
#915
0!
#920
1!
0i
b10 u
#925
0!
#930
1!
b11 u
#935
0!
#940
1!
b100 u
#941
1#
1d
1b
1]
0Y
1X
1W
1V
1U
1S
1Q
1O
0N
1M
1L
1K
1I
1H
1G
1F
1B
1@
1?
1;
18
17
16
14
13
12
11
1/
1.
1*
1)
1'
1$
#945
0!
#950
1!
b101 u
0t
#951
0d
1e
0f
0b
0a
0`
0_
1\
1Y
0X
0W
0U
0T
0S
1R
1N
0M
1E
0B
1A
1=
1<
0;
1:
19
08
07
06
03
02
01
0/
0*
0)
0'
0$
#955
0!
#960
1!
b110 u
1p
b0 n
#961
0#
0e
0p
#965
0!
#970
1!
b111 u
b10010110001101111011100100011010 n
b110101011111101001011110 m
#975
0!
#980
1!
b1000 u
1l
b10000010000110110111000111110110110110001001101100000010010110001101111011100100011010 n
1t
#985
0!
#990
1!
b1001 u
0l
#995
0!
#1000
1!
b1010 u
#1005
0!
#1010
1!
b1011 u
#1011
1#
1d
1p
1c
1b
1`
1_
1[
1X
0V
1U
1T
1S
0R
0Q
1P
1M
0L
0E
1B
0A
1>
1;
0:
09
16
15
04
13
12
11
1/
0.
1+
1&
1$
#1015
0!
#1020
1!
b1100 u
0r
b1010000100010111011000011111101000111101011110011100111111011011 o
#1021
0d
0c
1a
0`
0_
0]
0[
0Z
0Y
0X
1W
0T
1Q
0P
1L
0H
1C
0B
0?
0=
0<
06
14
02
0/
1-
1,
0+
1(
1'
0&
#1025
0!
#1030
1!
b1101 u
b10 w
b0 v
b0 k
#1031
1e
1f
1c
0a
1`
1]
0\
1[
1Z
1V
0S
0Q
0O
0M
0L
0K
0I
0G
0F
0C
0@
0>
0;
05
04
03
01
0-
0,
0(
0'
0$
#1035
0!
#1040
1!
b1110 u
b1010000100010111011000011111101000111101011110011100111111011011 v
b100 w
b0 u
0p
b10100001000101110110000111111010 k
b11110011100111111011011 j
b1001100011000101110000010010100100110101111101010101000010000110 o
#1041
0#
0e
#1045
0!
#1050
1!
b1 u
b10011000110001011100000100101001001101011111010101010000100001101010000100010111011000011111101000111101011110011100111111011011 v
b100110001100010111000001001010010011010111110101010100001000011010100001000101110110000111111010 k
b1000000111001101001011 o
1x
#1055
0!
#1060
1!
b10 u
b100000011100110100101110011000110001011100000100101001001101011111010101010000100001101010000100010111011000011111101000111101011110011100111111011011 v
b1 w
1i
b1000000111001101001011100110001100010111000001001010010011010111110101010100001000011010100001000101110110000111111010 k
bx o
1r
0x
#1065
0!
#1070
1!
0i
b11 u
#1075
0!
#1080
1!
b100 u
#1085
0!
#1090
1!
b101 u
#1091
1#
1d
0b
0`
1^
0]
1\
0[
1Y
1X
0W
0V
0U
1R
1Q
1M
1L
1K
1J
1I
1H
1G
1D
1C
1A
1@
1?
1>
1:
18
16
12
10
1.
1+
1)
1(
1$
#1095
0!
#1100
1!
b110 u
0t
#1101
0d
1e
0f
0c
1b
1a
1`
1_
0^
0Z
0Y
1W
1V
1S
0R
0Q
1P
1O
0L
0K
0J
0I
0G
1E
0C
1B
0A
0?
0>
1=
1<
1;
08
17
06
02
00
0+
0)
0(
0$
#1105
0!
#1110
1!
b111 u
1p
b0 n
#1111
0#
0e
0p
#1115
0!
#1120
1!
b1000 u
b100011010010101000101010 n
b10011111111001100000111010100001 m
#1125
0!
#1130
1!
b1001 u
1l
b100000000100111100101011001000011110010011100010011110100011010010101000101010 n
1t
#1135
0!
#1140
1!
b1010 u
0l
#1145
0!
#1150
1!
b1011 u
#1155
0!
#1160
1!
b1100 u
#1161
1#
1d
1p
0a
1^
1[
1Y
0S
1Q
0P
0O
0N
1L
1K
1G
1F
0E
0@
1?
0=
0;
0:
19
16
14
13
12
11
10
1/
1-
1*
1)
1$
#1165
0!
#1170
1!
b1101 u
0r
b1000011001111111101101001001001010111001110001000011110110111010 o
#1171
0d
1e
1g
1f
0b
0`
0_
0\
0[
0Y
0X
0W
0V
0Q
0M
0L
0K
0H
0G
0F
0D
0B
0?
0<
09
07
06
04
03
02
01
00
0/
0.
0-
0*
0)
0$
#1175
0!
#1180
1!
b1110 u
b10 w
b0 v
0p
b0 k
#1181
0#
0e
#1185
0!
#1190
1!
b1111 u
b1000011001111111101101001001001010111001110001000011110110111010 v
b100 w
b0 u
b100001100111111110110100100100101011100111000100 k
b10111010 j
b100000 o
1x
#1195
0!
#1200
1!
b1 u
b1000001000011001111111101101001001001010111001110001000011110110111010 v
b1 w
1i
b100000100001100111111110110100100100101011100111000100 k
bx o
1r
0x
#1205
0!
#1210
1!
0i
b10 u
#1215
0!
#1220
1!
b11 u
#1225
0!
#1230
1!
b100 u
#1231
1#
1d
1e
0h
0g
0f
1c
1a
1`
1_
1\
1Y
1T
1Q
1N
1M
1L
1J
1H
1E
1D
1C
1A
1@
1?
1>
1;
18
16
14
13
1.
1,
1&
#1235
0!
#1240
1!
b101 u
1p
0t
#1241
0#
0d
0e
0p
#1245
0!
#1250
1!
b110 u
b0 n
#1255
0!
#1260
1!
b111 u
1l
b1000001010000110101001 n
b11001010111001001000010010111101 m
1t
#1265
0!
#1270
1!
b1000 u
0l
#1275
0!
#1280
1!
b1001 u
#1285
0!
#1290
1!
b1010 u
#1291
1#
1d
1p
0c
1b
0`
0\
1[
1W
1V
1U
0T
1S
1R
1P
0N
0M
1K
0J
1I
1G
1F
0E
0D
1B
0A
0?
1=
0;
06
03
12
11
10
1+
1*
1(
1'
0&
1$
#1295
0!
#1300
1!
b1011 u
0r
b1001101110101110100010000110101100111101100011110111010100110110 o
#1301
0d
1e
1g
0a
0^
1\
0[
0Y
1X
0W
0U
0R
1N
0L
1J
0I
0G
0F
1E
0C
0@
0>
1<
08
16
04
02
01
00
0.
0,
0+
0*
0(
0'
0$
#1305
0!
#1310
1!
b1100 u
b10 w
b0 v
0p
b0 k
#1311
0#
0e
#1315
0!
#1320
1!
b1101 u
b1001101110101110100010000110101100111101100011110111010100110110 v
b100 w
b0 u
b10011011101011101000100001101011 k
b100011110111010100110110 j
b1000001100001001001011001011010010100010010010 o
1x
#1325
0!
#1330
1!
b1 u
b10000011000010010010110010110100101000100100101001101110101110100010000110101100111101100011110111010100110110 v
b1 w
1i
b100000110000100100101100101101001010001001001010011011101011101000100001101011 k
bx o
1r
0x
#1335
0!
#1340
1!
0i
b10 u
#1345
0!
#1350
1!
b11 u
#1355
0!
#1360
1!
b100 u
#1361
1#
1d
0b
1`
0\
1[
0X
1W
0V
1U
1T
0S
1R
0P
0N
1L
0J
1I
1G
1F
0E
1C
0B
0<
1;
1:
18
17
10
1/
1-
1,
1+
1*
1'
1%
#1365
0!
#1370
1!
b101 u
0t
#1371
0d
1b
1a
0`
1]
1Z
1X
0T
0Q
1N
1M
0K
0H
0G
0F
1B
1?
1>
0;
0:
06
15
14
12
00
0-
0,
0+
0*
1(
1&
0%
1$
#1375
0!
#1380
1!
b110 u
b0 n
#1381
1e
1h
1f
0b
0a
0_
1^
0]
0[
0Z
0X
0W
0U
0R
0N
0M
0L
0I
0C
0B
0?
0>
0=
08
07
05
04
02
0/
0(
0'
0&
0$
#1385
0!
#1390
1!
b111 u
1p
b1010011110110000011101101000001 n
b100001101101000100011000 m
#1391
0#
0e
0p
#1395
0!
#1400
1!
b1000 u
b101110000001001011011000011100110000010011100010010110110101011001010011110110000011101101000001 n
