testbench/parser.vcd
$date
	Mon Sep  2 00:51:28 2019
$end
$version
	ModelSim Version 10.3
$end
$timescale
	1ns
$end

$scope module testrunner $end

$scope module __ts $end

$scope module parser_op_ut $end

$scope module my_parser_op $end
$var wire 1 ! clk $end
$var wire 1 " rst $end
$var wire 1 # rdy $end
$var wire 1 $ avl_st_rx_valid $end
$var wire 1 % avl_st_rx_data [63] $end
$var wire 1 & avl_st_rx_data [62] $end
$var wire 1 ' avl_st_rx_data [61] $end
$var wire 1 ( avl_st_rx_data [60] $end
$var wire 1 ) avl_st_rx_data [59] $end
$var wire 1 * avl_st_rx_data [58] $end
$var wire 1 + avl_st_rx_data [57] $end
$var wire 1 , avl_st_rx_data [56] $end
$var wire 1 - avl_st_rx_data [55] $end
$var wire 1 . avl_st_rx_data [54] $end
$var wire 1 / avl_st_rx_data [53] $end
$var wire 1 0 avl_st_rx_data [52] $end
$var wire 1 1 avl_st_rx_data [51] $end
$var wire 1 2 avl_st_rx_data [50] $end
$var wire 1 3 avl_st_rx_data [49] $end
$var wire 1 4 avl_st_rx_data [48] $end
$var wire 1 5 avl_st_rx_data [47] $end
$var wire 1 6 avl_st_rx_data [46] $end
$var wire 1 7 avl_st_rx_data [45] $end
$var wire 1 8 avl_st_rx_data [44] $end
$var wire 1 9 avl_st_rx_data [43] $end
$var wire 1 : avl_st_rx_data [42] $end
$var wire 1 ; avl_st_rx_data [41] $end
$var wire 1 < avl_st_rx_data [40] $end
$var wire 1 = avl_st_rx_data [39] $end
$var wire 1 > avl_st_rx_data [38] $end
$var wire 1 ? avl_st_rx_data [37] $end
$var wire 1 @ avl_st_rx_data [36] $end
$var wire 1 A avl_st_rx_data [35] $end
$var wire 1 B avl_st_rx_data [34] $end
$var wire 1 C avl_st_rx_data [33] $end
$var wire 1 D avl_st_rx_data [32] $end
$var wire 1 E avl_st_rx_data [31] $end
$var wire 1 F avl_st_rx_data [30] $end
$var wire 1 G avl_st_rx_data [29] $end
$var wire 1 H avl_st_rx_data [28] $end
$var wire 1 I avl_st_rx_data [27] $end
$var wire 1 J avl_st_rx_data [26] $end
$var wire 1 K avl_st_rx_data [25] $end
$var wire 1 L avl_st_rx_data [24] $end
$var wire 1 M avl_st_rx_data [23] $end
$var wire 1 N avl_st_rx_data [22] $end
$var wire 1 O avl_st_rx_data [21] $end
$var wire 1 P avl_st_rx_data [20] $end
$var wire 1 Q avl_st_rx_data [19] $end
$var wire 1 R avl_st_rx_data [18] $end
$var wire 1 S avl_st_rx_data [17] $end
$var wire 1 T avl_st_rx_data [16] $end
$var wire 1 U avl_st_rx_data [15] $end
$var wire 1 V avl_st_rx_data [14] $end
$var wire 1 W avl_st_rx_data [13] $end
$var wire 1 X avl_st_rx_data [12] $end
$var wire 1 Y avl_st_rx_data [11] $end
$var wire 1 Z avl_st_rx_data [10] $end
$var wire 1 [ avl_st_rx_data [9] $end
$var wire 1 \ avl_st_rx_data [8] $end
$var wire 1 ] avl_st_rx_data [7] $end
$var wire 1 ^ avl_st_rx_data [6] $end
$var wire 1 _ avl_st_rx_data [5] $end
$var wire 1 ` avl_st_rx_data [4] $end
$var wire 1 a avl_st_rx_data [3] $end
$var wire 1 b avl_st_rx_data [2] $end
$var wire 1 c avl_st_rx_data [1] $end
$var wire 1 d avl_st_rx_data [0] $end
$var wire 1 e avl_st_rx_sop $end
$var wire 1 f avl_st_rx_eop $end
$var wire 1 g avl_st_rx_empty [2] $end
$var wire 1 h avl_st_rx_empty [1] $end
$var wire 1 i avl_st_rx_empty [0] $end
$var reg 1 j out1_valid $end
$var reg 32 k out1_tag [31:0] $end
$var reg 128 l out1_value [127:0] $end
$var reg 1 m out2_valid $end
$var reg 32 n out2_tag [31:0] $end
$var reg 128 o out2_value [127:0] $end
$var wire 10 p fifo_cnt [9:0] $end
$var reg 10 q wr_cnt [9:0] $end
$var reg 10 r rd_cnt [9:0] $end
$var wire 64 s fifo_wdata [63:0] $end
$var wire 1 t full $end
$var wire 1 u empty $end
$var wire 4 v pos [3:0] $end
$var wire 1 w mem_zero $end
$var reg 64 x buf_wdata [63:0] $end
$var reg 64 y buf_idata [63:0] $end
$var wire 64 z buf_rdata [63:0] $end
$var wire 9 { buf_count [8:0] $end
$var wire 1 | buf_wr $end
$var reg 1 } buf_rd $end
$var reg 6 ~ op_cnt [5:0] $end
$var reg 192 !! tmp_data [191:0] $end
$var reg 4 "! state [3:0] $end

$scope function sm_check $end
$upscope $end

$scope module i_buf $end
$upscope $end
$upscope $end
$upscope $end
$upscope $end

$scope function build $end
$upscope $end

$scope task run $end
$upscope $end

$scope module __ts $end

$scope function build $end
$upscope $end

$scope task run $end
$upscope $end

$scope module parser_op_ut $end

$scope task step $end
$upscope $end

$scope task nextSamplePoint $end
$upscope $end

$scope task reset $end
$upscope $end

$scope function build $end
$upscope $end

$scope task setup $end
$upscope $end

$scope task teardown $end
$upscope $end

$scope task run $end

$scope begin test_rst $end
$upscope $end

$scope begin test_2_continus_case_empty_0 $end
$upscope $end

$scope begin test_2_continus_case_empty_1 $end
$upscope $end

$scope begin test_2_continus_case_empty_3 $end
$upscope $end

$scope begin test_2_continus_case_igonore_1st_for_5B_tag $end
$upscope $end

$scope begin test_2_continus_case_igonore_2nd_for_5B_tag $end
$upscope $end

$scope begin test_2_continus_case_1st_ignore_17B_value $end
$upscope $end

$scope begin test_2_continus_case_2nd_ignore_17B_value $end
$upscope $end
$upscope $end

$scope module my_parser_op $end
$var wire 1 ! clk $end
$var wire 1 " rst $end
$var wire 1 # rdy $end
$var wire 1 $ avl_st_rx_valid $end
$var wire 1 % avl_st_rx_data [63] $end
$var wire 1 & avl_st_rx_data [62] $end
$var wire 1 ' avl_st_rx_data [61] $end
$var wire 1 ( avl_st_rx_data [60] $end
$var wire 1 ) avl_st_rx_data [59] $end
$var wire 1 * avl_st_rx_data [58] $end
$var wire 1 + avl_st_rx_data [57] $end
$var wire 1 , avl_st_rx_data [56] $end
$var wire 1 - avl_st_rx_data [55] $end
$var wire 1 . avl_st_rx_data [54] $end
$var wire 1 / avl_st_rx_data [53] $end
$var wire 1 0 avl_st_rx_data [52] $end
$var wire 1 1 avl_st_rx_data [51] $end
$var wire 1 2 avl_st_rx_data [50] $end
$var wire 1 3 avl_st_rx_data [49] $end
$var wire 1 4 avl_st_rx_data [48] $end
$var wire 1 5 avl_st_rx_data [47] $end
$var wire 1 6 avl_st_rx_data [46] $end
$var wire 1 7 avl_st_rx_data [45] $end
$var wire 1 8 avl_st_rx_data [44] $end
$var wire 1 9 avl_st_rx_data [43] $end
$var wire 1 : avl_st_rx_data [42] $end
$var wire 1 ; avl_st_rx_data [41] $end
$var wire 1 < avl_st_rx_data [40] $end
$var wire 1 = avl_st_rx_data [39] $end
$var wire 1 > avl_st_rx_data [38] $end
$var wire 1 ? avl_st_rx_data [37] $end
$var wire 1 @ avl_st_rx_data [36] $end
$var wire 1 A avl_st_rx_data [35] $end
$var wire 1 B avl_st_rx_data [34] $end
$var wire 1 C avl_st_rx_data [33] $end
$var wire 1 D avl_st_rx_data [32] $end
$var wire 1 E avl_st_rx_data [31] $end
$var wire 1 F avl_st_rx_data [30] $end
$var wire 1 G avl_st_rx_data [29] $end
$var wire 1 H avl_st_rx_data [28] $end
$var wire 1 I avl_st_rx_data [27] $end
$var wire 1 J avl_st_rx_data [26] $end
$var wire 1 K avl_st_rx_data [25] $end
$var wire 1 L avl_st_rx_data [24] $end
$var wire 1 M avl_st_rx_data [23] $end
$var wire 1 N avl_st_rx_data [22] $end
$var wire 1 O avl_st_rx_data [21] $end
$var wire 1 P avl_st_rx_data [20] $end
$var wire 1 Q avl_st_rx_data [19] $end
$var wire 1 R avl_st_rx_data [18] $end
$var wire 1 S avl_st_rx_data [17] $end
$var wire 1 T avl_st_rx_data [16] $end
$var wire 1 U avl_st_rx_data [15] $end
$var wire 1 V avl_st_rx_data [14] $end
$var wire 1 W avl_st_rx_data [13] $end
$var wire 1 X avl_st_rx_data [12] $end
$var wire 1 Y avl_st_rx_data [11] $end
$var wire 1 Z avl_st_rx_data [10] $end
$var wire 1 [ avl_st_rx_data [9] $end
$var wire 1 \ avl_st_rx_data [8] $end
$var wire 1 ] avl_st_rx_data [7] $end
$var wire 1 ^ avl_st_rx_data [6] $end
$var wire 1 _ avl_st_rx_data [5] $end
$var wire 1 ` avl_st_rx_data [4] $end
$var wire 1 a avl_st_rx_data [3] $end
$var wire 1 b avl_st_rx_data [2] $end
$var wire 1 c avl_st_rx_data [1] $end
$var wire 1 d avl_st_rx_data [0] $end
$var wire 1 e avl_st_rx_sop $end
$var wire 1 f avl_st_rx_eop $end
$var wire 1 g avl_st_rx_empty [2] $end
$var wire 1 h avl_st_rx_empty [1] $end
$var wire 1 i avl_st_rx_empty [0] $end
$var wire 1 t full $end
$var wire 1 u empty $end
$var wire 1 w mem_zero $end
$var wire 1 | buf_wr $end

$scope function sm_check $end
$upscope $end

$scope module i_buf $end
$upscope $end
$upscope $end
$upscope $end
$upscope $end
$upscope $end

$scope begin svunit_pkg $end
$upscope $end

$scope begin std $end
$upscope $end
$enddefinitions $end
#0
$dumpvars
0j
b0 k
b0 l
xm
bx n
bx o
bx q
bx r
bx x
bx y
0}
bx ~
bx !!
b1 "!
bx p
b0 s
b1000 v
bx z
bx {
1!
0"
x#
0$
0d
0c
0b
0a
0`
0_
0^
0]
0\
0[
0Z
0Y
0X
0W
0V
0U
0T
0S
0R
0Q
0P
0O
0N
0M
0L
0K
0J
0I
0H
0G
0F
0E
0D
0C
0B
0A
0@
0?
0>
0=
0<
0;
0:
09
08
07
06
05
04
03
02
01
00
0/
0.
0-
0,
0+
0*
0)
0(
0'
0&
0%
0e
0f
0i
0h
0g
xt
xu
0w
x|
$end
#5
0!
#10
1"
1!
b0 q
b0 r
b0 ~
b0 !!
0t
1#
b0 p
1u
0|
b0 {
#15
0!
#20
1!
#25
0!
#30
0"
1!
b1 ~
#35
0!
#40
1!
b10 ~
#45
0!
#50
1!
b11 ~
#51
1$
1e
1a
1`
1_
1^
1[
1Z
1X
1V
1R
1P
1O
1K
1H
1D
1B
1A
1@
1?
1<
1;
1:
19
17
16
15
14
12
11
1.
1-
1,
1+
1)
1'
1%
b1010101111001101111011110011110100010010001101000101011001111000 s
#55
0!
#60
1!
b1000 q
b100 ~
b1000 p
0u
1|
bx01111000 x
bx0101011001111000 x
bx001101000101011001111000 x
bx00010010001101000101011001111000 x
bx0011110100010010001101000101011001111000 x
bx111011110011110100010010001101000101011001111000 x
bx11001101111011110011110100010010001101000101011001111000 x
b1010101111001101111011110011110100010010001101000101011001111000 x
#61
0e
1d
0`
0_
0^
1]
1\
0X
1W
1T
0P
0O
1N
1L
0H
1G
0B
0A
0?
b1010101111001101111011110001000100100011010001010110011110001001 s
#65
0!
#70
1!
b101 ~
b10 "!
1}
b10000 q
b1000 r
b1010101111001101111011110011110100010010001101000101011001111000 z
b1 {
b1010101111001101111011110011110100010010001101000101011010001001 x
b1010101111001101111011110011110100010010001101000110011110001001 x
b1010101111001101111011110011110100010010010001010110011110001001 x
b1010101111001101111011110011110100100011010001010110011110001001 x
b1010101111001101111011110001000100100011010001010110011110001001 x
#71
0;
0:
09
07
06
05
04
01
10
1/
0.
0-
0,
0)
1(
0'
0%
b1001000110100000000010001000100100011010001010110011110001001 s
#75
0!
#80
1!
b11000 q
b10000 r
0}
b110 ~
1}
b0 ~
b1010101111001101111011110011110100010010001101000101011001111000 !!
b100 "!
b101010111100110111101111 l
b10010001101000101011001111000 k
b1010101111001101111011110001000100100011010001010110011110001001 z
b110 v
b1010101111001101000000010001000100100011010001010110011110001001 x
b10001000100100011010001010110011110001001 x
#81
1b
1`
1_
0]
1Y
1U
1Q
1M
1I
1E
1A
0@
1=
1;
1:
17
16
14
00
0/
1.
1,
0(
1'
b10001101000101011001111000100110101011110011011110111100111101 s
#85
0!
#90
1!
b100000 q
b10110 r
0}
b1 ~
1}
b10101011110011011110111100010001001000110100010101100111100010011010101111001101111011110011110100010010001101000101011001111000 !!
b1010101111001101111011110001000100100011010001010110011110001001101010111100110111101111 l
b1010 p
b10001000100100011010001010110011110001001 z
b1000 v
b10001000100100011010001010110011100110100 x
b10001000100100011010001010001001000110100 x
b10001000100100011001111010001001000110100 x
b10001000111101111001111010001001000110100 x
b11100110111101111001111010001001000110100 x
b101010111100110111101111001111010001001000110100 x
b10001001101010111100110111101111001111010001001000110100 x
b110011110001001101010111100110111101111001111010001001000110100 x
#91
1f
0b
0a
0_
0+
0'
b101000101011001111000100110101011110011011110111100010001 s
#95
0!
#100
1!
b101000 q
b11110 r
0}
b10 ~
1}
b1000100010010001101000101011001111000100110101011110011011110111100010001001000110100010101100111100010011010101111001101111011110011110100010010001101000101011001111000 !!
1j
b1000 "!
b1 "!
0}
b10001001000110100010101100111100010011010101111001101111011110001000100100011010001010110011110001001101010111100110111101111 l
b110011110001001101010111100110111101111001111010001001000110100 z
b110011110001001101010111100110111101111001111010001001001000101 x
b110011110001001101010111100110111101111001111010010001101000101 x
b110011110001001101010111100110111101111000100010010001101000101 x
#101
0$
0f
#105
0!
#110
1!
b100110 r
0j
b11 ~
b10 "!
1}
b0 !!
b0 l
b10 p
b10 {
b10 v
b110011110001001101010111100110111101111000100010000000101000101 x
b101000101 x
#115
0!
#120
1!
0}
b100 ~
1}
b0 ~
b110011110001001101010111100110111101111001111010001001000110100 !!
b100 "!
b101000 r
b110011110001001101010111100110111101111 l
b1001000110100 k
1u
b110011110001001101010111100110111101111000100010010001101000101 z
b0 p
0|
b1000 v
b1xxxxxxxx x
b0xxxxxxxxxxxxxxxx x
b0xxxxxxxxxxxxxxxxxxxxxxxx x
b0xxxxxxxxxxxxxxxxxxxxxxxxxxxxxxxx x
b0xxxxxxxxxxxxxxxxxxxxxxxxxxxxxxxxxxxxxxxx x
b0xxxxxxxxxxxxxxxxxxxxxxxxxxxxxxxxxxxxxxxxxxxxxxxx x
b0xxxxxxxxxxxxxxxxxxxxxxxxxxxxxxxxxxxxxxxxxxxxxxxxxxxxxxxx x
bx x
#125
0!
#130
1!
0}
b1 ~
1}
b1100111100010011010101111001101111011110001000100100011010001010110011110001001101010111100110111101111001111010001001000110100 !!
b1100111100010011010101111001101111011110001000100100011010001010110011110001001101010111100110111101111 l
b101000101 z
b1 {
#135
0!
#140
1!
0}
b10 ~
1}
b10100010101100111100010011010101111001101111011110001000100100011010001010110011110001001101010111100110111101111001111010001001000110100 !!
1j
b1000 "!
b1 "!
0}
b10100010101100111100010011010101111001101111011110001000100100011010001010110011110001001101010111100110111101111 l
bx z
b0 {
#145
0!
#150
1i
1!
0j
b11 ~
#155
0!
#160
1!
b100 ~
#161
1$
1e
0d
1a
1_
1^
0\
0Y
1X
0W
0U
0T
0Q
1P
1O
0N
0M
0L
0I
1H
0G
0E
1B
1@
1?
0=
19
15
11
1-
1+
1)
1'
1%
b1010101111001101111011110011110100010010001101000101011001111000 s
#165
0!
#170
1!
b110000 q
b101 ~
b1000 p
0u
1|
bx01111000 x
bx0101011001111000 x
bx001101000101011001111000 x
bx00010010001101000101011001111000 x
bx0011110100010010001101000101011001111000 x
bx111011110011110100010010001101000101011001111000 x
bx11001101111011110011110100010010001101000101011001111000 x
b1010101111001101111011110011110100010010001101000101011001111000 x
#171
0e
1d
0`
0_
0^
1]
1\
0X
1W
1T
0P
0O
1N
1L
0H
1G
0B
0A
0?
b1010101111001101111011110001000100100011010001010110011110001001 s
#175
0!
#180
1!
b110 ~
b10 "!
1}
b0 !!
b111000 q
b110000 r
b0 l
b1010101111001101111011110011110100010010001101000101011001111000 z
b1 {
b1010101111001101111011110011110100010010001101000101011010001001 x
b1010101111001101111011110011110100010010001101000110011110001001 x
b1010101111001101111011110011110100010010010001010110011110001001 x
b1010101111001101111011110011110100100011010001010110011110001001 x
b1010101111001101111011110001000100100011010001010110011110001001 x
#181
0@
0<
0;
09
18
06
05
04
13
02
01
10
0.
0-
0+
1*
1(
0%
b11110100010010001101000000000100100011010001010110011110001001 s
#185
0!
#190
1!
b1000000 q
b111000 r
0}
b111 ~
1}
b0 ~
b1010101111001101111011110011110100010010001101000101011001111000 !!
b100 "!
b101010111100110111101111 l
b10010001101000101011001111000 k
b1010101111001101111011110001000100100011010001010110011110001001 z
b101 v
b1010101111001101111011110000000100100011010001010110011110001001 x
b100100011010001010110011110001001 x
#191
1c
1b
1_
1^
0[
1Y
0W
1U
1S
0R
1Q
1O
0N
1M
0K
1I
0G
1E
1C
1B
1?
1>
1<
08
07
16
14
00
1/
0*
0)
0'
b1000100100011010001010110011110001001101010111100110111101111 s
#195
0!
#200
1!
b1001000 q
b111101 r
0}
b1 ~
1}
b10101011110011011110111100010001001000110100010101100111100010011010101111001101111011110011110100010010001101000101011001111000 !!
b1010101111001101111011110001000100100011010001010110011110001001101010111100110111101111 l
b1011 p
b100100011010001010110011110001001 z
b1000 v
b100100011010001010110011100110100 x
b100100011010001010001001000110100 x
b100100011001111010001001000110100 x
b111101111001111010001001000110100 x
b1100110111101111001111010001001000110100 x
b101010111100110111101111001111010001001000110100 x
b10001001101010111100110111101111001111010001001000110100 x
b110011110001001101010111100110111101111001111010001001000110100 x
#201
1f
b100011010001010110011110001001101010111100110111101111 s
03
0/
0,
0(
b1010001010110011110001001101010111100110111101111 s
#205
0!
#210
1!
b1010000 q
b1000101 r
0}
b10 ~
1}
b10010001101000101011001111000100110101011110011011110111100010001001000110100010101100111100010011010101111001101111011110011110100010010001101000101011001111000 !!
1j
b1000 "!
b1 "!
0}
b1001000110100010101100111100010011010101111001101111011110001000100100011010001010110011110001001101010111100110111101111 l
b110011110001001101010111100110111101111001111010001001000110100 z
b110011110001001101010111100110111101111001111010001001001000101 x
b110011110001001101010111100110111101111001111010010001101000101 x
b110011110001001101010111100110111101111000100010010001101000101 x
#211
0$
0f
#215
0!
#220
1!
b1001101 r
0j
b11 ~
b10 "!
1}
b0 !!
b0 l
b11 p
b10 {
b10 v
b110011110001001101010111100110111101111000100010000000101000101 x
b101000101 x
#225
0!
#230
1!
0}
b100 ~
1}
b0 ~
b110011110001001101010111100110111101111001111010001001000110100 !!
b100 "!
b1001111 r
b110011110001001101010111100110111101111 l
b1001000110100 k
1w
b110011110001001101010111100110111101111000100010010001101000101 z
b1 p
0#
0|
b1000 v
b100000000 x
b0xxxxxxxx00000000 x
b0xxxxxxxxxxxxxxxx00000000 x
b0xxxxxxxxxxxxxxxxxxxxxxxx00000000 x
b0xxxxxxxxxxxxxxxxxxxxxxxxxxxxxxxx00000000 x
b0xxxxxxxxxxxxxxxxxxxxxxxxxxxxxxxxxxxxxxxx00000000 x
b0xxxxxxxxxxxxxxxxxxxxxxxxxxxxxxxxxxxxxxxxxxxxxxxx00000000 x
bx00000000 x
#235
0!
#240
1!
b1010000 r
0}
b1 ~
1}
b1100111100010011010101111001101111011110001000100100011010001010110011110001001101010111100110111101111001111010001001000110100 !!
b1100111100010011010101111001101111011110001000100100011010001010110011110001001101010111100110111101111 l
0w
1u
b101000101 z
b0 p
1#
b1 {
bx x
#245
0!
#250
1!
0}
b10 ~
1}
b10100010101100111100010011010101111001101111011110001000100100011010001010110011110001001101010111100110111101111001111010001001000110100 !!
1j
b1000 "!
b1 "!
0}
b10100010101100111100010011010101111001101111011110001000100100011010001010110011110001001101010111100110111101111 l
bx z
b0 {
#255
0!
#260
1h
1!
0j
b11 ~
#265
0!
#270
1!
b100 ~
#271
1$
1e
0d
0c
0b
1`
0]
0\
1[
0Y
1X
0U
0T
0S
1R
0Q
1P
0M
0L
1K
0I
1H
0E
0C
1A
1@
0>
1;
19
17
15
12
11
1.
1-
1,
1+
1)
1'
1%
b1010101111001101111011110011110100010010001101000101011001111000 s
#275
0!
#280
1!
b1011000 q
b101 ~
b1000 p
0u
1|
bx01111000 x
bx0101011001111000 x
bx001101000101011001111000 x
bx00010010001101000101011001111000 x
bx0011110100010010001101000101011001111000 x
bx111011110011110100010010001101000101011001111000 x
bx11001101111011110011110100010010001101000101011001111000 x
b1010101111001101111011110011110100010010001101000101011001111000 x
#281
0e
1d
0`
0_
0^
1]
1\
0X
1W
1T
0P
0O
1N
1L
0H
1G
0B
0A
0?
b1010101111001101111011110001000100100011010001010110011110001001 s
#285
0!
#290
1!
b110 ~
b10 "!
1}
b0 !!
b1100000 q
b1011000 r
b0 l
b1010101111001101111011110011110100010010001101000101011001111000 z
b1 {
b1010101111001101111011110011110100010010001101000101011010001001 x
b1010101111001101111011110011110100010010001101000110011110001001 x
b1010101111001101111011110011110100010010010001010110011110001001 x
b1010101111001101111011110011110100100011010001010110011110001001 x
b1010101111001101111011110001000100100011010001010110011110001001 x
#291
0@
0<
0;
09
18
06
05
04
13
02
01
10
0.
0-
0+
1*
1(
0%
b11110100010010001101000000000100100011010001010110011110001001 s
#295
0!
#300
1!
b1101000 q
b1100000 r
0}
b111 ~
1}
b0 ~
b1010101111001101111011110011110100010010001101000101011001111000 !!
b100 "!
b101010111100110111101111 l
b10010001101000101011001111000 k
b1010101111001101111011110001000100100011010001010110011110001001 z
b101 v
b1010101111001101111011110000000100100011010001010110011110001001 x
b100100011010001010110011110001001 x
#301
1c
1b
1_
1^
0[
1Y
0W
1U
1S
0R
1Q
1O
0N
1M
0K
1I
0G
1E
1C
1B
1?
1>
1<
08
07
16
14
00
1/
0*
0)
0'
b1000100100011010001010110011110001001101010111100110111101111 s
#305
0!
#310
1!
b1110000 q
b1100101 r
0}
b1 ~
1}
b10101011110011011110111100010001001000110100010101100111100010011010101111001101111011110011110100010010001101000101011001111000 !!
b1010101111001101111011110001000100100011010001010110011110001001101010111100110111101111 l
b1011 p
b100100011010001010110011110001001 z
b1000 v
b100100011010001010110011100110100 x
b100100011010001010001001000110100 x
b100100011001111010001001000110100 x
b111101111001111010001001000110100 x
b1100110111101111001111010001001000110100 x
b101010111100110111101111001111010001001000110100 x
b10001001101010111100110111101111001111010001001000110100 x
b110011110001001101010111100110111101111001111010001001000110100 x
#311
1f
b110011110001001101010111100110111101111 s
0C
0B
0?
0>
0<
0:
06
04
03
0/
0,
0(
b110001001101010111100110111101111 s
#315
0!
#320
1!
b1111000 q
b1101101 r
0}
b10 ~
1}
b10010001101000101011001111000100110101011110011011110111100010001001000110100010101100111100010011010101111001101111011110011110100010010001101000101011001111000 !!
1j
b1000 "!
b1 "!
0}
b1001000110100010101100111100010011010101111001101111011110001000100100011010001010110011110001001101010111100110111101111 l
b110011110001001101010111100110111101111001111010001001000110100 z
b110011110001001101010111100110111101111001111010001001001000101 x
b110011110001001101010111100110111101111001111010010001101000101 x
b110011110001001101010111100110111101111000100010010001101000101 x
b110001001101010111100110111101111000100010010001101000101 x
#321
0$
0f
#325
0!
#330
1!
b1110101 r
0j
b11 ~
b10 "!
1}
b0 !!
b0 l
1w
b11 p
0#
0|
b10 {
b110001001101010111100110111101111000100010010001100000000 x
b110001001101010111100110111101111000100010000000000000000 x
b110001001101010111100110111101111000000000000000000000000 x
b1100010011010101111001101xxxxxxxx000000000000000000000000 x
b11000100110101011xxxxxxxxxxxxxxxx000000000000000000000000 x
b110001001xxxxxxxxxxxxxxxxxxxxxxxx000000000000000000000000 x
b1xxxxxxxxxxxxxxxxxxxxxxxxxxxxxxxx000000000000000000000000 x
bx000000000000000000000000 x
#335
0!
#340
1!
0}
b100 ~
1}
b0 ~
b110011110001001101010111100110111101111001111010001001000110100 !!
b100 "!
b1110110 r
b110011110001001101010111100110111101111 l
b1001000110100 k
b110001001101010111100110111101111000100010010001101000101 z
b10 p
b1 {
bx0000000000000000 x
#345
0!
#350
1!
b1110111 r
0}
b1 ~
1}
b1100010011010101111001101111011110001000100100011010001010110011110001001101010111100110111101111001111010001001000110100 !!
b1 "!
1j
0}
b1100010011010101111001101111011110001000100100011010001010110011110001001101010111100110111101111 l
bx z
b1 p
b0 {
bx00000000 x
#355
0!
#360
0h
1!
b1111000 r
0j
b10 ~
b10 "!
1}
b0 !!
b0 l
0w
b0 p
1u
1#
bx x
#365
0!
#370
1!
0}
b11 ~
1}
b0 ~
b0xxxxxxxxxxxxxxxxxxxxxxxxxxxxxxxxxxxxxxxxxxxxxxxxxxxxxxxxxxxxxxxx !!
b1000 "!
b0 k
#371
1$
1e
0d
0c
0b
1`
0]
0\
1[
0Y
1X
0U
0T
0S
1R
0Q
1P
0M
0L
1K
0I
1H
0E
1C
1B
1A
1?
1>
1=
1<
1:
19
18
17
14
12
11
1.
1-
1,
1+
1)
1'
1%
b1010101111001101001111011110111100010010001101000101011001111000 s
#375
0!
#380
1!
b10000000 q
0}
b1 ~
1}
b1000 p
0u
1|
bx01111000 x
bx0101011001111000 x
bx001101000101011001111000 x
bx00010010001101000101011001111000 x
bx1110111100010010001101000101011001111000 x
bx001111011110111100010010001101000101011001111000 x
bx11001101001111011110111100010010001101000101011001111000 x
b1010101111001101001111011110111100010010001101000101011001111000 x
#381
0e
1d
0`
0_
0^
1]
1\
0X
1W
1T
0P
0O
1N
1L
0H
1G
0C
0B
0A
0>
0=
1;
08
16
15
b1010101111001101111011110010000100100011010001010110011110001001 s
#385
0!
#390
1!
b10001000 q
b10000000 r
0}
b10 ~
1}
b1 "!
0}
b1010101111001101001111011110111100010010001101000101011001111000 z
b1 {
b1010101111001101001111011110111100010010001101000101011010001001 x
b1010101111001101001111011110111100010010001101000110011110001001 x
b1010101111001101001111011110111100010010010001010110011110001001 x
b1010101111001101001111011110111100100011010001010110011110001001 x
b1010101111001101001111010010000100100011010001010110011110001001 x
b1010101111001101111011110010000100100011010001010110011110001001 x
#391
0?
0<
0;
09
18
06
05
04
13
02
01
10
0.
0-
0+
1*
1(
0%
b11110100010010001101000000000100100011010001010110011110001001 s
#395
0!
#400
1!
b10010000 q
b10001000 r
b11 ~
b10 "!
1}
b0 !!
b10 {
b101 v
b1010101111001101111011110000000100100011010001010110011110001001 x
b100100011010001010110011110001001 x
#401
1c
1b
1_
1^
0[
1Y
0W
1U
1S
0R
1Q
1O
0N
1M
0K
1I
0G
1E
1C
1B
1?
1>
1<
08
07
16
14
00
1/
0*
0)
0(
b10000100100011010001010110011110001001101010111100110111101111 s
#405
0!
#410
1!
0}
b100 ~
1}
b0 ~
b1010101111001101001111011110111100010010001101000101011001111000 !!
b1 "!
0}
b10011000 q
b10001101 r
b1011 p
b1010101111001101111011110010000100100011010001010110011110001001 z
b1000 v
b100100011010001010110011100110100 x
b100100011010001010001001000110100 x
b100100011001111010001001000110100 x
b111101111001111010001001000110100 x
b1100110111101111001111010001001000110100 x
b101010111100110111101111001111010001001000110100 x
b10001001101010111100110111101111001111010001001000110100 x
b110011110001001101010111100110111101111001111010001001000110100 x
#411
1f
b100011010001010110011110001001101010111100110111101111 s
03
0/
0,
0'
b1010001010110011110001001101010111100110111101111 s
#415
0!
#420
1!
b10100000 q
b10010101 r
b1 ~
b10 "!
1}
b0 !!
b11 {
b110011110001001101010111100110111101111001111010001001001000101 x
b110011110001001101010111100110111101111001111010010001101000101 x
b110011110001001101010111100110111101111001000010010001101000101 x
#421
0$
0f
#425
0!
#430
1!
0}
b10 ~
1}
b0 ~
b1010101111001101111011110010000100100011010001010110011110001001 !!
b1000 "!
b10011101 r
b11 p
b100100011010001010110011110001001 z
b10 v
b110011110001001101010111100110111101111001000010000000101000101 x
b101000101 x
#435
0!
#440
1!
b10011111 r
0}
b1 ~
1}
b1 "!
0}
1w
b110011110001001101010111100110111101111001111010001001000110100 z
b1 p
0#
0|
b1000 v
b100000000 x
b0xxxxxxxx00000000 x
b0xxxxxxxxxxxxxxxx00000000 x
b0xxxxxxxxxxxxxxxxxxxxxxxx00000000 x
b0xxxxxxxxxxxxxxxxxxxxxxxxxxxxxxxx00000000 x
b0xxxxxxxxxxxxxxxxxxxxxxxxxxxxxxxxxxxxxxxx00000000 x
b0xxxxxxxxxxxxxxxxxxxxxxxxxxxxxxxxxxxxxxxxxxxxxxxx00000000 x
bx00000000 x
#445
0!
#450
1!
b10100000 r
b10 ~
b10 "!
1}
b0 !!
0w
b0 p
1u
1#
bx x
#455
0!
#460
1!
0}
b11 ~
1}
b0 ~
b110011110001001101010111100110111101111001111010001001000110100 !!
b100 "!
b110011110001001101010111100110111101111 l
b1001000110100 k
b110011110001001101010111100110111101111001000010010001101000101 z
b10 {
#465
0!
#470
1!
0}
b1 ~
1}
b1100111100010011010101111001101111011110010000100100011010001010110011110001001101010111100110111101111001111010001001000110100 !!
b1100111100010011010101111001101111011110010000100100011010001010110011110001001101010111100110111101111 l
b101000101 z
b1 {
#475
0!
#480
1!
0}
b10 ~
1}
b10100010101100111100010011010101111001101111011110010000100100011010001010110011110001001101010111100110111101111001111010001001000110100 !!
1j
b1000 "!
b1 "!
0}
b10100010101100111100010011010101111001101111011110010000100100011010001010110011110001001101010111100110111101111 l
bx z
b0 {
#485
0!
#490
1!
0j
b11 ~
#495
0!
#500
1!
b100 ~
#501
1$
1e
0d
0c
0a
1`
0^
0]
0\
1[
0Z
0Y
1X
0V
0U
0S
1R
1P
0M
1K
1J
1G
1F
0C
1A
0?
1=
1;
0:
19
17
06
15
11
1-
1,
1+
1*
1'
1&
b110011110001001101010111100110111101111001111010001001000110100 s
#505
0!
#510
1!
b10101000 q
b101 ~
b1000 p
0u
1|
bx00110100 x
bx0001001000110100 x
bx001111010001001000110100 x
bx11101111001111010001001000110100 x
bx1100110111101111001111010001001000110100 x
bx101010111100110111101111001111010001001000110100 x
bx10001001101010111100110111101111001111010001001000110100 x
b110011110001001101010111100110111101111001111010001001000110100 x
#511
0e
1d
0`
0_
1^
1\
0X
1W
0R
0Q
0O
b110011110001001101010111100110111101111000100010010001101000101 s
#515
0!
