testbench/parser.vcd
$date
	Sat Aug 31 03:08:13 2019
$end
$version
	ModelSim Version 10.3
$end
$timescale
	1ns
$end

$scope module testrunner $end

$scope module __ts $end

$scope module parser_op_dual_ut $end

$scope module my_parser_op_dual $end
$var wire 1 ! clk $end
$var wire 1 " rst $end
$var wire 1 # avl_st_rx_valid $end
$var wire 1 $ avl_st_rx_data [63] $end
$var wire 1 % avl_st_rx_data [62] $end
$var wire 1 & avl_st_rx_data [61] $end
$var wire 1 ' avl_st_rx_data [60] $end
$var wire 1 ( avl_st_rx_data [59] $end
$var wire 1 ) avl_st_rx_data [58] $end
$var wire 1 * avl_st_rx_data [57] $end
$var wire 1 + avl_st_rx_data [56] $end
$var wire 1 , avl_st_rx_data [55] $end
$var wire 1 - avl_st_rx_data [54] $end
$var wire 1 . avl_st_rx_data [53] $end
$var wire 1 / avl_st_rx_data [52] $end
$var wire 1 0 avl_st_rx_data [51] $end
$var wire 1 1 avl_st_rx_data [50] $end
$var wire 1 2 avl_st_rx_data [49] $end
$var wire 1 3 avl_st_rx_data [48] $end
$var wire 1 4 avl_st_rx_data [47] $end
$var wire 1 5 avl_st_rx_data [46] $end
$var wire 1 6 avl_st_rx_data [45] $end
$var wire 1 7 avl_st_rx_data [44] $end
$var wire 1 8 avl_st_rx_data [43] $end
$var wire 1 9 avl_st_rx_data [42] $end
$var wire 1 : avl_st_rx_data [41] $end
$var wire 1 ; avl_st_rx_data [40] $end
$var wire 1 < avl_st_rx_data [39] $end
$var wire 1 = avl_st_rx_data [38] $end
$var wire 1 > avl_st_rx_data [37] $end
$var wire 1 ? avl_st_rx_data [36] $end
$var wire 1 @ avl_st_rx_data [35] $end
$var wire 1 A avl_st_rx_data [34] $end
$var wire 1 B avl_st_rx_data [33] $end
$var wire 1 C avl_st_rx_data [32] $end
$var wire 1 D avl_st_rx_data [31] $end
$var wire 1 E avl_st_rx_data [30] $end
$var wire 1 F avl_st_rx_data [29] $end
$var wire 1 G avl_st_rx_data [28] $end
$var wire 1 H avl_st_rx_data [27] $end
$var wire 1 I avl_st_rx_data [26] $end
$var wire 1 J avl_st_rx_data [25] $end
$var wire 1 K avl_st_rx_data [24] $end
$var wire 1 L avl_st_rx_data [23] $end
$var wire 1 M avl_st_rx_data [22] $end
$var wire 1 N avl_st_rx_data [21] $end
$var wire 1 O avl_st_rx_data [20] $end
$var wire 1 P avl_st_rx_data [19] $end
$var wire 1 Q avl_st_rx_data [18] $end
$var wire 1 R avl_st_rx_data [17] $end
$var wire 1 S avl_st_rx_data [16] $end
$var wire 1 T avl_st_rx_data [15] $end
$var wire 1 U avl_st_rx_data [14] $end
$var wire 1 V avl_st_rx_data [13] $end
$var wire 1 W avl_st_rx_data [12] $end
$var wire 1 X avl_st_rx_data [11] $end
$var wire 1 Y avl_st_rx_data [10] $end
$var wire 1 Z avl_st_rx_data [9] $end
$var wire 1 [ avl_st_rx_data [8] $end
$var wire 1 \ avl_st_rx_data [7] $end
$var wire 1 ] avl_st_rx_data [6] $end
$var wire 1 ^ avl_st_rx_data [5] $end
$var wire 1 _ avl_st_rx_data [4] $end
$var wire 1 ` avl_st_rx_data [3] $end
$var wire 1 a avl_st_rx_data [2] $end
$var wire 1 b avl_st_rx_data [1] $end
$var wire 1 c avl_st_rx_data [0] $end
$var wire 1 d avl_st_rx_sop $end
$var wire 1 e avl_st_rx_eop $end
$var wire 1 f avl_st_rx_empty [2] $end
$var wire 1 g avl_st_rx_empty [1] $end
$var wire 1 h avl_st_rx_empty [0] $end
$var reg 1 i out1_valid $end
$var reg 32 j out1_tag [31:0] $end
$var reg 128 k out1_value [127:0] $end
$var reg 1 l out2_valid $end
$var reg 32 m out2_tag [31:0] $end
$var reg 128 n out2_value [127:0] $end
$var wire 64 o fifo1_rdata [63:0] $end
$var wire 1 p fifo1_wr $end
$var wire 1 q fifo1_full $end
$var wire 1 r fifo1_empty $end
$var wire 1 s fifo2_full $end
$var wire 1 t fifo2_empty $end
$var reg 6 u op1_cnt [5:0] $end
$var reg 192 v tmp1_data [191:0] $end
$var reg 4 w state1 [3:0] $end
$var wire 1 x flag $end

$scope function space_check $end
$upscope $end

$scope module i_f1 $end
$upscope $end

$scope module i_f2 $end
$upscope $end
$upscope $end
$upscope $end
$upscope $end

$scope function build $end
$upscope $end

$scope task run $end
$upscope $end

$scope module __ts $end

$scope function build $end
$upscope $end

$scope task run $end
$upscope $end

$scope module parser_op_dual_ut $end

$scope task step $end
$upscope $end

$scope task nextSamplePoint $end
$upscope $end

$scope task reset $end
$upscope $end

$scope function build $end
$upscope $end

$scope task setup $end
$upscope $end

$scope task teardown $end
$upscope $end

$scope task run $end

$scope begin test_rst $end
$upscope $end

$scope begin test_8_bit_tag $end
$upscope $end

$scope begin test_16_bit_tag $end
$upscope $end

$scope begin test_24_bit_tag $end
$upscope $end

$scope begin test_32_bit_tag $end
$upscope $end

$scope begin test_random_400 $end
$upscope $end
$upscope $end

$scope module my_parser_op_dual $end
$var wire 1 ! clk $end
$var wire 1 " rst $end
$var wire 1 # avl_st_rx_valid $end
$var wire 1 $ avl_st_rx_data [63] $end
$var wire 1 % avl_st_rx_data [62] $end
$var wire 1 & avl_st_rx_data [61] $end
$var wire 1 ' avl_st_rx_data [60] $end
$var wire 1 ( avl_st_rx_data [59] $end
$var wire 1 ) avl_st_rx_data [58] $end
$var wire 1 * avl_st_rx_data [57] $end
$var wire 1 + avl_st_rx_data [56] $end
$var wire 1 , avl_st_rx_data [55] $end
$var wire 1 - avl_st_rx_data [54] $end
$var wire 1 . avl_st_rx_data [53] $end
$var wire 1 / avl_st_rx_data [52] $end
$var wire 1 0 avl_st_rx_data [51] $end
$var wire 1 1 avl_st_rx_data [50] $end
$var wire 1 2 avl_st_rx_data [49] $end
$var wire 1 3 avl_st_rx_data [48] $end
$var wire 1 4 avl_st_rx_data [47] $end
$var wire 1 5 avl_st_rx_data [46] $end
$var wire 1 6 avl_st_rx_data [45] $end
$var wire 1 7 avl_st_rx_data [44] $end
$var wire 1 8 avl_st_rx_data [43] $end
$var wire 1 9 avl_st_rx_data [42] $end
$var wire 1 : avl_st_rx_data [41] $end
$var wire 1 ; avl_st_rx_data [40] $end
$var wire 1 < avl_st_rx_data [39] $end
$var wire 1 = avl_st_rx_data [38] $end
$var wire 1 > avl_st_rx_data [37] $end
$var wire 1 ? avl_st_rx_data [36] $end
$var wire 1 @ avl_st_rx_data [35] $end
$var wire 1 A avl_st_rx_data [34] $end
$var wire 1 B avl_st_rx_data [33] $end
$var wire 1 C avl_st_rx_data [32] $end
$var wire 1 D avl_st_rx_data [31] $end
$var wire 1 E avl_st_rx_data [30] $end
$var wire 1 F avl_st_rx_data [29] $end
$var wire 1 G avl_st_rx_data [28] $end
$var wire 1 H avl_st_rx_data [27] $end
$var wire 1 I avl_st_rx_data [26] $end
$var wire 1 J avl_st_rx_data [25] $end
$var wire 1 K avl_st_rx_data [24] $end
$var wire 1 L avl_st_rx_data [23] $end
$var wire 1 M avl_st_rx_data [22] $end
$var wire 1 N avl_st_rx_data [21] $end
$var wire 1 O avl_st_rx_data [20] $end
$var wire 1 P avl_st_rx_data [19] $end
$var wire 1 Q avl_st_rx_data [18] $end
$var wire 1 R avl_st_rx_data [17] $end
$var wire 1 S avl_st_rx_data [16] $end
$var wire 1 T avl_st_rx_data [15] $end
$var wire 1 U avl_st_rx_data [14] $end
$var wire 1 V avl_st_rx_data [13] $end
$var wire 1 W avl_st_rx_data [12] $end
$var wire 1 X avl_st_rx_data [11] $end
$var wire 1 Y avl_st_rx_data [10] $end
$var wire 1 Z avl_st_rx_data [9] $end
$var wire 1 [ avl_st_rx_data [8] $end
$var wire 1 \ avl_st_rx_data [7] $end
$var wire 1 ] avl_st_rx_data [6] $end
$var wire 1 ^ avl_st_rx_data [5] $end
$var wire 1 _ avl_st_rx_data [4] $end
$var wire 1 ` avl_st_rx_data [3] $end
$var wire 1 a avl_st_rx_data [2] $end
$var wire 1 b avl_st_rx_data [1] $end
$var wire 1 c avl_st_rx_data [0] $end
$var wire 1 d avl_st_rx_sop $end
$var wire 1 e avl_st_rx_eop $end
$var wire 1 f avl_st_rx_empty [2] $end
$var wire 1 g avl_st_rx_empty [1] $end
$var wire 1 h avl_st_rx_empty [0] $end
$var wire 1 p fifo1_wr $end
$var wire 1 q fifo1_full $end
$var wire 1 r fifo1_empty $end
$var wire 1 s fifo2_full $end
$var wire 1 t fifo2_empty $end
$var wire 1 x flag $end

$scope function space_check $end
$upscope $end

$scope module i_f1 $end
$upscope $end

$scope module i_f2 $end
$upscope $end
$upscope $end
$upscope $end

$scope module parser_op_ut $end

$scope task step $end
$upscope $end

$scope task nextSamplePoint $end
$upscope $end

$scope task reset $end
$upscope $end

$scope function build $end
$upscope $end

$scope task setup $end
$upscope $end

$scope task teardown $end
$upscope $end

$scope task run $end

$scope begin test_rst $end
$upscope $end

$scope begin test_8_bit_tag $end
$upscope $end

$scope begin test_16_bit_tag $end
$upscope $end

$scope begin test_24_bit_tag $end
$upscope $end

$scope begin test_32_bit_tag $end
$upscope $end

$scope begin test_random_400 $end
$upscope $end
$upscope $end

$scope module my_parser_op $end
$var wire 1 y full $end
$var wire 1 z empty $end

$scope function space_check $end
$upscope $end
$upscope $end
$upscope $end
$upscope $end
$upscope $end

$scope begin svunit_pkg $end
$upscope $end

$scope begin std $end
$upscope $end
$enddefinitions $end
#0
$dumpvars
0i
b0 j
b0 k
0l
b0 m
b0 n
bx u
bx v
b1 w
bx o
1!
0"
0#
0c
0b
0a
0`
0_
0^
0]
0\
0[
0Z
0Y
0X
0W
0V
0U
0T
0S
0R
0Q
0P
0O
0N
0M
0L
0K
0J
0I
0H
0G
0F
0E
0D
0C
0B
0A
0@
0?
0>
0=
0<
0;
0:
09
08
07
06
05
04
03
02
01
00
0/
0.
0-
0,
0+
0*
0)
0(
0'
0&
0%
0$
0d
0e
0h
0g
0f
0p
xq
xr
xs
xt
0x
xy
xz
$end
#5
0!
#10
1"
1!
b0 u
b0 v
0q
0s
1t
1r
#15
0!
#20
1!
#25
0!
#30
0"
1!
b1 u
#35
0!
#40
1!
b10 u
#45
0!
#50
1!
b11 u
#51
1#
1d
1e
1p
1h
1c
1\
1[
1Y
1X
1W
1V
1S
1P
1K
1J
1F
1E
1C
1A
1@
1;
19
18
14
1.
#55
0!
#60
1!
b100 u
0r
b100000100011010000110101100011000010010011110110000001 o
0t
1x
#61
0#
0d
0e
0p
#65
0!
#70
1!
b101 u
b10 w
#75
0!
#80
1!
1l
b110 u
b100000100011010000110101100011000010010011110110000001 v
b100 w
b1 w
1i
b0 u
b10000010001101000011010110001100001001 k
b10000001 j
b10000010001101000011010110001100001001 n
b10000001 m
1t
bx o
1r
0x
#85
0!
#90
1!
0i
b1 u
0l
#95
0!
#100
1!
b10 u
#101
1#
1d
1e
1p
1g
1a
1`
0\
0[
1Z
0X
1U
1Q
1O
1N
0J
1I
1H
1D
0C
0A
0@
1>
0;
09
08
04
0.
#105
0!
#110
1!
b11 u
0r
b10000011101101001111010111011000001101 o
0t
1x
#111
0#
0d
0e
0p
#115
0!
#120
1!
b100 u
b10 w
b0 v
b0 k
b0 n
#125
0!
#130
1!
b101 u
b10000011101101001111010111011000001101 v
b100 w
b1 w
1i
b0 u
1l
b10000011101101 n
b111011000001101 m
b10000011101101 k
b111011000001101 j
bx o
1r
1t
0x
#135
0!
#140
1!
0l
0i
b1 u
#145
0!
#150
1!
b10 u
#151
1#
1d
1p
0a
1_
1^
1]
1\
0W
0V
1T
0P
0O
0N
1M
1L
1G
0E
0D
1B
1@
1<
1;
19
16
15
14
13
12
11
1/
1.
1-
1*
1'
#155
0!
#160
1!
b11 u
0r
b1001001110111111001011010101000111101110001011100011011111001 o
0t
#161
0d
1b
1a
0_
0^
0]
0Y
1W
1V
0S
1R
1P
0K
0I
0G
1E
1D
1C
0B
1A
0@
0>
1=
0;
18
17
06
04
02
10
0-
1,
1+
0*
1)
1(
0'
1&
#165
0!
#170
1!
b100 u
b10 w
b0 v
b0 n
b0 k
#171
1e
1f
0c
0b
0a
0`
1^
0\
0Z
0W
0V
0U
0T
0R
0Q
0P
0M
0L
0H
0F
0E
0D
0C
0A
0=
0<
09
08
07
05
03
01
00
0/
0.
0,
0+
0)
0(
0&
#175
0!
#180
1!
b101 u
b1001001110111111001011010101000111101110001011100011011111001 v
b100 w
b0 u
b10010011101111110010110101010 k
b110001011100011011111001 j
b10010011101111110010110101010 n
b110001011100011011111001 m
b10110110111101010111001100010111101000110011101111001010001111 o
#181
0#
0e
0p
#185
0!
#190
1!
b1 u
b101101101111010101110011000101111010001100111011110010100011110001001001110111111001011010101000111101110001011100011011111001 v
b1011011011110101011100110001011110100011001110111100101000111100010010011101111110010110101010 n
b1011011011110101011100110001011110100011001110111100101000111100010010011101111110010110101010 k
b100000 o
1x
#195
0!
#200
1!
1l
b10 u
b10000000101101101111010101110011000101111010001100111011110010100011110001001001110111111001011010101000111101110001011100011011111001 v
b1 w
1i
b100000001011011011110101011100110001011110100011001110111100101000111100010010011101111110010110101010 k
b100000001011011011110101011100110001011110100011001110111100101000111100010010011101111110010110101010 n
1t
bx o
1r
0x
#205
0!
#210
1!
0i
b11 u
0l
#215
0!
#220
1!
b100 u
#221
1#
1d
1p
0^
1\
1Z
1X
1V
1T
1S
1Q
1P
1O
1L
1J
1I
1G
1D
1C
1A
1@
1?
1>
1;
1:
17
13
11
10
1+
1*
1'
1%
#225
0!
#230
1!
b101 u
0r
b101001100001101000100110011110110010110100111011010101010000000 o
0t
#231
0d
1e
0h
0g
0f
1c
1b
1`
1^
1]
0\
1[
0Z
1Y
0X
1W
0V
1U
0S
1R
0Q
0P
0O
0L
1H
0G
1F
0>
19
18
07
15
14
12
01
00
1.
0+
0*
0'
1&
0%
#235
0!
#240
1!
b110 u
b10 w
b0 v
b0 k
b0 n
#241
0#
0e
0p
#245
0!
#250
1!
b111 u
b101001100001101000100110011110110010110100111011010101010000000 v
b100 w
b0 u
b10100110000110100010011 n
b10010110100111011010101010000000 m
b10100110000110100010011 k
b10010110100111011010101010000000 j
b10000000100011110011110001110110101110000000101101010101101011 o
1x
#255
0!
#260
1!
1l
b1 u
b100000001000111100111100011101101011100000001011010101011010110101001100001101000100110011110110010110100111011010101010000000 v
b1 w
1i
b10000000100011110011110001110110101110000000101101010101101011010100110000110100010011 k
b10000000100011110011110001110110101110000000101101010101101011010100110000110100010011 n
1t
bx o
1r
0x
#265
0!
#270
1!
0i
b10 u
0l
#275
0!
#280
1!
b11 u
#281
1#
1d
1p
0b
0`
0^
1X
1V
0U
0T
0R
1P
1O
1M
1L
0J
0I
1G
1E
0D
0A
0?
1<
09
16
03
11
1/
1,
1*
1)
0&
1%
1$
#285
0!
#290
1!
b100 u
0r
b1100011010110110111010111000100101111000110110000011110101000001 o
0t
#291
0d
1e
1h
1g
0c
1b
1a
1`
1^
0]
1\
0[
1T
1R
0O
1N
0M
0L
1K
1J
0G
0F
0E
0C
0@
1>
0<
0;
0:
08
06
05
04
02
01
0/
0.
0,
0*
0)
0%
0$
#295
0!
#300
1!
b101 u
b10 w
b0 v
b0 k
b0 n
#301
0#
0e
0p
#305
0!
#310
1!
b110 u
b1100011010110110111010111000100101111000110110000011110101000001 v
b100 w
b0 u
b110001101011011011101011100010010111100011011000 n
b1000001 m
b110001101011011011101011100010010111100011011000 k
b1000001 j
b10000000001011001010101011110010101110 o
1x
#315
0!
#320
1!
1l
b1 u
b100000000010110010101010111100101011101100011010110110111010111000100101111000110110000011110101000001 v
b1 w
1i
b10000000001011001010101011110010101110110001101011011011101011100010010111100011011000 k
b10000000001011001010101011110010101110110001101011011011101011100010010111100011011000 n
1t
bx o
1r
0x
#325
0!
#330
1!
0i
b10 u
0l
#335
0!
#340
1!
b11 u
#345
0!
#350
1!
b100 u
#351
1#
1d
1p
1c
0a
1_
0\
1[
0T
1O
0K
1I
1G
1F
1E
1C
1A
1?
0>
1;
17
16
15
14
13
10
1/
1-
1,
1*
1&
1%
#355
0!
#360
1!
b101 u
0r
b110001011011001111100010001010101111110001110100011110100111011 o
0t
#361
0d
0c
0b
1a
0_
0^
1]
1Z
0V
1T
1S
1Q
0O
0N
1L
0J
0I
1D
1B
1>
1<
1:
19
18
06
05
03
11
0,
1+
1(
1'
0&
#365
0!
#370
1!
b110 u
b10 w
b0 v
b0 n
b0 k
#371
1e
0h
1f
1c
0a
0]
1\
0[
0Z
0Y
0X
0W
1V
0T
0S
0R
0Q
0P
0L
0H
0G
0F
0E
0D
0C
0B
0A
0?
0>
0<
0;
0:
09
08
07
04
01
00
0/
0-
0+
0*
0(
0'
0%
#375
0!
#380
1!
b111 u
b110001011011001111100010001010101111110001110100011110100111011 v
b100 w
b0 u
b11000101101100111110001000101010111111000111010 k
b111011 j
b11000101101100111110001000101010111111000111010 n
b111011 m
b101101101011100100111111011011111111000100011111001111101001100 o
#381
0#
0e
0p
#385
0!
#390
1!
b1 u
b1011011010111001001111110110111111110001000111110011111010011000110001011011001111100010001010101111110001110100011110100111011 v
b101101101011100100111111011011111111000100011111001111101001100011000101101100111110001000101010111111000111010 n
b101101101011100100111111011011111111000100011111001111101001100011000101101100111110001000101010111111000111010 k
b10000010001001 o
1x
#395
0!
#400
1!
1l
b10 u
b1000001000100101011011010111001001111110110111111110001000111110011111010011000110001011011001111100010001010101111110001110100011110100111011 v
b1 w
1i
b100000100010010101101101011100100111111011011111111000100011111001111101001100011000101101100111110001000101010111111000111010 k
b100000100010010101101101011100100111111011011111111000100011111001111101001100011000101101100111110001000101010111111000111010 n
1t
bx o
1r
0x
#405
0!
#410
1!
0i
b11 u
0l
#415
0!
#420
1!
b100 u
#425
0!
#430
1!
b101 u
#431
1#
1d
1p
1b
1a
0`
1_
1^
1]
0\
1Z
1W
0V
1R
1Q
1P
1O
1N
1M
1K
1I
1H
1F
1E
1C
1A
1@
1?
1>
1;
18
17
16
13
12
11
10
1/
1+
1*
1'
1%
1$
#435
0!
#440
1!
b110 u
0r
b1101001100011111001110010011110101101101011111100001001001110111 o
0t
#441
0d
1e
0f
0b
0_
0^
0]
1\
0Z
1X
1V
1U
1S
0Q
0N
0I
0F
1B
0;
08
07
03
02
01
00
0/
0+
0*
0'
0%
0$
#445
0!
#450
1!
b111 u
b10 w
b0 v
b0 n
b0 k
#451
0#
0e
0p
#455
0!
#460
1!
b1000 u
b1101001100011111001110010011110101101101011111100001001001110111 v
b100 w
b0 u
b110100110001111100111001 k
b1101101011111100001001001110111 j
b110100110001111100111001 n
b1101101011111100001001001110111 m
b1000000011111101001001010110110111100010000101 o
1x
#465
0!
#470
1!
b1 u
b10000000111111010010010101101101111000100001011101001100011111001110010011110101101101011111100001001001110111 v
b1 w
1i
1l
b1000000011111101001001010110110111100010000101110100110001111100111001 n
b1000000011111101001001010110110111100010000101110100110001111100111001 k
bx o
1r
1t
0x
#475
0!
#480
1!
0l
0i
b10 u
#485
0!
#490
1!
b11 u
#495
0!
#500
1!
b100 u
#501
1#
1d
1p
0c
1b
1^
0\
1[
1Z
0X
0R
1Q
1N
0M
1J
0H
1F
0E
1D
0?
1;
1:
17
14
13
12
11
10
1/
1-
1)
1%
#505
0!
#510
1!
b101 u
0r
b100010001011111101100110010111110100011001111010111001100100110 o
0t
#511
0d
1e
1c
1_
1]
1\
1X
0W
0V
1T
0S
1R
0P
0O
1M
1L
0K
1H
1G
0F
1E
0D
0B
0A
0;
0:
07
04
03
02
01
00
0/
0-
0)
0%
#515
0!
#520
1!
b110 u
b10 w
b0 v
b0 k
b0 n
#521
0#
0e
0p
#525
0!
#530
1!
b111 u
b100010001011111101100110010111110100011001111010111001100100110 v
b100 w
b0 u
b100010001011111101100110010111110100011 n
b111001100100110 m
b100010001011111101100110010111110100011 k
b111001100100110 j
b1000000010100101011010111001101100101111110111 o
1x
#535
0!
#540
1!
1l
b1 u
b10000000101001010110101110011011001011111101110100010001011111101100110010111110100011001111010111001100100110 v
b1 w
1i
b10000000101001010110101110011011001011111101110100010001011111101100110010111110100011 k
b10000000101001010110101110011011001011111101110100010001011111101100110010111110100011 n
1t
bx o
1r
0x
#545
0!
#550
1!
0i
b10 u
0l
#555
0!
#560
1!
b11 u
#565
0!
#570
1!
b100 u
#571
1#
1d
1e
1p
0g
0c
0b
0a
0^
0[
1V
0U
0T
1S
0R
1P
1O
0M
0L
1K
0G
1F
0E
1D
0C
1B
1A
0>
19
18
17
06
15
14
12
10
1/
1,
1&
#575
0!
#580
1!
b101 u
0r
b10000010011010110111000000111010101011001111010010101011010000 o
0t
1x
#581
0#
0d
0e
0p
#585
0!
#590
1!
b110 u
b10 w
b0 v
b0 n
b0 k
#595
0!
#600
1!
1l
b111 u
b10000010011010110111000000111010101011001111010010101011010000 v
b100 w
b1 w
1i
b0 u
b10000010011010110111000000111010101011 k
b10101011010000 j
b10000010011010110111000000111010101011 n
b10101011010000 m
1t
bx o
1r
0x
#605
0!
#610
1!
0i
b1 u
0l
#615
0!
#620
1!
b10 u
#625
0!
#630
1!
b11 u
#631
1#
1d
1p
1`
1^
0]
0\
1[
0Z
1Y
1W
0Q
1M
0K
0J
1G
0B
0@
1?
1<
1;
1:
09
08
05
02
11
00
0/
0,
1+
1(
1'
0&
1%
#635
0!
#640
1!
b100 u
0r
b101100100000100100100111001010010111000011110010011110100111000 o
0t
#641
0d
1e
1h
1g
1f
0`
0_
0[
0Y
0X
0W
0V
0S
0P
0O
0N
0M
0H
0G
0F
0D
0A
0?
0<
0;
0:
07
04
01
0+
0(
0'
0%
#645
0!
#650
1!
b101 u
b10 w
b0 v
b0 n
b0 k
#651
0#
0e
0p
#655
0!
#660
1!
b110 u
b101100100000100100100111001010010111000011110010011110100111000 v
b100 w
b0 u
b10110010000010010010011100101001011100001111001 k
b111000 j
b10110010000010010010011100101001011100001111001 n
b111000 m
b100000 o
1x
#665
0!
#670
1!
b1 u
b1000000101100100000100100100111001010010111000011110010011110100111000 v
b1 w
1i
1l
b100000010110010000010010010011100101001011100001111001 n
b100000010110010000010010010011100101001011100001111001 k
bx o
1r
1t
0x
#675
0!
#680
1!
0l
0i
b10 u
#685
0!
#690
1!
b11 u
#695
0!
#700
1!
b100 u
#701
1#
1d
1p
1c
1a
1`
1]
1[
1Y
1X
1W
1V
1R
1Q
1O
1N
1M
1J
1H
1E
1D
1B
1A
1?
1>
1<
1;
19
17
14
12
11
1-
1)
#705
0!
#710
1!
b101 u
0r
b10001000110100101011011011011001010011101100011110101101101 o
0t
#711
0d
1e
0h
0g
1b
0`
1_
1\
0Y
0W
1U
0R
0M
1L
0J
0H
1F
0E
0D
0B
0A
0?
0>
0<
0;
09
07
04
02
01
0-
0)
#715
0!
#720
1!
b110 u
b10 w
b0 v
b0 k
b0 n
#721
0#
0e
0p
#725
0!
#730
1!
b111 u
b10001000110100101011011011011001010011101100011110101101101 v
b100 w
b0 u
b1000100011010010101101101101100101001110110 n
b1101101 m
b1000100011010010101101101101100101001110110 k
b1101101 j
b100000101101000110100111110111 o
1x
#735
0!
#740
1!
1l
b1 u
b1000001011010001101001111101110000010001000110100101011011011011001010011101100011110101101101 v
b1 w
1i
b100000101101000110100111110111000001000100011010010101101101101100101001110110 k
b100000101101000110100111110111000001000100011010010101101101101100101001110110 n
1t
bx o
1r
0x
#745
0!
#750
1!
0i
b10 u
0l
#755
0!
#760
1!
b11 u
#765
0!
#770
1!
b100 u
#771
1#
1d
1p
0b
1`
0_
0]
0\
1Y
1W
0U
1S
1R
0O
0N
1M
1J
1I
1H
1@
19
18
17
13
11
10
1/
1.
1-
1,
1+
1(
1&
#775
0!
#780
1!
b101 u
0r
b10100111111101000111000000100000101110110001110011110100101101 o
0t
#781
0d
1e
1h
0c
1_
0^
0[
1Z
0X
0W
0V
1T
0S
0R
0Q
1N
0M
0L
0J
0I
0H
0F
0@
09
08
07
03
01
00
0/
0.
0-
0,
0+
0(
0&
#785
0!
#790
1!
b110 u
b10 w
b0 v
b0 n
b0 k
#791
0#
0e
0p
#795
0!
#800
1!
b111 u
b10100111111101000111000000100000101110110001110011110100101101 v
b100 w
b0 u
b1010011111110100011100000010000010111011000111 k
b101101 j
b1010011111110100011100000010000010111011000111 n
b101101 m
b1000001000011000011100 o
1x
#805
0!
#810
1!
b1 u
b10000010000110000111000010100111111101000111000000100000101110110001110011110100101101 v
b1 w
1i
1l
b1000001000011000011100001010011111110100011100000010000010111011000111 n
b1000001000011000011100001010011111110100011100000010000010111011000111 k
bx o
1r
1t
0x
#815
0!
#820
1!
0l
0i
b10 u
#825
0!
#830
1!
b11 u
#835
0!
#840
1!
b100 u
#841
1#
1d
1p
1b
1]
0Y
1X
1W
1V
1U
1S
1Q
1O
0N
1M
1L
1K
1I
1H
1G
1F
1B
1@
1?
1;
18
17
16
14
13
12
11
1/
1.
1*
1)
1'
1$
#845
0!
#850
1!
b101 u
0r
b1001011000110111101110010001101000111101110101011111101001011110 o
0t
#851
0d
1e
0f
0b
0a
0`
0_
1\
1Y
0X
0W
0U
0T
0S
1R
1N
0M
1E
0B
1A
1=
1<
0;
1:
19
08
07
06
03
02
01
0/
0*
0)
0'
0$
#855
0!
#860
1!
b110 u
b10 w
b0 v
b0 k
b0 n
#861
0#
0e
0p
#865
0!
#870
1!
b111 u
b1001011000110111101110010001101000111101110101011111101001011110 v
b100 w
b0 u
b10010110001101111011100100011010 n
b110101011111101001011110 m
b10010110001101111011100100011010 k
b110101011111101001011110 j
b100000100001101101110001111101101101100010011011000000 o
1x
#875
0!
#880
1!
1l
b1 u
b1000001000011011011100011111011011011000100110110000001001011000110111101110010001101000111101110101011111101001011110 v
b1 w
1i
b10000010000110110111000111110110110110001001101100000010010110001101111011100100011010 k
b10000010000110110111000111110110110110001001101100000010010110001101111011100100011010 n
1t
bx o
1r
0x
#885
0!
#890
1!
0i
b10 u
0l
#895
0!
#900
1!
b11 u
#905
0!
#910
1!
b100 u
#911
1#
1d
1p
1c
1b
1`
1_
1[
1X
0V
1U
1T
1S
0R
0Q
1P
1M
0L
0E
1B
0A
1>
1;
0:
09
16
15
04
13
12
11
1/
0.
1+
1&
1$
#915
0!
#920
1!
b101 u
0r
b1010000100010111011000011111101000111101011110011100111111011011 o
0t
#921
0d
0c
1a
0`
0_
0]
0[
0Z
0Y
0X
1W
0T
1Q
0P
1L
0H
1C
0B
0?
0=
0<
06
14
02
0/
1-
1,
0+
1(
1'
0&
#925
0!
#930
1!
b110 u
b10 w
b0 v
b0 n
b0 k
#931
1e
1f
1c
0a
1`
1]
0\
1[
1Z
1V
0S
0Q
0O
0M
0L
0K
0I
0G
0F
0C
0@
0>
0;
05
04
03
01
0-
0,
0(
0'
0$
#935
0!
#940
1!
b111 u
b1010000100010111011000011111101000111101011110011100111111011011 v
b100 w
b0 u
b10100001000101110110000111111010 k
b11110011100111111011011 j
b10100001000101110110000111111010 n
b11110011100111111011011 m
b1001100011000101110000010010100100110101111101010101000010000110 o
#941
0#
0e
0p
#945
0!
#950
1!
b1 u
b10011000110001011100000100101001001101011111010101010000100001101010000100010111011000011111101000111101011110011100111111011011 v
b100110001100010111000001001010010011010111110101010100001000011010100001000101110110000111111010 n
b100110001100010111000001001010010011010111110101010100001000011010100001000101110110000111111010 k
b1000000111001101001011 o
1x
#955
0!
#960
1!
1l
b10 u
b100000011100110100101110011000110001011100000100101001001101011111010101010000100001101010000100010111011000011111101000111101011110011100111111011011 v
b1 w
1i
b1000000111001101001011100110001100010111000001001010010011010111110101010100001000011010100001000101110110000111111010 k
b1000000111001101001011100110001100010111000001001010010011010111110101010100001000011010100001000101110110000111111010 n
1t
bx o
1r
0x
#965
0!
#970
1!
0i
b11 u
0l
#975
0!
#980
1!
b100 u
#985
0!
#990
1!
b101 u
#991
1#
1d
1p
0b
0`
1^
0]
1\
0[
1Y
1X
0W
0V
0U
1R
1Q
1M
1L
1K
1J
1I
1H
1G
1D
1C
1A
1@
1?
1>
1:
18
16
12
10
1.
1+
1)
1(
1$
#995
0!
#1000
1!
b110 u
0r
b1000110100101010001010100011110110011111111001100000111010100001 o
0t
#1001
0d
1e
0f
0c
1b
1a
1`
1_
0^
0Z
0Y
1W
1V
1S
0R
0Q
1P
1O
0L
0K
0J
0I
0G
1E
0C
1B
0A
0?
0>
1=
1<
1;
08
17
06
02
00
0+
0)
0(
0$
#1005
0!
#1010
1!
b111 u
b10 w
b0 v
b0 n
b0 k
#1011
0#
0e
0p
#1015
0!
#1020
1!
b1000 u
b1000110100101010001010100011110110011111111001100000111010100001 v
b100 w
b0 u
b100011010010101000101010 k
b10011111111001100000111010100001 j
b100011010010101000101010 n
b10011111111001100000111010100001 m
b100000000100111100101011001000011110010011100010011110 o
1x
#1025
0!
#1030
1!
b1 u
b1000000001001111001010110010000111100100111000100111101000110100101010001010100011110110011111111001100000111010100001 v
b1 w
1i
1l
b100000000100111100101011001000011110010011100010011110100011010010101000101010 n
b100000000100111100101011001000011110010011100010011110100011010010101000101010 k
bx o
1r
1t
0x
#1035
0!
#1040
1!
0l
0i
b10 u
#1045
0!
#1050
1!
b11 u
#1055
0!
#1060
1!
b100 u
#1061
1#
1d
1p
0a
1^
1[
1Y
0S
1Q
0P
0O
0N
1L
1K
1G
1F
0E
0@
1?
0=
0;
0:
19
16
14
13
12
11
10
1/
1-
1*
1)
1$
#1065
0!
#1070
1!
b101 u
0r
b1000011001111111101101001001001010111001110001000011110110111010 o
0t
#1071
0d
1e
1g
1f
0b
0`
0_
0\
0[
0Y
0X
0W
0V
0Q
0M
0L
0K
0H
0G
0F
0D
0B
0?
0<
09
07
06
04
03
02
01
00
0/
0.
0-
0*
0)
0$
#1075
0!
#1080
1!
b110 u
b10 w
b0 v
b0 k
b0 n
#1081
0#
0e
0p
