testbench/parser.vcd
$date
	Sun Sep  1 18:10:54 2019
$end
$version
	ModelSim Version 10.3
$end
$timescale
	1ns
$end

$scope module testrunner $end

$scope module __ts $end

$scope module parser_op_ut $end

$scope module my_parser_op $end
$var wire 1 ! clk $end
$var wire 1 " rst $end
$var wire 1 # avl_st_rx_valid $end
$var wire 1 $ avl_st_rx_data [63] $end
$var wire 1 % avl_st_rx_data [62] $end
$var wire 1 & avl_st_rx_data [61] $end
$var wire 1 ' avl_st_rx_data [60] $end
$var wire 1 ( avl_st_rx_data [59] $end
$var wire 1 ) avl_st_rx_data [58] $end
$var wire 1 * avl_st_rx_data [57] $end
$var wire 1 + avl_st_rx_data [56] $end
$var wire 1 , avl_st_rx_data [55] $end
$var wire 1 - avl_st_rx_data [54] $end
$var wire 1 . avl_st_rx_data [53] $end
$var wire 1 / avl_st_rx_data [52] $end
$var wire 1 0 avl_st_rx_data [51] $end
$var wire 1 1 avl_st_rx_data [50] $end
$var wire 1 2 avl_st_rx_data [49] $end
$var wire 1 3 avl_st_rx_data [48] $end
$var wire 1 4 avl_st_rx_data [47] $end
$var wire 1 5 avl_st_rx_data [46] $end
$var wire 1 6 avl_st_rx_data [45] $end
$var wire 1 7 avl_st_rx_data [44] $end
$var wire 1 8 avl_st_rx_data [43] $end
$var wire 1 9 avl_st_rx_data [42] $end
$var wire 1 : avl_st_rx_data [41] $end
$var wire 1 ; avl_st_rx_data [40] $end
$var wire 1 < avl_st_rx_data [39] $end
$var wire 1 = avl_st_rx_data [38] $end
$var wire 1 > avl_st_rx_data [37] $end
$var wire 1 ? avl_st_rx_data [36] $end
$var wire 1 @ avl_st_rx_data [35] $end
$var wire 1 A avl_st_rx_data [34] $end
$var wire 1 B avl_st_rx_data [33] $end
$var wire 1 C avl_st_rx_data [32] $end
$var wire 1 D avl_st_rx_data [31] $end
$var wire 1 E avl_st_rx_data [30] $end
$var wire 1 F avl_st_rx_data [29] $end
$var wire 1 G avl_st_rx_data [28] $end
$var wire 1 H avl_st_rx_data [27] $end
$var wire 1 I avl_st_rx_data [26] $end
$var wire 1 J avl_st_rx_data [25] $end
$var wire 1 K avl_st_rx_data [24] $end
$var wire 1 L avl_st_rx_data [23] $end
$var wire 1 M avl_st_rx_data [22] $end
$var wire 1 N avl_st_rx_data [21] $end
$var wire 1 O avl_st_rx_data [20] $end
$var wire 1 P avl_st_rx_data [19] $end
$var wire 1 Q avl_st_rx_data [18] $end
$var wire 1 R avl_st_rx_data [17] $end
$var wire 1 S avl_st_rx_data [16] $end
$var wire 1 T avl_st_rx_data [15] $end
$var wire 1 U avl_st_rx_data [14] $end
$var wire 1 V avl_st_rx_data [13] $end
$var wire 1 W avl_st_rx_data [12] $end
$var wire 1 X avl_st_rx_data [11] $end
$var wire 1 Y avl_st_rx_data [10] $end
$var wire 1 Z avl_st_rx_data [9] $end
$var wire 1 [ avl_st_rx_data [8] $end
$var wire 1 \ avl_st_rx_data [7] $end
$var wire 1 ] avl_st_rx_data [6] $end
$var wire 1 ^ avl_st_rx_data [5] $end
$var wire 1 _ avl_st_rx_data [4] $end
$var wire 1 ` avl_st_rx_data [3] $end
$var wire 1 a avl_st_rx_data [2] $end
$var wire 1 b avl_st_rx_data [1] $end
$var wire 1 c avl_st_rx_data [0] $end
$var wire 1 d avl_st_rx_sop $end
$var wire 1 e avl_st_rx_eop $end
$var wire 1 f avl_st_rx_empty [2] $end
$var wire 1 g avl_st_rx_empty [1] $end
$var wire 1 h avl_st_rx_empty [0] $end
$var reg 1 i out1_valid $end
$var reg 32 j out1_tag [31:0] $end
$var reg 128 k out1_value [127:0] $end
$var reg 1 l out2_valid $end
$var reg 32 m out2_tag [31:0] $end
$var reg 128 n out2_value [127:0] $end
$var reg 10 o rd_cnt [9:0] $end
$var wire 1 p fifo_rdata [63] $end
$var wire 1 q fifo_rdata [62] $end
$var wire 1 r fifo_rdata [61] $end
$var wire 1 s fifo_rdata [60] $end
$var wire 1 t fifo_rdata [59] $end
$var wire 1 u fifo_rdata [58] $end
$var wire 1 v fifo_rdata [57] $end
$var wire 1 w fifo_rdata [56] $end
$var wire 1 x fifo_rdata [55] $end
$var wire 1 y fifo_rdata [54] $end
$var wire 1 z fifo_rdata [53] $end
$var wire 1 { fifo_rdata [52] $end
$var wire 1 | fifo_rdata [51] $end
$var wire 1 } fifo_rdata [50] $end
$var wire 1 ~ fifo_rdata [49] $end
$var wire 1 !! fifo_rdata [48] $end
$var wire 1 "! fifo_rdata [47] $end
$var wire 1 #! fifo_rdata [46] $end
$var wire 1 $! fifo_rdata [45] $end
$var wire 1 %! fifo_rdata [44] $end
$var wire 1 &! fifo_rdata [43] $end
$var wire 1 '! fifo_rdata [42] $end
$var wire 1 (! fifo_rdata [41] $end
$var wire 1 )! fifo_rdata [40] $end
$var wire 1 *! fifo_rdata [39] $end
$var wire 1 +! fifo_rdata [38] $end
$var wire 1 ,! fifo_rdata [37] $end
$var wire 1 -! fifo_rdata [36] $end
$var wire 1 .! fifo_rdata [35] $end
$var wire 1 /! fifo_rdata [34] $end
$var wire 1 0! fifo_rdata [33] $end
$var wire 1 1! fifo_rdata [32] $end
$var wire 1 2! fifo_rdata [31] $end
$var wire 1 3! fifo_rdata [30] $end
$var wire 1 4! fifo_rdata [29] $end
$var wire 1 5! fifo_rdata [28] $end
$var wire 1 6! fifo_rdata [27] $end
$var wire 1 7! fifo_rdata [26] $end
$var wire 1 8! fifo_rdata [25] $end
$var wire 1 9! fifo_rdata [24] $end
$var wire 1 :! fifo_rdata [23] $end
$var wire 1 ;! fifo_rdata [22] $end
$var wire 1 <! fifo_rdata [21] $end
$var wire 1 =! fifo_rdata [20] $end
$var wire 1 >! fifo_rdata [19] $end
$var wire 1 ?! fifo_rdata [18] $end
$var wire 1 @! fifo_rdata [17] $end
$var wire 1 A! fifo_rdata [16] $end
$var wire 1 B! fifo_rdata [15] $end
$var wire 1 C! fifo_rdata [14] $end
$var wire 1 D! fifo_rdata [13] $end
$var wire 1 E! fifo_rdata [12] $end
$var wire 1 F! fifo_rdata [11] $end
$var wire 1 G! fifo_rdata [10] $end
$var wire 1 H! fifo_rdata [9] $end
$var wire 1 I! fifo_rdata [8] $end
$var wire 1 J! fifo_rdata [7] $end
$var wire 1 K! fifo_rdata [6] $end
$var wire 1 L! fifo_rdata [5] $end
$var wire 1 M! fifo_rdata [4] $end
$var wire 1 N! fifo_rdata [3] $end
$var wire 1 O! fifo_rdata [2] $end
$var wire 1 P! fifo_rdata [1] $end
$var wire 1 Q! fifo_rdata [0] $end
$var wire 1 R! fifo_wr $end
$var wire 1 S! equal $end
$var wire 1 T! full $end
$var wire 1 U! empty $end
$var reg 6 V! op_cnt [5:0] $end
$var reg 192 W! tmp_data [191:0] $end
$var reg 4 X! state [3:0] $end

$scope function sm_check $end
$upscope $end
$upscope $end
$upscope $end
$upscope $end

$scope function build $end
$upscope $end

$scope task run $end
$upscope $end

$scope module __ts $end

$scope function build $end
$upscope $end

$scope task run $end
$upscope $end

$scope module parser_op_dual_ut $end

$scope task step $end
$upscope $end

$scope task nextSamplePoint $end
$upscope $end

$scope task reset $end
$upscope $end

$scope function build $end
$upscope $end

$scope task setup $end
$upscope $end

$scope task teardown $end
$upscope $end

$scope task run $end

$scope begin test_rst $end
$upscope $end

$scope begin test_random_400 $end
$upscope $end
$upscope $end

$scope module my_parser_op_dual $end
$var wire 1 Y! fifo1_full $end
$var wire 1 Z! fifo1_empty $end
$var wire 1 [! fifo2_full $end
$var wire 1 \! fifo2_empty $end

$scope function space_check $end
$upscope $end

$scope module i_f1 $end
$upscope $end

$scope module i_f2 $end
$upscope $end
$upscope $end
$upscope $end

$scope module parser_op_ut $end

$scope task step $end
$upscope $end

$scope task nextSamplePoint $end
$upscope $end

$scope task reset $end
$upscope $end

$scope function build $end
$upscope $end

$scope task setup $end
$upscope $end

$scope task teardown $end
$upscope $end

$scope task run $end

$scope begin test_rst $end
$upscope $end

$scope begin test_2_continus_case_empty_0 $end
$upscope $end

$scope begin test_2_continus_case_empty_1 $end
$upscope $end

$scope begin test_2_continus_case_empty_3 $end
$upscope $end

$scope begin test_2_continus_case_igonore_1st_for_5B_tag $end
$upscope $end

$scope begin test_2_continus_case_igonore_2nd_for_5B_tag $end
$upscope $end

$scope begin test_2_continus_case_1st_ignore_17B_value $end
$upscope $end

$scope begin test_2_continus_case_2nd_ignore_17B_value $end
$upscope $end
$upscope $end

$scope module my_parser_op $end
$var wire 1 ! clk $end
$var wire 1 " rst $end
$var wire 1 # avl_st_rx_valid $end
$var wire 1 $ avl_st_rx_data [63] $end
$var wire 1 % avl_st_rx_data [62] $end
$var wire 1 & avl_st_rx_data [61] $end
$var wire 1 ' avl_st_rx_data [60] $end
$var wire 1 ( avl_st_rx_data [59] $end
$var wire 1 ) avl_st_rx_data [58] $end
$var wire 1 * avl_st_rx_data [57] $end
$var wire 1 + avl_st_rx_data [56] $end
$var wire 1 , avl_st_rx_data [55] $end
$var wire 1 - avl_st_rx_data [54] $end
$var wire 1 . avl_st_rx_data [53] $end
$var wire 1 / avl_st_rx_data [52] $end
$var wire 1 0 avl_st_rx_data [51] $end
$var wire 1 1 avl_st_rx_data [50] $end
$var wire 1 2 avl_st_rx_data [49] $end
$var wire 1 3 avl_st_rx_data [48] $end
$var wire 1 4 avl_st_rx_data [47] $end
$var wire 1 5 avl_st_rx_data [46] $end
$var wire 1 6 avl_st_rx_data [45] $end
$var wire 1 7 avl_st_rx_data [44] $end
$var wire 1 8 avl_st_rx_data [43] $end
$var wire 1 9 avl_st_rx_data [42] $end
$var wire 1 : avl_st_rx_data [41] $end
$var wire 1 ; avl_st_rx_data [40] $end
$var wire 1 < avl_st_rx_data [39] $end
$var wire 1 = avl_st_rx_data [38] $end
$var wire 1 > avl_st_rx_data [37] $end
$var wire 1 ? avl_st_rx_data [36] $end
$var wire 1 @ avl_st_rx_data [35] $end
$var wire 1 A avl_st_rx_data [34] $end
$var wire 1 B avl_st_rx_data [33] $end
$var wire 1 C avl_st_rx_data [32] $end
$var wire 1 D avl_st_rx_data [31] $end
$var wire 1 E avl_st_rx_data [30] $end
$var wire 1 F avl_st_rx_data [29] $end
$var wire 1 G avl_st_rx_data [28] $end
$var wire 1 H avl_st_rx_data [27] $end
$var wire 1 I avl_st_rx_data [26] $end
$var wire 1 J avl_st_rx_data [25] $end
$var wire 1 K avl_st_rx_data [24] $end
$var wire 1 L avl_st_rx_data [23] $end
$var wire 1 M avl_st_rx_data [22] $end
$var wire 1 N avl_st_rx_data [21] $end
$var wire 1 O avl_st_rx_data [20] $end
$var wire 1 P avl_st_rx_data [19] $end
$var wire 1 Q avl_st_rx_data [18] $end
$var wire 1 R avl_st_rx_data [17] $end
$var wire 1 S avl_st_rx_data [16] $end
$var wire 1 T avl_st_rx_data [15] $end
$var wire 1 U avl_st_rx_data [14] $end
$var wire 1 V avl_st_rx_data [13] $end
$var wire 1 W avl_st_rx_data [12] $end
$var wire 1 X avl_st_rx_data [11] $end
$var wire 1 Y avl_st_rx_data [10] $end
$var wire 1 Z avl_st_rx_data [9] $end
$var wire 1 [ avl_st_rx_data [8] $end
$var wire 1 \ avl_st_rx_data [7] $end
$var wire 1 ] avl_st_rx_data [6] $end
$var wire 1 ^ avl_st_rx_data [5] $end
$var wire 1 _ avl_st_rx_data [4] $end
$var wire 1 ` avl_st_rx_data [3] $end
$var wire 1 a avl_st_rx_data [2] $end
$var wire 1 b avl_st_rx_data [1] $end
$var wire 1 c avl_st_rx_data [0] $end
$var wire 1 d avl_st_rx_sop $end
$var wire 1 e avl_st_rx_eop $end
$var wire 1 f avl_st_rx_empty [2] $end
$var wire 1 g avl_st_rx_empty [1] $end
$var wire 1 h avl_st_rx_empty [0] $end
$var wire 1 p fifo_rdata [63] $end
$var wire 1 q fifo_rdata [62] $end
$var wire 1 r fifo_rdata [61] $end
$var wire 1 s fifo_rdata [60] $end
$var wire 1 t fifo_rdata [59] $end
$var wire 1 u fifo_rdata [58] $end
$var wire 1 v fifo_rdata [57] $end
$var wire 1 w fifo_rdata [56] $end
$var wire 1 x fifo_rdata [55] $end
$var wire 1 y fifo_rdata [54] $end
$var wire 1 z fifo_rdata [53] $end
$var wire 1 { fifo_rdata [52] $end
$var wire 1 | fifo_rdata [51] $end
$var wire 1 } fifo_rdata [50] $end
$var wire 1 ~ fifo_rdata [49] $end
$var wire 1 !! fifo_rdata [48] $end
$var wire 1 "! fifo_rdata [47] $end
$var wire 1 #! fifo_rdata [46] $end
$var wire 1 $! fifo_rdata [45] $end
$var wire 1 %! fifo_rdata [44] $end
$var wire 1 &! fifo_rdata [43] $end
$var wire 1 '! fifo_rdata [42] $end
$var wire 1 (! fifo_rdata [41] $end
$var wire 1 )! fifo_rdata [40] $end
$var wire 1 *! fifo_rdata [39] $end
$var wire 1 +! fifo_rdata [38] $end
$var wire 1 ,! fifo_rdata [37] $end
$var wire 1 -! fifo_rdata [36] $end
$var wire 1 .! fifo_rdata [35] $end
$var wire 1 /! fifo_rdata [34] $end
$var wire 1 0! fifo_rdata [33] $end
$var wire 1 1! fifo_rdata [32] $end
$var wire 1 2! fifo_rdata [31] $end
$var wire 1 3! fifo_rdata [30] $end
$var wire 1 4! fifo_rdata [29] $end
$var wire 1 5! fifo_rdata [28] $end
$var wire 1 6! fifo_rdata [27] $end
$var wire 1 7! fifo_rdata [26] $end
$var wire 1 8! fifo_rdata [25] $end
$var wire 1 9! fifo_rdata [24] $end
$var wire 1 :! fifo_rdata [23] $end
$var wire 1 ;! fifo_rdata [22] $end
$var wire 1 <! fifo_rdata [21] $end
$var wire 1 =! fifo_rdata [20] $end
$var wire 1 >! fifo_rdata [19] $end
$var wire 1 ?! fifo_rdata [18] $end
$var wire 1 @! fifo_rdata [17] $end
$var wire 1 A! fifo_rdata [16] $end
$var wire 1 B! fifo_rdata [15] $end
$var wire 1 C! fifo_rdata [14] $end
$var wire 1 D! fifo_rdata [13] $end
$var wire 1 E! fifo_rdata [12] $end
$var wire 1 F! fifo_rdata [11] $end
$var wire 1 G! fifo_rdata [10] $end
$var wire 1 H! fifo_rdata [9] $end
$var wire 1 I! fifo_rdata [8] $end
$var wire 1 J! fifo_rdata [7] $end
$var wire 1 K! fifo_rdata [6] $end
$var wire 1 L! fifo_rdata [5] $end
$var wire 1 M! fifo_rdata [4] $end
$var wire 1 N! fifo_rdata [3] $end
$var wire 1 O! fifo_rdata [2] $end
$var wire 1 P! fifo_rdata [1] $end
$var wire 1 Q! fifo_rdata [0] $end
$var wire 1 R! fifo_wr $end
$var wire 1 S! equal $end
$var wire 1 T! full $end
$var wire 1 U! empty $end

$scope function sm_check $end
$upscope $end
$upscope $end
$upscope $end

$scope module parser_ut $end

$scope task step $end
$upscope $end

$scope task nextSamplePoint $end
$upscope $end

$scope task reset $end
$upscope $end

$scope function build $end
$upscope $end

$scope task setup $end
$upscope $end

$scope task teardown $end
$upscope $end

$scope task run $end

$scope begin test_rst $end
$upscope $end

$scope begin test_2_continus_case_empty_0 $end
$upscope $end

$scope begin test_2_continus_case_empty_1 $end
$upscope $end

$scope begin test_2_continus_case_empty_3 $end
$upscope $end

$scope begin test_2_continus_case_igonore_1st_for_5B_tag $end
$upscope $end

$scope begin test_2_continus_case_igonore_2nd_for_5B_tag $end
$upscope $end

$scope begin test_2_continus_case_1st_ignore_17B_value $end
$upscope $end

$scope begin test_2_continus_case_2nd_ignore_17B_value $end
$upscope $end

$scope begin test_random_200 $end
$upscope $end
$upscope $end

$scope module my_parser $end
$var reg 9 ]! wr_cnt [8:0] $end
$var reg 9 ^! rd_cnt [8:0] $end
$upscope $end
$upscope $end
$upscope $end
$upscope $end

$scope begin svunit_pkg $end
$upscope $end

$scope begin std $end
$upscope $end
$enddefinitions $end
#0
$dumpvars
0i
b0 j
b0 k
xl
bx m
bx n
bx o
bx V!
bx W!
b1 X!
bx ]!
bx ^!
xY!
xZ!
x[!
x\!
1!
0"
0#
0c
0b
0a
0`
0_
0^
0]
0\
0[
0Z
0Y
0X
0W
0V
0U
0T
0S
0R
0Q
0P
0O
0N
0M
0L
0K
0J
0I
0H
0G
0F
0E
0D
0C
0B
0A
0@
0?
0>
0=
0<
0;
0:
09
08
07
06
05
04
03
02
01
00
0/
0.
0-
0,
0+
0*
0)
0(
0'
0&
0%
0$
0d
0e
0h
0g
0f
xQ!
xP!
xO!
xN!
xM!
xL!
xK!
xJ!
xI!
xH!
xG!
xF!
xE!
xD!
xC!
xB!
xA!
x@!
x?!
x>!
x=!
x<!
x;!
x:!
x9!
x8!
x7!
x6!
x5!
x4!
x3!
x2!
x1!
x0!
x/!
x.!
x-!
x,!
x+!
x*!
x)!
x(!
x'!
x&!
x%!
x$!
x#!
x"!
x!!
x~
x}
x|
x{
xz
xy
xx
xw
xv
xu
xt
xs
xr
xq
xp
0R!
xS!
xT!
xU!
$end
#10
0[!
0Y!
1Z!
1\!
#60
0Z!
#100
1Z!
#140
0\!
#170
1\!
#210
0Z!
#230
1Z!
#270
0\!
#300
1\!
#340
0Z!
#370
1Z!
#410
0\!
#440
1\!
#480
0Z!
#510
1Z!
#550
0\!
#570
1\!
#610
0Z!
#640
1Z!
#680
0\!
#700
1\!
#740
0Z!
#770
1Z!
#810
0\!
#840
1\!
#880
0Z!
#910
1Z!
#950
0\!
#980
1\!
#1020
0Z!
#1060
1Z!
#1100
0\!
#1130
1\!
#1170
0Z!
#1200
1Z!
#1240
0\!
#1260
1\!
#1300
0Z!
#1330
1Z!
#1370
0\!
#1410
1\!
#1450
0Z!
#1470
1Z!
#1510
0\!
#1540
1\!
#1580
0Z!
#1610
1Z!
#1650
0\!
#1680
1\!
#1720
0Z!
#1750
1Z!
#1790
0\!
#1810
1\!
#1850
0Z!
#1890
1Z!
#1930
0\!
#1960
1\!
#2000
0Z!
#2030
1Z!
#2070
0\!
#2100
1\!
#2140
0Z!
#2170
1Z!
#2210
0\!
#2240
1\!
#2280
0Z!
#2310
1Z!
#2350
0\!
#2380
1\!
#2420
0Z!
#2440
1Z!
#2480
0\!
#2520
1\!
#2560
0Z!
#2590
1Z!
#2630
0\!
#2660
1\!
#2700
0Z!
#2730
1Z!
#2770
0\!
#2810
1\!
#2850
0Z!
#2880
1Z!
#2920
0\!
#2950
1\!
#2990
0Z!
#3030
1Z!
#3070
0\!
#3100
1\!
#3140
0Z!
#3180
1Z!
#3220
0\!
#3260
1\!
#3300
0Z!
#3340
1Z!
#3380
0\!
#3410
1\!
#3450
0Z!
#3480
1Z!
#3520
0\!
#3560
1\!
#3600
0Z!
#3630
1Z!
#3670
0\!
#3690
1\!
#3730
0Z!
#3760
1Z!
#3800
0\!
#3830
1\!
#3870
0Z!
#3890
1Z!
#3930
0\!
#3960
1\!
#4000
0Z!
#4020
1Z!
#4060
0\!
#4090
1\!
#4130
0Z!
#4150
1Z!
#4190
0\!
#4220
1\!
#4260
0Z!
#4280
1Z!
#4320
0\!
#4360
1\!
#4400
0Z!
#4430
1Z!
#4470
0\!
#4510
1\!
#4550
0Z!
#4580
1Z!
#4620
0\!
#4650
1\!
#4690
0Z!
#4710
1Z!
#4750
0\!
#4780
1\!
#4820
0Z!
#4840
1Z!
#4880
0\!
#4920
1\!
#4960
0Z!
#4990
1Z!
#5030
0\!
#5050
1\!
#5090
0Z!
#5120
1Z!
#5160
0\!
#5190
1\!
#5230
0Z!
#5260
1Z!
#5300
0\!
#5330
1\!
#5370
0Z!
#5390
1Z!
#5430
0\!
#5470
1\!
#5510
0Z!
#5540
1Z!
#5580
0\!
#5610
1\!
#5650
0Z!
#5670
1Z!
#5710
0\!
#5740
1\!
#5780
0Z!
#5820
1Z!
#5860
0\!
#5890
1\!
#5930
0Z!
#5960
1Z!
#6000
0\!
#6030
1\!
#6070
0Z!
#6100
1Z!
#6140
0\!
#6170
1\!
#6210
0Z!
#6240
1Z!
#6280
0\!
#6310
1\!
#6350
0Z!
#6390
1Z!
#6430
0\!
#6460
1\!
#6500
0Z!
#6530
1Z!
#6570
0\!
#6600
1\!
#6640
0Z!
#6660
1Z!
#6700
0\!
#6720
1\!
#6760
0Z!
#6790
1Z!
#6830
0\!
#6850
1\!
#6890
0Z!
#6930
1Z!
#6970
0\!
#6990
1\!
#7030
0Z!
#7060
1Z!
#7100
0\!
#7140
1\!
#7180
0Z!
#7220
1Z!
#7260
0\!
#7280
1\!
#7320
0Z!
#7350
1Z!
#7390
0\!
#7430
1\!
#7470
0Z!
#7490
1Z!
#7530
0\!
#7560
1\!
#7600
0Z!
#7620
1Z!
#7660
0\!
#7690
1\!
#7730
0Z!
#7770
1Z!
#7810
0\!
#7840
1\!
#7880
0Z!
#7900
1Z!
#7940
0\!
#7980
1\!
#8020
0Z!
#8050
1Z!
#8090
0\!
#8110
1\!
#8150
0Z!
#8190
1Z!
#8230
0\!
#8250
1\!
#8290
0Z!
#8320
1Z!
#8360
0\!
#8400
1\!
#8440
0Z!
#8460
1Z!
#8500
0\!
#8520
1\!
#8560
0Z!
#8580
1Z!
#8620
0\!
#8660
1\!
#8700
0Z!
#8740
1Z!
#8780
0\!
#8810
1\!
#8850
0Z!
#8880
1Z!
#8920
0\!
#8960
1\!
#9000
0Z!
#9020
1Z!
#9060
0\!
#9080
1\!
#9120
0Z!
#9140
1Z!
#9180
0\!
#9210
1\!
#9250
0Z!
#9280
1Z!
#9320
0\!
#9340
1\!
#9380
0Z!
#9410
1Z!
#9450
0\!
#9480
1\!
#9520
0Z!
#9560
1Z!
#9600
0\!
#9630
1\!
#9670
0Z!
#9710
1Z!
#9750
0\!
#9780
1\!
#9820
0Z!
#9860
1Z!
#9900
0\!
#9940
1\!
#9980
0Z!
#10010
1Z!
#10050
0\!
#10080
1\!
#10120
0Z!
#10150
1Z!
#10190
0\!
#10220
1\!
#10260
0Z!
#10280
1Z!
#10320
0\!
#10350
1\!
#10390
0Z!
#10410
1Z!
#10450
0\!
#10480
1\!
#10520
0Z!
#10540
1Z!
#10580
0\!
#10600
1\!
#10640
0Z!
#10680
1Z!
#10720
0\!
#10750
1\!
#10790
0Z!
#10820
1Z!
#10860
0\!
#10890
1\!
#10930
0Z!
#10960
1Z!
#11000
0\!
#11020
1\!
#11060
0Z!
#11090
1Z!
#11130
0\!
#11170
1\!
#11210
0Z!
#11230
1Z!
#11270
0\!
#11290
1\!
#11330
0Z!
#11350
1Z!
#11390
0\!
#11430
1\!
#11470
0Z!
#11500
1Z!
#11540
0\!
#11580
1\!
#11620
0Z!
#11650
1Z!
#11690
0\!
#11710
1\!
#11750
0Z!
#11790
1Z!
#11830
0\!
#11860
1\!
#11900
0Z!
#11940
1Z!
#11980
0\!
#12010
1\!
#12050
0Z!
#12070
1Z!
#12110
0\!
#12130
1\!
#12170
0Z!
#12200
1Z!
#12240
0\!
#12280
1\!
#12320
0Z!
#12350
1Z!
#12390
0\!
#12420
1\!
#12460
0Z!
#12490
1Z!
#12530
0\!
#12560
1\!
#12600
0Z!
#12630
1Z!
#12670
0\!
#12700
1\!
#12740
0Z!
#12770
1Z!
#12810
0\!
#12840
1\!
#12880
0Z!
#12920
1Z!
#12960
0\!
#12980
1\!
#13020
0Z!
#13050
1Z!
#13090
0\!
#13120
1\!
#13160
0Z!
#13200
1Z!
#13240
0\!
#13260
1\!
#13300
0Z!
#13330
1Z!
#13370
0\!
#13400
1\!
#13440
0Z!
#13470
1Z!
#13510
0\!
#13530
1\!
#13570
0Z!
#13590
1Z!
#13630
0\!
#13660
1\!
#13700
0Z!
#13740
1Z!
#13780
0\!
#13810
1\!
#13850
0Z!
#13890
1Z!
#13930
0\!
#13970
1\!
#13995
0!
#14000
1"
1!
b0 o
b0 V!
b0 W!
0T!
1S!
1U!
#14005
0!
#14010
1!
#14015
0!
#14020
0"
1!
b1 V!
#14025
0!
#14030
1!
b10 V!
#14035
0!
#14040
1!
b11 V!
#14041
1#
1d
1R!
1`
1_
1^
1]
1Z
1Y
1W
1U
1Q
1O
1N
1J
1G
1C
1A
1@
1?
1>
1;
1:
19
18
16
15
14
13
11
10
1-
1,
1+
1*
1(
1&
1$
#14045
0!
#14050
1!
b100 V!
0S!
0Q!
0P!
0O!
1N!
1M!
1L!
1K!
0J!
1w
1v
0u
1t
0s
1r
0q
1p
1!!
0~
1}
1|
0{
0z
1y
1x
1)!
1(!
1'!
1&!
0%!
1$!
1#!
1"!
11!
00!
1/!
1.!
1-!
1,!
0+!
0*!
09!
18!
07!
06!
15!
04!
03!
02!
0A!
0@!
1?!
0>!
1=!
1<!
0;!
0:!
0I!
1H!
1G!
0F!
1E!
0D!
1C!
0B!
0U!
#14051
0d
1c
0_
0^
0]
1\
1[
0W
1V
1S
0O
0N
1M
1K
0G
1F
0A
0@
0>
#14055
0!
#14060
1!
b101 V!
b10 X!
#14061
0:
09
08
06
05
04
03
00
1/
1.
0-
0,
0+
0(
1'
0&
0$
#14065
0!
#14070
1!
b1000 o
b110 V!
b0 V!
b1010101111001101111011110011110100010010001101000101011001111000 W!
b100 X!
b101010111100110111101111 k
b10010001101000101011001111000 j
1Q!
0M!
0L!
0K!
1J!
0/!
0.!
0,!
19!
05!
14!
1A!
0=!
0<!
1;!
1I!
0E!
1D!
#14071
1a
1_
1^
0\
1X
1T
1P
1L
1H
1D
1@
0?
1<
1:
19
16
15
13
0/
0.
1-
1+
0'
1&
#14075
0!
#14080
1!
b10000 o
b1 V!
b10101011110011011110111100010001001000110100010101100111100010011010101111001101111011110011110100010010001101000101011001111000 W!
b1010101111001101111011110001000100100011010001010110011110001001101010111100110111101111 k
0w
0v
0t
0r
0p
0!!
0}
0|
0y
0x
0(!
0'!
0&!
0$!
0#!
0"!
#14081
1e
0a
0`
0^
0*
0&
#14085
0!
#14090
1!
b11000 o
b10 V!
b1000100010010001101000101011001111000100110101011110011011110111100010001001000110100010101100111100010011010101111001101111011110011110100010010001101000101011001111000 W!
1i
b1000 X!
b1 X!
b10001001000110100010101100111100010011010101111001101111011110001000100100011010001010110011110001001101010111100110111101111 k
0Q!
1O!
0N!
1M!
1L!
0J!
1w
1v
1u
1r
1q
1!!
1|
1x
1(!
1&!
1$!
1"!
1/!
1.!
0-!
1+!
1*!
17!
16!
13!
12!
1>!
1=!
1<!
0;!
0I!
0G!
1E!
0D!
0C!
#14091
0#
0e
0R!
#14095
0!
#14100
1!
0i
b11 V!
b10 X!
b0 W!
b0 k
#14105
0!
#14110
1!
b100 V!
b0 V!
b110011110001001101010111100110111101111001111010001001000110100 W!
b100 X!
b100000 o
b110011110001001101010111100110111101111 k
b1001000110100 j
1Q!
0M!
0L!
1K!
0?!
0>!
0<!
1I!
0E!
1D!
#14115
0!
#14120
1!
b101000 o
b1 V!
b1100111100010011010101111001101111011110001000100100011010001010110011110001001101010111100110111101111001111010001001000110100 W!
b1100111100010011010101111001101111011110001000100100011010001010110011110001001101010111100110111101111 k
xw
xv
xu
xt
xs
xr
xq
xp
0!!
0|
0x
0)!
0(!
0&!
0$!
0"!
01!
0/!
0.!
0+!
0*!
09!
08!
07!
06!
04!
03!
02!
0A!
0=!
0H!
0D!
#14125
0!
#14130
1!
b110000 o
b10 V!
bx0000000000000000000000000000000000000000000000010100010101100111100010011010101111001101111011110001000100100011010001010110011110001001101010111100110111101111001111010001001000110100 W!
1i
b1000 X!
b1 X!
b10100010101100111100010011010101111001101111011110001000100100011010001010110011110001001101010111100110111101111 k
xQ!
xP!
xO!
xN!
xM!
xL!
xK!
xJ!
x!!
x~
x}
x|
x{
xz
xy
xx
x)!
x(!
x'!
x&!
x%!
x$!
x#!
x"!
x1!
x0!
x/!
x.!
x-!
x,!
x+!
x*!
x9!
x8!
x7!
x6!
x5!
x4!
x3!
x2!
xA!
x@!
x?!
x>!
x=!
x<!
x;!
x:!
xI!
xH!
xG!
xF!
xE!
xD!
xC!
xB!
1S!
1U!
#14135
0!
#14140
1h
1!
0i
b11 V!
#14145
0!
#14150
1!
b100 V!
#14151
1#
1d
1R!
0c
1`
1^
1]
0[
0X
1W
0V
0T
0S
0P
1O
1N
0M
0L
0K
0H
1G
0F
0D
1A
1?
1>
0<
18
14
10
1,
1*
1(
1&
1$
#14155
0!
#14160
1!
b101 V!
0S!
0Q!
0P!
0O!
1N!
1M!
1L!
1K!
0J!
1w
1v
0u
1t
0s
1r
0q
1p
1!!
0~
1}
1|
0{
0z
1y
1x
1)!
1(!
1'!
1&!
0%!
1$!
1#!
1"!
11!
00!
1/!
1.!
1-!
1,!
0+!
0*!
09!
18!
07!
06!
15!
04!
03!
02!
0A!
0@!
1?!
0>!
1=!
1<!
0;!
0:!
0I!
1H!
1G!
0F!
1E!
0D!
1C!
0B!
0U!
#14161
0d
1c
0_
0^
0]
1\
1[
0W
1V
1S
0O
0N
1M
1K
0G
1F
0A
0@
0>
#14165
0!
#14170
1!
b110 V!
b10 X!
b0 W!
b0 k
#14171
0?
0;
0:
08
17
05
04
03
12
01
00
1/
0-
0,
0*
1)
1'
0$
#14175
0!
#14180
1!
b111000 o
b111 V!
b0 V!
b1010101111001101111011110011110100010010001101000101011001111000 W!
b100 X!
b101010111100110111101111 k
b10010001101000101011001111000 j
1Q!
0M!
0L!
0K!
1J!
0/!
0.!
0,!
19!
05!
14!
1A!
0=!
0<!
1;!
1I!
0E!
1D!
#14181
1b
1a
1^
1]
0Z
1X
0V
1T
1R
0Q
1P
1N
0M
1L
0J
1H
0F
1D
1B
1A
1>
1=
1;
07
06
15
13
0/
1.
0)
0(
0&
#14185
0!
